EESchema Schematic File Version 2
LIBS:sn1534-rescue
LIBS:power
LIBS:device
LIBS:transistors
LIBS:conn
LIBS:linear
LIBS:regul
LIBS:74xx
LIBS:cmos4000
LIBS:adc-dac
LIBS:memory
LIBS:xilinx
LIBS:microcontrollers
LIBS:dsp
LIBS:microchip
LIBS:analog_switches
LIBS:motorola
LIBS:texas
LIBS:intel
LIBS:audio
LIBS:interface
LIBS:digital-audio
LIBS:philips
LIBS:display
LIBS:cypress
LIBS:siliconi
LIBS:opto
LIBS:atmel
LIBS:contrib
LIBS:valves
LIBS:maxim
LIBS:hetii
LIBS:sn1534-cache
EELAYER 25 0
EELAYER END
$Descr A4 11693 8268
encoding utf-8
Sheet 1 1
Title ""
Date ""
Rev ""
Comp ""
Comment1 ""
Comment2 ""
Comment3 ""
Comment4 ""
$EndDescr
$Comp
L Q_PMOS_GDS Q4
U 1 1 5829BC48
P 8150 1600
F 0 "Q4" V 8050 1800 50  0000 R CNN
F 1 "IRFP9140" V 8450 1800 50  0000 R CNN
F 2 "TO_SOT_Packages_THT:TO-247_Vertical_Neutral123_largePads" V 8350 1600 50  0001 C CNN
F 3 "" H 8150 1600 50  0000 C CNN
	1    8150 1600
	0    1    -1   0   
$EndComp
$Comp
L R R10
U 1 1 5829BC75
P 7950 2050
F 0 "R10" V 8030 2050 50  0000 C CNN
F 1 "1k" V 7950 2050 50  0000 C CNN
F 2 "Resistors_SMD:R_1206_HandSoldering" V 7880 2050 50  0001 C CNN
F 3 "" H 7950 2050 50  0000 C CNN
	1    7950 2050
	1    0    0    -1  
$EndComp
$Comp
L R R12
U 1 1 5829BCF6
P 8150 2050
F 0 "R12" V 8230 2050 50  0000 C CNN
F 1 "1k" V 8150 2050 50  0000 C CNN
F 2 "Resistors_THT:Resistor_Horizontal_RM15mm" V 8080 2050 50  0001 C CNN
F 3 "" H 8150 2050 50  0000 C CNN
	1    8150 2050
	1    0    0    -1  
$EndComp
$Comp
L CP C29
U 1 1 5829BD9C
P 7550 1650
F 0 "C29" H 7575 1750 50  0000 L CNN
F 1 "10000uF/25v" V 7550 1900 50  0000 L CNN
F 2 "kicadlib:C_Radial_D35_L51_P18" H 7588 1500 50  0001 C CNN
F 3 "" H 7550 1650 50  0000 C CNN
	1    7550 1650
	1    0    0    -1  
$EndComp
$Comp
L CP C27
U 1 1 5829BE19
P 7250 1650
F 0 "C27" H 7275 1750 50  0000 L CNN
F 1 "10000uF/25v" V 7250 1900 50  0000 L CNN
F 2 "kicadlib:C_Radial_D35_L51_P18" H 7288 1500 50  0001 C CNN
F 3 "" H 7250 1650 50  0000 C CNN
	1    7250 1650
	1    0    0    -1  
$EndComp
$Comp
L C C26
U 1 1 5829BE54
P 6950 1650
F 0 "C26" H 6975 1750 50  0000 L CNN
F 1 "100nF" V 6950 1900 50  0000 L CNN
F 2 "Capacitors_SMD:C_1206_HandSoldering" H 6988 1500 50  0001 C CNN
F 3 "" H 6950 1650 50  0000 C CNN
	1    6950 1650
	1    0    0    -1  
$EndComp
$Comp
L C C25
U 1 1 5829BEB7
P 6650 1650
F 0 "C25" H 6675 1750 50  0000 L CNN
F 1 "10nF" V 6650 1900 50  0000 L CNN
F 2 "Capacitors_SMD:C_1206_HandSoldering" H 6688 1500 50  0001 C CNN
F 3 "" H 6650 1650 50  0000 C CNN
	1    6650 1650
	1    0    0    -1  
$EndComp
$Comp
L GND #PWR01
U 1 1 5829BF46
P 6650 1900
F 0 "#PWR01" H 6650 1650 50  0001 C CNN
F 1 "GND" H 6650 1750 50  0000 C CNN
F 2 "" H 6650 1900 50  0000 C CNN
F 3 "" H 6650 1900 50  0000 C CNN
	1    6650 1900
	1    0    0    -1  
$EndComp
$Comp
L GND #PWR02
U 1 1 5829BF80
P 6950 1900
F 0 "#PWR02" H 6950 1650 50  0001 C CNN
F 1 "GND" H 6950 1750 50  0000 C CNN
F 2 "" H 6950 1900 50  0000 C CNN
F 3 "" H 6950 1900 50  0000 C CNN
	1    6950 1900
	1    0    0    -1  
$EndComp
$Comp
L GND #PWR03
U 1 1 5829BFA2
P 7250 1900
F 0 "#PWR03" H 7250 1650 50  0001 C CNN
F 1 "GND" H 7250 1750 50  0000 C CNN
F 2 "" H 7250 1900 50  0000 C CNN
F 3 "" H 7250 1900 50  0000 C CNN
	1    7250 1900
	1    0    0    -1  
$EndComp
$Comp
L GND #PWR04
U 1 1 5829BFC4
P 7550 1900
F 0 "#PWR04" H 7550 1650 50  0001 C CNN
F 1 "GND" H 7550 1750 50  0000 C CNN
F 2 "" H 7550 1900 50  0000 C CNN
F 3 "" H 7550 1900 50  0000 C CNN
	1    7550 1900
	1    0    0    -1  
$EndComp
$Comp
L LM358N U6
U 2 1 5829C21F
P 6750 3850
F 0 "U6" H 6700 4050 50  0000 L CNN
F 1 "LM358N" H 6700 3600 50  0000 L CNN
F 2 "Housings_DIP:DIP-8_W7.62mm_LongPads" H 6750 3850 50  0001 C CNN
F 3 "" H 6750 3850 50  0000 C CNN
	2    6750 3850
	1    0    0    -1  
$EndComp
$Comp
L LM358N U6
U 1 1 5829C2FC
P 6750 2850
F 0 "U6" H 6700 3050 50  0000 L CNN
F 1 "LM358N" H 6700 2600 50  0000 L CNN
F 2 "Housings_DIP:DIP-8_W7.62mm_LongPads" H 6750 2850 50  0001 C CNN
F 3 "" H 6750 2850 50  0000 C CNN
	1    6750 2850
	1    0    0    1   
$EndComp
$Comp
L BC547 Q3
U 1 1 5829C3C9
P 7850 2850
F 0 "Q3" H 8050 2925 50  0000 L CNN
F 1 "BC337" H 8050 2850 50  0000 L CNN
F 2 "TO_SOT_Packages_THT:TO-92_Inline_Wide" H 8050 2775 50  0001 L CIN
F 3 "" H 7850 2850 50  0000 L CNN
	1    7850 2850
	1    0    0    -1  
$EndComp
$Comp
L R R9
U 1 1 5829C5D1
P 7300 2850
F 0 "R9" V 7380 2850 50  0000 C CNN
F 1 "1k" V 7300 2850 50  0000 C CNN
F 2 "Resistors_SMD:R_1206_HandSoldering" V 7230 2850 50  0001 C CNN
F 3 "" H 7300 2850 50  0000 C CNN
	1    7300 2850
	0    1    1    0   
$EndComp
$Comp
L R R11
U 1 1 5829C6A8
P 7950 3350
F 0 "R11" V 8030 3350 50  0000 C CNN
F 1 "1k" V 7950 3350 50  0000 C CNN
F 2 "Resistors_SMD:R_1206_HandSoldering" V 7880 3350 50  0001 C CNN
F 3 "" H 7950 3350 50  0000 C CNN
	1    7950 3350
	1    0    0    -1  
$EndComp
$Comp
L GND #PWR05
U 1 1 5829C717
P 7950 3600
F 0 "#PWR05" H 7950 3350 50  0001 C CNN
F 1 "GND" H 7950 3450 50  0000 C CNN
F 2 "" H 7950 3600 50  0000 C CNN
F 3 "" H 7950 3600 50  0000 C CNN
	1    7950 3600
	1    0    0    -1  
$EndComp
$Comp
L D D14
U 1 1 5829C854
P 7350 3850
F 0 "D14" H 7350 3950 50  0000 C CNN
F 1 "1n4148" H 7350 3750 50  0000 C CNN
F 2 "Diodes_THT:Diode_DO-35_SOD27_Horizontal_RM10" H 7350 3850 50  0001 C CNN
F 3 "" H 7350 3850 50  0000 C CNN
	1    7350 3850
	1    0    0    -1  
$EndComp
$Comp
L R R4
U 1 1 5829CD57
P 5850 2950
F 0 "R4" V 5930 2950 50  0000 C CNN
F 1 "5k6" V 5850 2950 50  0000 C CNN
F 2 "Resistors_SMD:R_1206_HandSoldering" V 5780 2950 50  0001 C CNN
F 3 "" H 5850 2950 50  0000 C CNN
	1    5850 2950
	0    1    1    0   
$EndComp
$Comp
L CP C23
U 1 1 5829CE80
P 6050 4300
F 0 "C23" H 6075 4400 50  0000 L CNN
F 1 "1uF" H 6075 4200 50  0000 L CNN
F 2 "Capacitors_THT:C_Radial_D6.3_L11.2_P2.5" H 6088 4150 50  0001 C CNN
F 3 "" H 6050 4300 50  0000 C CNN
	1    6050 4300
	1    0    0    -1  
$EndComp
$Comp
L R R5
U 1 1 5829D21E
P 5850 3750
F 0 "R5" V 5930 3750 50  0000 C CNN
F 1 "1k" V 5850 3750 50  0000 C CNN
F 2 "Resistors_SMD:R_1206_HandSoldering" V 5780 3750 50  0001 C CNN
F 3 "" H 5850 3750 50  0000 C CNN
	1    5850 3750
	0    1    1    0   
$EndComp
$Comp
L CP C31
U 1 1 5829D58F
P 9350 1650
F 0 "C31" H 9375 1750 50  0000 L CNN
F 1 "10uF/25V" V 9350 1900 50  0000 L CNN
F 2 "Capacitors_THT:C_Radial_D6.3_L11.2_P2.5" H 9388 1500 50  0001 C CNN
F 3 "" H 9350 1650 50  0000 C CNN
	1    9350 1650
	1    0    0    -1  
$EndComp
$Comp
L C C32
U 1 1 5829D6B1
P 9650 1650
F 0 "C32" H 9675 1750 50  0000 L CNN
F 1 "100nF" V 9650 1900 50  0000 L CNN
F 2 "Capacitors_SMD:C_1206_HandSoldering" H 9688 1500 50  0001 C CNN
F 3 "" H 9650 1650 50  0000 C CNN
	1    9650 1650
	1    0    0    -1  
$EndComp
$Comp
L C C33
U 1 1 5829D716
P 9950 1650
F 0 "C33" H 9975 1750 50  0000 L CNN
F 1 "10nF" V 9950 1900 50  0000 L CNN
F 2 "Capacitors_SMD:C_1206_HandSoldering" H 9988 1500 50  0001 C CNN
F 3 "" H 9950 1650 50  0000 C CNN
	1    9950 1650
	1    0    0    -1  
$EndComp
$Comp
L D D16
U 1 1 5829D77D
P 10250 1650
F 0 "D16" H 10250 1750 50  0000 C CNN
F 1 "BY399" H 10250 1550 50  0000 C CNN
F 2 "Diodes_THT:Diode_DO-41_SOD81_Horizontal_RM10" H 10250 1650 50  0001 C CNN
F 3 "" H 10250 1650 50  0000 C CNN
	1    10250 1650
	0    1    1    0   
$EndComp
$Comp
L R R15
U 1 1 5829E5F2
P 8950 2750
F 0 "R15" V 9030 2750 50  0000 C CNN
F 1 "8k2" V 8950 2750 50  0000 C CNN
F 2 "Resistors_SMD:R_1206_HandSoldering" V 8880 2750 50  0001 C CNN
F 3 "" H 8950 2750 50  0000 C CNN
	1    8950 2750
	1    0    0    -1  
$EndComp
$Comp
L R R14
U 1 1 5829E8C6
P 8950 2050
F 0 "R14" V 9030 2050 50  0000 C CNN
F 1 "86k" V 8950 2050 50  0000 C CNN
F 2 "Resistors_SMD:R_1206_HandSoldering" V 8880 2050 50  0001 C CNN
F 3 "" H 8950 2050 50  0000 C CNN
	1    8950 2050
	1    0    0    -1  
$EndComp
$Comp
L GNDD #PWR06
U 1 1 5829F7D4
P 9350 2000
F 0 "#PWR06" H 9350 1750 50  0001 C CNN
F 1 "GNDD" H 9350 1850 50  0000 C CNN
F 2 "" H 9350 2000 50  0000 C CNN
F 3 "" H 9350 2000 50  0000 C CNN
	1    9350 2000
	1    0    0    -1  
$EndComp
$Comp
L GNDD #PWR07
U 1 1 5829F818
P 9650 2000
F 0 "#PWR07" H 9650 1750 50  0001 C CNN
F 1 "GNDD" H 9650 1850 50  0000 C CNN
F 2 "" H 9650 2000 50  0000 C CNN
F 3 "" H 9650 2000 50  0000 C CNN
	1    9650 2000
	1    0    0    -1  
$EndComp
$Comp
L GNDD #PWR08
U 1 1 5829F85C
P 9950 2000
F 0 "#PWR08" H 9950 1750 50  0001 C CNN
F 1 "GNDD" H 9950 1850 50  0000 C CNN
F 2 "" H 9950 2000 50  0000 C CNN
F 3 "" H 9950 2000 50  0000 C CNN
	1    9950 2000
	1    0    0    -1  
$EndComp
$Comp
L GNDD #PWR09
U 1 1 5829F8A0
P 10250 2000
F 0 "#PWR09" H 10250 1750 50  0001 C CNN
F 1 "GNDD" H 10250 1850 50  0000 C CNN
F 2 "" H 10250 2000 50  0000 C CNN
F 3 "" H 10250 2000 50  0000 C CNN
	1    10250 2000
	1    0    0    -1  
$EndComp
$Comp
L GNDD #PWR010
U 1 1 5829FE6B
P 6350 4850
F 0 "#PWR010" H 6350 4600 50  0001 C CNN
F 1 "GNDD" V 6400 4950 50  0000 C CNN
F 2 "" H 6350 4850 50  0000 C CNN
F 3 "" H 6350 4850 50  0000 C CNN
	1    6350 4850
	1    0    0    -1  
$EndComp
$Comp
L GND #PWR011
U 1 1 5829FF83
P 6650 4850
F 0 "#PWR011" H 6650 4600 50  0001 C CNN
F 1 "GND" H 6650 4700 50  0000 C CNN
F 2 "" H 6650 4850 50  0000 C CNN
F 3 "" H 6650 4850 50  0000 C CNN
	1    6650 4850
	1    0    0    -1  
$EndComp
$Comp
L GND #PWR012
U 1 1 5829D1BD
P 2550 5050
F 0 "#PWR012" H 2550 4800 50  0001 C CNN
F 1 "GND" H 2550 4900 50  0000 C CNN
F 2 "" H 2550 5050 50  0000 C CNN
F 3 "" H 2550 5050 50  0000 C CNN
	1    2550 5050
	1    0    0    -1  
$EndComp
$Comp
L BD249C Q5
U 1 1 582A6C44
P 8400 1000
F 0 "Q5" V 8600 700 50  0000 L CNN
F 1 "BD249C" V 8800 850 50  0000 L CNN
F 2 "TO_SOT_Packages_THT:TO-247_Vertical_Neutral123_largePads" V 8700 850 50  0001 L CIN
F 3 "" H 8400 1000 50  0000 L CNN
	1    8400 1000
	0    -1   -1   0   
$EndComp
$Comp
L R R13
U 1 1 582A7146
P 8800 1500
F 0 "R13" V 8600 1500 50  0000 C CNN
F 1 "0.5/5W" V 8700 1500 50  0000 C CNN
F 2 "Resistors_THT:Resistor_Horizontal_RM25mm" V 8730 1500 50  0001 C CNN
F 3 "" H 8800 1500 50  0000 C CNN
	1    8800 1500
	0    1    1    0   
$EndComp
$Comp
L C C30
U 1 1 582A719D
P 8800 1700
F 0 "C30" V 8700 1750 50  0000 L CNN
F 1 "100nF" V 8950 1600 50  0000 L CNN
F 2 "Capacitors_SMD:C_1206_HandSoldering" H 8838 1550 50  0001 C CNN
F 3 "" H 8800 1700 50  0000 C CNN
	1    8800 1700
	0    1    1    0   
$EndComp
$Comp
L CONN_01X08 P5
U 1 1 582A91B6
P 5100 2750
F 0 "P5" H 5100 3200 50  0000 C CNN
F 1 "CONN_01X08" V 5200 2750 50  0000 C CNN
F 2 "Pin_Headers:Pin_Header_Straight_1x08" H 5100 2750 50  0001 C CNN
F 3 "" H 5100 2750 50  0000 C CNN
	1    5100 2750
	0    -1   -1   0   
$EndComp
$Comp
L CONN_01X08 P4
U 1 1 582A934F
P 5100 2450
F 0 "P4" H 5100 2900 50  0000 C CNN
F 1 "CONN_01X08" V 5200 2450 50  0000 C CNN
F 2 "Pin_Headers:Pin_Header_Straight_1x08" H 5100 2450 50  0001 C CNN
F 3 "" H 5100 2450 50  0000 C CNN
	1    5100 2450
	0    -1   1    0   
$EndComp
$Comp
L POT-RESCUE-sn1534 RV2
U 1 1 582A9604
P 5450 2000
F 0 "RV2" H 5450 1900 50  0000 C CNN
F 1 "1k" H 5450 2000 50  0000 C CNN
F 2 "Potentiometers:Potentiometer_Alps-RK16-single_largePads" H 5450 2000 50  0001 C CNN
F 3 "" H 5450 2000 50  0000 C CNN
	1    5450 2000
	-1   0    0    1   
$EndComp
$Comp
L C C19
U 1 1 582AA6D8
P 3400 3600
F 0 "C19" H 3350 3850 50  0000 L CNN
F 1 "100nF" V 3250 3500 50  0000 L CNN
F 2 "Capacitors_SMD:C_1206_HandSoldering" H 3438 3450 50  0001 C CNN
F 3 "" H 3400 3600 50  0000 C CNN
	1    3400 3600
	1    0    0    -1  
$EndComp
$Comp
L CP C18
U 1 1 582AA7BE
P 3100 3600
F 0 "C18" H 3050 3850 50  0000 L CNN
F 1 "10uF" V 2950 3500 50  0000 L CNN
F 2 "Capacitors_THT:C_Radial_D6.3_L11.2_P2.5" H 3138 3450 50  0001 C CNN
F 3 "" H 3100 3600 50  0000 C CNN
	1    3100 3600
	1    0    0    -1  
$EndComp
$Comp
L C C17
U 1 1 582A6955
P 3400 4800
F 0 "C17" H 3350 5050 50  0000 L CNN
F 1 "100nF" V 3250 4700 50  0000 L CNN
F 2 "Capacitors_SMD:C_1206_HandSoldering" H 3438 4650 50  0001 C CNN
F 3 "" H 3400 4800 50  0000 C CNN
	1    3400 4800
	1    0    0    -1  
$EndComp
$Comp
L CP C16
U 1 1 582A695B
P 3100 4800
F 0 "C16" H 3050 5050 50  0000 L CNN
F 1 "10uF" V 2900 4700 50  0000 L CNN
F 2 "Capacitors_THT:C_Radial_D6.3_L11.2_P2.5" H 3138 4650 50  0001 C CNN
F 3 "" H 3100 4800 50  0000 C CNN
	1    3100 4800
	1    0    0    -1  
$EndComp
$Comp
L R R2
U 1 1 582A73AB
P 4600 3150
F 0 "R2" V 4700 3150 50  0000 L CNN
F 1 "32k" V 4600 3100 50  0000 L CNN
F 2 "Resistors_SMD:R_1206_HandSoldering" V 4530 3150 50  0001 C CNN
F 3 "" H 4600 3150 50  0000 C CNN
	1    4600 3150
	0    1    1    0   
$EndComp
$Comp
L GND #PWR013
U 1 1 582A8567
P 6050 4850
F 0 "#PWR013" H 6050 4600 50  0001 C CNN
F 1 "GND" H 6055 4677 50  0000 C CNN
F 2 "" H 6050 4850 50  0000 C CNN
F 3 "" H 6050 4850 50  0000 C CNN
	1    6050 4850
	1    0    0    -1  
$EndComp
$Comp
L CP C24
U 1 1 5829CD1E
P 6200 3100
F 0 "C24" H 6225 3200 50  0000 L CNN
F 1 "1uF" H 6250 3000 50  0000 L CNN
F 2 "Capacitors_THT:C_Radial_D6.3_L11.2_P2.5" H 6238 2950 50  0001 C CNN
F 3 "" H 6200 3100 50  0000 C CNN
	1    6200 3100
	1    0    0    -1  
$EndComp
$Comp
L GND #PWR014
U 1 1 582A8E64
P 6200 4850
F 0 "#PWR014" H 6200 4600 50  0001 C CNN
F 1 "GND" H 6205 4677 50  0000 C CNN
F 2 "" H 6200 4850 50  0000 C CNN
F 3 "" H 6200 4850 50  0000 C CNN
	1    6200 4850
	1    0    0    -1  
$EndComp
$Comp
L GNDD #PWR015
U 1 1 582AB0EB
P 5150 3050
F 0 "#PWR015" H 5150 2800 50  0001 C CNN
F 1 "GNDD" H 5155 2877 50  0000 C CNN
F 2 "" H 5150 3050 50  0000 C CNN
F 3 "" H 5150 3050 50  0000 C CNN
	1    5150 3050
	1    0    0    -1  
$EndComp
$Comp
L POT-RESCUE-sn1534 RV1
U 1 1 582ACF95
P 5000 2000
F 0 "RV1" H 5000 1900 50  0000 C CNN
F 1 "1k" H 5000 2000 50  0000 C CNN
F 2 "Potentiometers:Potentiometer_Alps-RK16-single_largePads" H 5000 2000 50  0001 C CNN
F 3 "" H 5000 2000 50  0000 C CNN
	1    5000 2000
	-1   0    0    1   
$EndComp
$Comp
L GND #PWR016
U 1 1 582AD2DE
P 5450 3050
F 0 "#PWR016" H 5450 2800 50  0001 C CNN
F 1 "GND" H 5455 2877 50  0000 C CNN
F 2 "" H 5450 3050 50  0000 C CNN
F 3 "" H 5450 3050 50  0000 C CNN
	1    5450 3050
	1    0    0    -1  
$EndComp
$Comp
L LED-RESCUE-sn1534 D11
U 1 1 582B08A8
P 4700 1950
F 0 "D11" V 4450 1900 50  0000 L CNN
F 1 "Voltage" H 4600 1850 50  0000 L CNN
F 2 "LEDs:LED-5MM" H 4700 1950 50  0001 C CNN
F 3 "" H 4700 1950 50  0000 C CNN
	1    4700 1950
	0    1    1    0   
$EndComp
$Comp
L R R3
U 1 1 582B0BBF
P 5000 1750
F 0 "R3" V 4900 1750 50  0000 C CNN
F 1 "1k" V 5000 1750 50  0000 C CNN
F 2 "Resistors_SMD:R_1206_HandSoldering" V 4930 1750 50  0001 C CNN
F 3 "" H 5000 1750 50  0000 C CNN
	1    5000 1750
	0    1    1    0   
$EndComp
$Comp
L LED-RESCUE-sn1534 D9
U 1 1 582B153D
P 4250 1950
F 0 "D9" V 4000 1950 50  0000 L CNN
F 1 "Current" H 4150 2050 50  0000 L CNN
F 2 "LEDs:LED-5MM" H 4250 1950 50  0001 C CNN
F 3 "" H 4250 1950 50  0000 C CNN
	1    4250 1950
	0    1    1    0   
$EndComp
$Comp
L ZENER D10
U 1 1 582B1C1E
P 4450 2250
F 0 "D10" H 4300 2300 50  0000 C CNN
F 1 "4v7" H 4600 2300 50  0000 C CNN
F 2 "Diodes_THT:Diode_DO-35_SOD27_Horizontal_RM10" H 4450 2250 50  0001 C CNN
F 3 "" H 4450 2250 50  0000 C CNN
	1    4450 2250
	-1   0    0    1   
$EndComp
$Comp
L D_Schottky_Small D2
U 1 1 582B66D3
P 1950 1450
F 0 "D2" H 1700 1350 50  0000 C CNN
F 1 "MBR10100" H 1550 1450 50  0000 C CNN
F 2 "Diodes_THT:Diode_TO-220_Vertical" V 1950 1450 50  0001 C CNN
F 3 "" V 1950 1450 50  0000 C CNN
	1    1950 1450
	0    1    1    0   
$EndComp
$Comp
L D_Schottky_Small D4
U 1 1 582B7D78
P 2200 1450
F 0 "D4" H 2450 1550 50  0000 C CNN
F 1 "MBR10100" H 2600 1450 50  0000 C CNN
F 2 "Diodes_THT:Diode_TO-220_Vertical" V 2200 1450 50  0001 C CNN
F 3 "" V 2200 1450 50  0000 C CNN
	1    2200 1450
	0    -1   -1   0   
$EndComp
$Comp
L D_Schottky_Small D3
U 1 1 582B7E20
P 1950 1850
F 0 "D3" H 1400 1950 50  0000 C CNN
F 1 "MBR10100" H 1550 1850 50  0000 C CNN
F 2 "Diodes_THT:Diode_TO-220_Vertical" V 1950 1850 50  0001 C CNN
F 3 "" V 1950 1850 50  0000 C CNN
	1    1950 1850
	0    -1   -1   0   
$EndComp
$Comp
L D_Schottky_Small D5
U 1 1 582B7F2A
P 2200 1850
F 0 "D5" H 2750 1750 50  0000 C CNN
F 1 "MBR10100" H 2600 1850 50  0000 C CNN
F 2 "Diodes_THT:Diode_TO-220_Vertical" V 2200 1850 50  0001 C CNN
F 3 "" V 2200 1850 50  0000 C CNN
	1    2200 1850
	0    1    1    0   
$EndComp
$Comp
L C C7
U 1 1 582BA450
P 1700 1450
F 0 "C7" V 1600 1750 50  0000 L CNN
F 1 "100nF" V 1700 1700 50  0000 L CNN
F 2 "Capacitors_SMD:C_1206_HandSoldering" H 1738 1300 50  0001 C CNN
F 3 "" H 1700 1450 50  0000 C CNN
	1    1700 1450
	1    0    0    -1  
$EndComp
$Comp
L C C8
U 1 1 582BA4F0
P 1700 1850
F 0 "C8" V 1700 1250 50  0000 L CNN
F 1 "100nF" V 1700 1400 50  0000 L CNN
F 2 "Capacitors_SMD:C_1206_HandSoldering" H 1738 1700 50  0001 C CNN
F 3 "" H 1700 1850 50  0000 C CNN
	1    1700 1850
	1    0    0    -1  
$EndComp
$Comp
L C C11
U 1 1 582BA838
P 2450 1850
F 0 "C11" V 2450 1250 50  0000 L CNN
F 1 "100nF" V 2450 1400 50  0000 L CNN
F 2 "Capacitors_SMD:C_1206_HandSoldering" H 2488 1700 50  0001 C CNN
F 3 "" H 2450 1850 50  0000 C CNN
	1    2450 1850
	1    0    0    -1  
$EndComp
$Comp
L C C10
U 1 1 582BA8EC
P 2450 1450
F 0 "C10" V 2350 1700 50  0000 L CNN
F 1 "100nF" V 2450 1650 50  0000 L CNN
F 2 "Capacitors_SMD:C_1206_HandSoldering" H 2488 1300 50  0001 C CNN
F 3 "" H 2450 1450 50  0000 C CNN
	1    2450 1450
	1    0    0    -1  
$EndComp
$Comp
L GND #PWR017
U 1 1 582BD52F
P 1600 1650
F 0 "#PWR017" H 1600 1400 50  0001 C CNN
F 1 "GND" H 1600 1700 50  0000 C CNN
F 2 "" H 1600 1650 50  0000 C CNN
F 3 "" H 1600 1650 50  0000 C CNN
	1    1600 1650
	1    0    0    -1  
$EndComp
$Comp
L D_Schottky_Small D7
U 1 1 582BE3BB
P 2950 750
F 0 "D7" H 2950 545 50  0000 C CNN
F 1 "MBR10100" H 2950 636 50  0000 C CNN
F 2 "Diodes_THT:Diode_TO-220_Vertical" V 2950 750 50  0001 C CNN
F 3 "" V 2950 750 50  0000 C CNN
	1    2950 750 
	-1   0    0    1   
$EndComp
$Comp
L CONN_01X02 P7
U 1 1 582C07B8
P 10750 1550
F 0 "P7" H 10828 1591 50  0000 L CNN
F 1 "OUT" H 10828 1500 50  0000 L CNN
F 2 "Connectors:AK300-2" H 10750 1550 50  0001 C CNN
F 3 "" H 10750 1550 50  0000 C CNN
	1    10750 1550
	1    0    0    -1  
$EndComp
$Comp
L GNDD #PWR018
U 1 1 582C0AE2
P 10550 2000
F 0 "#PWR018" H 10550 1750 50  0001 C CNN
F 1 "GNDD" H 10555 1827 50  0000 C CNN
F 2 "" H 10550 2000 50  0000 C CNN
F 3 "" H 10550 2000 50  0000 C CNN
	1    10550 2000
	1    0    0    -1  
$EndComp
$Comp
L D D8
U 1 1 582BB8A1
P 3600 2050
F 0 "D8" H 3600 1850 50  0000 C CNN
F 1 "1n4148" H 3600 1950 50  0000 C CNN
F 2 "Diodes_THT:Diode_DO-35_SOD27_Horizontal_RM10" H 3600 2050 50  0001 C CNN
F 3 "" H 3600 2050 50  0000 C CNN
	1    3600 2050
	0    -1   1    0   
$EndComp
$Comp
L ATTINY45-P IC1
U 1 1 582BE7D8
P 4200 6450
F 0 "IC1" H 3100 6850 50  0000 C CNN
F 1 "ATTINY45-P" H 5150 6850 50  0000 C CNN
F 2 "Housings_DIP:DIP-8_W7.62mm_LongPads" H 4200 6875 50  0001 C CIN
F 3 "" H 4200 6450 50  0000 C CNN
	1    4200 6450
	-1   0    0    -1  
$EndComp
$Comp
L C C9
U 1 1 582CAF28
P 2200 6350
F 0 "C9" H 2200 6450 50  0000 L CNN
F 1 "100nF" H 1900 6250 50  0000 L CNN
F 2 "Capacitors_SMD:C_1206_HandSoldering" H 2238 6200 50  0001 C CNN
F 3 "" H 2200 6350 50  0000 C CNN
	1    2200 6350
	1    0    0    -1  
$EndComp
$Comp
L C C4
U 1 1 582CAFD2
P 1250 6350
F 0 "C4" H 1300 6450 50  0000 L CNN
F 1 "100nF" H 1300 6250 50  0000 L CNN
F 2 "Capacitors_SMD:C_1206_HandSoldering" H 1288 6200 50  0001 C CNN
F 3 "" H 1250 6350 50  0000 C CNN
	1    1250 6350
	1    0    0    -1  
$EndComp
$Comp
L CP C12
U 1 1 582CB20E
P 2450 6350
F 0 "C12" H 2450 6450 50  0000 L CNN
F 1 "47uF" H 2250 6250 50  0000 L CNN
F 2 "Capacitors_THT:C_Radial_D6.3_L11.2_P2.5" H 2488 6200 50  0001 C CNN
F 3 "" H 2450 6350 50  0000 C CNN
	1    2450 6350
	1    0    0    -1  
$EndComp
$Comp
L GND #PWR019
U 1 1 582CCA2B
P 1750 6600
F 0 "#PWR019" H 1750 6350 50  0001 C CNN
F 1 "GND" H 1755 6427 50  0000 C CNN
F 2 "" H 1750 6600 50  0000 C CNN
F 3 "" H 1750 6600 50  0000 C CNN
	1    1750 6600
	1    0    0    -1  
$EndComp
$Comp
L BC547 Q1
U 1 1 582CF26A
P 3700 2700
F 0 "Q1" H 3900 2775 50  0000 L CNN
F 1 "BC337" H 3900 2700 50  0000 L CNN
F 2 "TO_SOT_Packages_THT:TO-92_Inline_Wide" H 3900 2625 50  0001 L CIN
F 3 "" H 3700 2700 50  0000 L CNN
	1    3700 2700
	-1   0    0    -1  
$EndComp
$Comp
L R R1
U 1 1 582D2EA3
P 3900 2950
F 0 "R1" V 3800 2950 50  0000 C CNN
F 1 "1k" V 3900 2950 50  0000 C CNN
F 2 "Wire_Connections_Bridges:WireConnection_1.00mmDrill" V 3830 2950 50  0001 C CNN
F 3 "" H 3900 2950 50  0000 C CNN
	1    3900 2950
	1    0    0    -1  
$EndComp
$Comp
L GND #PWR020
U 1 1 582D3486
P 3600 3000
F 0 "#PWR020" H 3600 2750 50  0001 C CNN
F 1 "GND" H 3450 3000 50  0000 C CNN
F 2 "" H 3600 3000 50  0000 C CNN
F 3 "" H 3600 3000 50  0000 C CNN
	1    3600 3000
	1    0    0    -1  
$EndComp
$Comp
L CP C3
U 1 1 582DF7E0
P 950 6350
F 0 "C3" H 1000 6450 50  0000 L CNN
F 1 "100uF" H 1000 6250 50  0000 L CNN
F 2 "Capacitors_ThroughHole:C_Radial_D6.3_L11.2_P2.5" H 988 6200 50  0001 C CNN
F 3 "" H 950 6350 50  0000 C CNN
	1    950  6350
	1    0    0    -1  
$EndComp
$Comp
L D_BRIDGE D1
U 1 1 582E0ADE
P 1150 4750
F 0 "D1" H 1100 4950 50  0000 L CNN
F 1 "GREZA" H 1050 4750 50  0000 L CNN
F 2 "Diodes_THT:Diode_Bridge_15.7x15.7" H 1150 4750 50  0001 C CNN
F 3 "" H 1150 4750 50  0000 C CNN
	1    1150 4750
	1    0    0    -1  
$EndComp
$Comp
L C C1
U 1 1 582E28AF
P 750 4500
F 0 "C1" H 800 4600 50  0000 L CNN
F 1 "100nF" V 600 4400 50  0000 L CNN
F 2 "Capacitors_SMD:C_1206_HandSoldering" H 788 4350 50  0001 C CNN
F 3 "" H 750 4500 50  0000 C CNN
	1    750  4500
	1    0    0    -1  
$EndComp
$Comp
L C C2
U 1 1 582E2EFF
P 750 5000
F 0 "C2" H 800 4900 50  0000 L CNN
F 1 "100nF" V 600 4900 50  0000 L CNN
F 2 "Capacitors_SMD:C_1206_HandSoldering" H 788 4850 50  0001 C CNN
F 3 "" H 750 5000 50  0000 C CNN
	1    750  5000
	1    0    0    -1  
$EndComp
$Comp
L C C6
U 1 1 582E2FBB
P 1550 5000
F 0 "C6" H 1400 4900 50  0000 L CNN
F 1 "100nF" V 1700 4900 50  0000 L CNN
F 2 "Capacitors_SMD:C_1206_HandSoldering" H 1588 4850 50  0001 C CNN
F 3 "" H 1550 5000 50  0000 C CNN
	1    1550 5000
	-1   0    0    1   
$EndComp
$Comp
L C C5
U 1 1 582E30A7
P 1550 4500
F 0 "C5" H 1450 4600 50  0000 L CNN
F 1 "100nF" V 1700 4400 50  0000 L CNN
F 2 "Capacitors_SMD:C_1206_HandSoldering" H 1588 4350 50  0001 C CNN
F 3 "" H 1550 4500 50  0000 C CNN
	1    1550 4500
	-1   0    0    1   
$EndComp
$Comp
L D D6
U 1 1 582EB97F
P 2500 900
F 0 "D6" H 2600 550 50  0000 R CNN
F 1 "1n4007" H 2700 650 50  0000 R CNN
F 2 "Diodes_THT:Diode_DO-35_SOD27_Horizontal_RM10" H 2500 900 50  0001 C CNN
F 3 "" H 2500 900 50  0000 C CNN
	1    2500 900 
	-1   0    0    1   
$EndComp
$Comp
L C C14
U 1 1 582EDAE8
P 2850 1050
F 0 "C14" H 2900 1150 50  0000 L CNN
F 1 "100nF" H 2650 1250 50  0000 L CNN
F 2 "Capacitors_SMD:C_1206_HandSoldering" H 2888 900 50  0001 C CNN
F 3 "" H 2850 1050 50  0000 C CNN
	1    2850 1050
	1    0    0    -1  
$EndComp
$Comp
L GND #PWR021
U 1 1 582F4CDE
P 2850 1350
F 0 "#PWR021" H 2850 1100 50  0001 C CNN
F 1 "GND" H 2855 1177 50  0000 C CNN
F 2 "" H 2850 1350 50  0000 C CNN
F 3 "" H 2850 1350 50  0000 C CNN
	1    2850 1350
	1    0    0    -1  
$EndComp
$Comp
L CONN_01X03 P1
U 1 1 582F5597
P 950 1650
F 0 "P1" H 1200 1550 50  0000 C CNN
F 1 "2x16.5v~~" H 1200 1650 50  0000 C CNN
F 2 "Connectors:AK300-3" H 950 1650 50  0001 C CNN
F 3 "" H 950 1650 50  0000 C CNN
	1    950  1650
	-1   0    0    1   
$EndComp
$Comp
L CONN_01X02 P2
U 1 1 582F7431
P 950 4100
F 0 "P2" H 950 3950 50  0000 C CNN
F 1 "6.3v~~" H 1100 4100 50  0000 C CNN
F 2 "Connectors:AK300-2" H 950 4100 50  0001 C CNN
F 3 "" H 950 4100 50  0000 C CNN
	1    950  4100
	-1   0    0    1   
$EndComp
$Comp
L CP C15
U 1 1 582EDA1C
P 3150 1050
F 0 "C15" H 3200 1150 50  0000 L CNN
F 1 "1000uF/25v" H 2850 850 50  0000 L CNN
F 2 "Capacitors_THT:C_Radial_D10_L16_P5" H 3188 900 50  0001 C CNN
F 3 "" H 3150 1050 50  0000 C CNN
	1    3150 1050
	1    0    0    -1  
$EndComp
$Comp
L DS18B20 U5
U 1 1 582BD447
P 6450 7050
F 0 "U5" V 6440 6822 50  0000 R CNN
F 1 "DS18B20" V 6550 7200 50  0000 R CNN
F 2 "TO_SOT_Packages_THT:TO-92_Inline_Wide" H 6300 7300 50  0001 C CNN
F 3 "" H 6300 7300 50  0000 C CNN
	1    6450 7050
	0    -1   -1   0   
$EndComp
$Comp
L GND #PWR022
U 1 1 582C6A61
P 6550 7450
F 0 "#PWR022" H 6550 7200 50  0001 C CNN
F 1 "GND" H 6555 7277 50  0000 C CNN
F 2 "" H 6550 7450 50  0000 C CNN
F 3 "" H 6550 7450 50  0000 C CNN
	1    6550 7450
	1    0    0    -1  
$EndComp
$Comp
L R R8
U 1 1 582C826F
P 6000 7350
F 0 "R8" H 6000 7500 50  0000 L CNN
F 1 "4k7" V 6000 7300 50  0000 L CNN
F 2 "Resistors_SMD:R_1206_HandSoldering" V 5930 7350 50  0001 C CNN
F 3 "" H 6000 7350 50  0000 C CNN
	1    6000 7350
	0    1    1    0   
$EndComp
$Comp
L C C13
U 1 1 582CB52E
P 2750 6350
F 0 "C13" H 2750 6450 50  0000 L CNN
F 1 "100nF" H 2500 6250 50  0000 L CNN
F 2 "Capacitors_SMD:C_1206_HandSoldering" H 2788 6200 50  0001 C CNN
F 3 "" H 2750 6350 50  0000 C CNN
	1    2750 6350
	1    0    0    -1  
$EndComp
$Comp
L IRF540N Q2
U 1 1 582E0E78
P 6550 6150
F 0 "Q2" H 6785 6241 50  0000 L CNN
F 1 "IRF540N" H 6785 6150 50  0000 L CNN
F 2 "TO_SOT_Packages_THT:TO-220_Neutral123_Vertical" H 6785 6059 50  0001 L CIN
F 3 "" H 6550 6150 50  0000 L CNN
	1    6550 6150
	1    0    0    -1  
$EndComp
$Comp
L R R6
U 1 1 582E6C33
P 6000 6200
F 0 "R6" V 5950 6400 50  0000 C CNN
F 1 "100" V 6000 6200 50  0000 C CNN
F 2 "Resistors_SMD:R_1206_HandSoldering" V 5930 6200 50  0001 C CNN
F 3 "" H 6000 6200 50  0000 C CNN
	1    6000 6200
	0    1    1    0   
$EndComp
$Comp
L GND #PWR023
U 1 1 582E6F6B
P 6650 6450
F 0 "#PWR023" H 6650 6200 50  0001 C CNN
F 1 "GND" H 6500 6350 50  0000 C CNN
F 2 "" H 6650 6450 50  0000 C CNN
F 3 "" H 6650 6450 50  0000 C CNN
	1    6650 6450
	1    0    0    -1  
$EndComp
$Comp
L R R16
U 1 1 582ECE73
P 9150 2050
F 0 "R16" V 9200 2150 50  0000 L CNN
F 1 "10k" V 9150 2000 50  0000 L CNN
F 2 "Resistors_SMD:R_1206_HandSoldering" V 9080 2050 50  0001 C CNN
F 3 "" H 9150 2050 50  0000 C CNN
	1    9150 2050
	1    0    0    -1  
$EndComp
$Comp
L R R17
U 1 1 582ED06B
P 9150 2750
F 0 "R17" V 9250 2700 50  0000 L CNN
F 1 "1k" V 9150 2700 50  0000 L CNN
F 2 "Resistors_SMD:R_1206_HandSoldering" V 9080 2750 50  0001 C CNN
F 3 "" H 9150 2750 50  0000 C CNN
	1    9150 2750
	1    0    0    -1  
$EndComp
$Comp
L C C22
U 1 1 582FD3A5
P 5650 7100
F 0 "C22" H 5765 7146 50  0000 L CNN
F 1 "100nF" V 5750 7200 50  0000 L CNN
F 2 "Capacitors_SMD:C_1206_HandSoldering" H 5688 6950 50  0001 C CNN
F 3 "" H 5650 7100 50  0000 C CNN
	1    5650 7100
	1    0    0    -1  
$EndComp
$Comp
L ZENER D12
U 1 1 582FD555
P 5350 7150
F 0 "D12" V 5304 7229 50  0000 L CNN
F 1 "5v1" V 5395 7229 50  0000 L CNN
F 2 "Diodes_THT:Diode_DO-35_SOD27_Horizontal_RM10" H 5350 7150 50  0001 C CNN
F 3 "" H 5350 7150 50  0000 C CNN
	1    5350 7150
	0    1    1    0   
$EndComp
$Comp
L GND #PWR024
U 1 1 582FE13C
P 5500 7450
F 0 "#PWR024" H 5500 7200 50  0001 C CNN
F 1 "GND" H 5505 7277 50  0000 C CNN
F 2 "" H 5500 7450 50  0000 C CNN
F 3 "" H 5500 7450 50  0000 C CNN
	1    5500 7450
	1    0    0    -1  
$EndComp
$Comp
L R R7
U 1 1 582FE743
P 6000 6400
F 0 "R7" V 5950 6600 50  0000 C CNN
F 1 "100k" V 6000 6400 50  0000 C CNN
F 2 "Resistors_SMD:R_1206_HandSoldering" V 5930 6400 50  0001 C CNN
F 3 "" H 6000 6400 50  0000 C CNN
	1    6000 6400
	0    1    1    0   
$EndComp
$Comp
L GNDD #PWR025
U 1 1 5830200C
P 2550 3850
F 0 "#PWR025" H 2550 3600 50  0001 C CNN
F 1 "GNDD" H 2650 3700 50  0000 C CNN
F 2 "" H 2550 3850 50  0000 C CNN
F 3 "" H 2550 3850 50  0000 C CNN
	1    2550 3850
	1    0    0    -1  
$EndComp
$Comp
L D D13
U 1 1 5830EABB
P 6650 5700
F 0 "D13" V 6604 5778 50  0000 L CNN
F 1 "D" V 6695 5778 50  0000 L CNN
F 2 "Diodes_THT:Diode_DO-35_SOD27_Horizontal_RM10" H 6650 5700 50  0001 C CNN
F 3 "" H 6650 5700 50  0000 C CNN
	1    6650 5700
	0    1    1    0   
$EndComp
$Comp
L CONN_01X02 P6
U 1 1 5830ED26
P 7100 5700
F 0 "P6" H 7177 5741 50  0000 L CNN
F 1 "FAN" H 7177 5650 50  0000 L CNN
F 2 "Connectors:AK300-2" H 7100 5700 50  0001 C CNN
F 3 "" H 7100 5700 50  0000 C CNN
	1    7100 5700
	1    0    0    1   
$EndComp
$Comp
L +5V #PWR026
U 1 1 5831037B
P 2750 6100
F 0 "#PWR026" H 2750 5950 50  0001 C CNN
F 1 "+5V" H 2850 6150 50  0000 C CNN
F 2 "" H 2750 6100 50  0000 C CNN
F 3 "" H 2750 6100 50  0000 C CNN
	1    2750 6100
	1    0    0    -1  
$EndComp
$Comp
L +5V #PWR027
U 1 1 583111EF
P 6200 7200
F 0 "#PWR027" H 6200 7050 50  0001 C CNN
F 1 "+5V" H 6100 7300 50  0000 C CNN
F 2 "" H 6200 7200 50  0000 C CNN
F 3 "" H 6200 7200 50  0000 C CNN
	1    6200 7200
	1    0    0    -1  
$EndComp
$Comp
L +24V #PWR028
U 1 1 583171AF
P 4000 700
F 0 "#PWR028" H 4000 550 50  0001 C CNN
F 1 "+24V" H 4015 873 50  0000 C CNN
F 2 "" H 4000 700 50  0000 C CNN
F 3 "" H 4000 700 50  0000 C CNN
	1    4000 700 
	1    0    0    -1  
$EndComp
$Comp
L C C34
U 1 1 5831A41D
P 10250 2700
F 0 "C34" H 10300 2800 50  0000 L CNN
F 1 "100nF" V 10100 2600 50  0000 L CNN
F 2 "Capacitors_SMD:C_1206_HandSoldering" H 10288 2550 50  0001 C CNN
F 3 "" H 10250 2700 50  0000 C CNN
	1    10250 2700
	1    0    0    -1  
$EndComp
$Comp
L GND #PWR029
U 1 1 5831B31D
P 9650 2950
F 0 "#PWR029" H 9650 2700 50  0001 C CNN
F 1 "GND" H 9655 2777 50  0000 C CNN
F 2 "" H 9650 2950 50  0000 C CNN
F 3 "" H 9650 2950 50  0000 C CNN
	1    9650 2950
	1    0    0    -1  
$EndComp
$Comp
L GNDD #PWR030
U 1 1 5831B3F7
P 10250 2950
F 0 "#PWR030" H 10250 2700 50  0001 C CNN
F 1 "GNDD" H 10255 2777 50  0000 C CNN
F 2 "" H 10250 2950 50  0000 C CNN
F 3 "" H 10250 2950 50  0000 C CNN
	1    10250 2950
	1    0    0    -1  
$EndComp
$Comp
L CONN_01X03 P8
U 1 1 5831CB24
P 10750 2550
F 0 "P8" H 10700 2300 50  0000 L CNN
F 1 "VOLT/AMP METER" H 10550 2750 50  0000 L CNN
F 2 "Connectors:AK300-3" H 10750 2550 50  0001 C CNN
F 3 "" H 10750 2550 50  0000 C CNN
	1    10750 2550
	1    0    0    -1  
$EndComp
Text Notes 10850 2500 0    60   ~ 0
VOLT
Text Notes 10850 2650 0    60   Italic 0
AMP
$Comp
L GND #PWR031
U 1 1 5832253E
P 4800 1300
F 0 "#PWR031" H 4800 1050 50  0001 C CNN
F 1 "GND" H 4805 1127 50  0000 C CNN
F 2 "" H 4800 1300 50  0000 C CNN
F 3 "" H 4800 1300 50  0000 C CNN
	1    4800 1300
	1    0    0    -1  
$EndComp
$Comp
L C C20
U 1 1 58322D2A
P 5300 1050
F 0 "C20" H 5150 1150 50  0000 L CNN
F 1 "100nF" H 5050 950 50  0000 L CNN
F 2 "Capacitors_SMD:C_1206_HandSoldering" H 5338 900 50  0001 C CNN
F 3 "" H 5300 1050 50  0000 C CNN
	1    5300 1050
	1    0    0    -1  
$EndComp
$Comp
L +12V #PWR032
U 1 1 583232F4
P 5300 700
F 0 "#PWR032" H 5300 550 50  0001 C CNN
F 1 "+12V" H 5315 873 50  0000 C CNN
F 2 "" H 5300 700 50  0000 C CNN
F 3 "" H 5300 700 50  0000 C CNN
	1    5300 700 
	1    0    0    -1  
$EndComp
$Comp
L +12V #PWR033
U 1 1 58324EBA
P 6650 5400
F 0 "#PWR033" H 6650 5250 50  0001 C CNN
F 1 "+12V" H 6665 5573 50  0000 C CNN
F 2 "" H 6650 5400 50  0000 C CNN
F 3 "" H 6650 5400 50  0000 C CNN
	1    6650 5400
	1    0    0    -1  
$EndComp
$Comp
L CP C21
U 1 1 583273F9
P 5550 1050
F 0 "C21" H 5600 1150 50  0000 L CNN
F 1 "47uF" H 5600 950 50  0000 L CNN
F 2 "Capacitors_THT:C_Radial_D6.3_L11.2_P2.5" H 5588 900 50  0001 C CNN
F 3 "" H 5550 1050 50  0000 C CNN
	1    5550 1050
	1    0    0    -1  
$EndComp
$Comp
L GND #PWR034
U 1 1 5832B682
P 9150 3000
F 0 "#PWR034" H 9150 2750 50  0001 C CNN
F 1 "GND" H 9250 3000 50  0000 C CNN
F 2 "" H 9150 3000 50  0000 C CNN
F 3 "" H 9150 3000 50  0000 C CNN
	1    9150 3000
	1    0    0    -1  
$EndComp
$Comp
L GNDD #PWR035
U 1 1 58332E33
P 8950 3000
F 0 "#PWR035" H 8950 2750 50  0001 C CNN
F 1 "GNDD" H 8955 2827 50  0000 C CNN
F 2 "" H 8950 3000 50  0000 C CNN
F 3 "" H 8950 3000 50  0000 C CNN
	1    8950 3000
	1    0    0    -1  
$EndComp
$Comp
L RM83 K1
U 1 1 582BB0C9
P 2900 2050
F 0 "K1" H 2900 2460 70  0000 C CNN
F 1 "RM83" H 2900 2339 70  0000 C CNN
F 2 "RelayFinder2RT4052:K1" H 1150 2550 60  0001 C CNN
F 3 "" H 1150 2550 60  0000 C CNN
	1    2900 2050
	0    -1   1    0   
$EndComp
$Comp
L C C28
U 1 1 582EEA99
P 7300 3300
F 0 "C28" H 7300 3550 50  0000 L CNN
F 1 "100nF" H 7300 3450 50  0000 L CNN
F 2 "Capacitors_SMD:C_1206_HandSoldering" H 7338 3150 50  0001 C CNN
F 3 "" H 7300 3300 50  0000 C CNN
	1    7300 3300
	1    0    0    -1  
$EndComp
$Comp
L +12V #PWR036
U 1 1 582F54C3
P 3500 1250
F 0 "#PWR036" H 3500 1100 50  0001 C CNN
F 1 "+12V" H 3500 1390 50  0000 C CNN
F 2 "" H 3500 1250 50  0000 C CNN
F 3 "" H 3500 1250 50  0000 C CNN
	1    3500 1250
	1    0    0    -1  
$EndComp
$Comp
L R R18
U 1 1 582E853A
P 9950 2850
F 0 "R18" V 10157 2850 50  0000 C CNN
F 1 "0R1" V 10066 2850 50  0000 C CNN
F 2 "Resistors_THT:Resistor_Horizontal_RM25mm" V 9880 2850 50  0001 C CNN
F 3 "" H 9950 2850 50  0000 C CNN
	1    9950 2850
	0    -1   -1   0   
$EndComp
$Comp
L CONN_01X02 P3
U 1 1 582F13D0
P 2250 5750
F 0 "P3" H 2169 5475 50  0000 C CNN
F 1 "+5V OUTPUT" H 2169 5566 50  0000 C CNN
F 2 "Connectors:AK300-2" H 2250 5750 50  0001 C CNN
F 3 "" H 2250 5750 50  0000 C CNN
	1    2250 5750
	-1   0    0    -1  
$EndComp
$Comp
L GND #PWR037
U 1 1 582F197B
P 2550 5850
F 0 "#PWR037" H 2550 5600 50  0001 C CNN
F 1 "GND" H 2555 5677 50  0000 C CNN
F 2 "" H 2550 5850 50  0000 C CNN
F 3 "" H 2550 5850 50  0000 C CNN
	1    2550 5850
	1    0    0    -1  
$EndComp
$Comp
L GND #PWR038
U 1 1 582FFDA1
P 7300 3550
F 0 "#PWR038" H 7300 3300 50  0001 C CNN
F 1 "GND" H 7305 3377 50  0000 C CNN
F 2 "" H 7300 3550 50  0000 C CNN
F 3 "" H 7300 3550 50  0000 C CNN
	1    7300 3550
	1    0    0    -1  
$EndComp
$Comp
L PWR_FLAG #FLG039
U 1 1 5830092E
P 2300 3100
F 0 "#FLG039" H 2300 3195 50  0001 C CNN
F 1 "PWR_FLAG" H 2550 3250 50  0000 C CNN
F 2 "" H 2300 3100 50  0000 C CNN
F 3 "" H 2300 3100 50  0000 C CNN
	1    2300 3100
	1    0    0    -1  
$EndComp
$Comp
L PWR_FLAG #FLG040
U 1 1 58301AED
P 6800 4850
F 0 "#FLG040" H 6800 4945 50  0001 C CNN
F 1 "PWR_FLAG" H 7000 4850 50  0000 C CNN
F 2 "" H 6800 4850 50  0000 C CNN
F 3 "" H 6800 4850 50  0000 C CNN
	1    6800 4850
	1    0    0    -1  
$EndComp
$Comp
L PWR_FLAG #FLG041
U 1 1 58302D2A
P 6500 4550
F 0 "#FLG041" H 6500 4645 50  0001 C CNN
F 1 "PWR_FLAG" H 6850 4550 50  0000 C CNN
F 2 "" H 6500 4550 50  0000 C CNN
F 3 "" H 6500 4550 50  0000 C CNN
	1    6500 4550
	1    0    0    -1  
$EndComp
$Comp
L CP C35
U 1 1 582F2710
P 7800 1650
F 0 "C35" H 7825 1750 50  0000 L CNN
F 1 "10000uF/25v" V 7800 1900 50  0000 L CNN
F 2 "kicadlib:C_Radial_D35_L51_P18" H 7838 1500 50  0001 C CNN
F 3 "" H 7800 1650 50  0000 C CNN
	1    7800 1650
	1    0    0    -1  
$EndComp
$Comp
L GND #PWR042
U 1 1 582F28A0
P 7800 1900
F 0 "#PWR042" H 7800 1650 50  0001 C CNN
F 1 "GND" H 7800 1750 50  0000 C CNN
F 2 "" H 7800 1900 50  0000 C CNN
F 3 "" H 7800 1900 50  0000 C CNN
	1    7800 1900
	1    0    0    -1  
$EndComp
$Comp
L LM7805CT U2
U 1 1 582F7243
P 2550 4700
F 0 "U2" H 2400 4600 50  0000 L CNN
F 1 "LM7805CT" H 2350 4900 50  0000 L CNN
F 2 "Power_Integrations:TO-220" V 2050 4200 50  0000 L CIN
F 3 "" H 2550 4700 50  0000 C CNN
	1    2550 4700
	1    0    0    -1  
$EndComp
$Comp
L LM7805CT U3
U 1 1 582F794A
P 2550 3500
F 0 "U3" H 2600 3400 50  0000 L CNN
F 1 "LM7805CT" H 2350 3700 50  0000 L CNN
F 2 "Power_Integrations:TO-220" V 2050 3000 50  0000 L CIN
F 3 "" H 2550 3500 50  0000 C CNN
	1    2550 3500
	1    0    0    -1  
$EndComp
$Comp
L LM7812CT U4
U 1 1 582F9484
P 4800 950
F 0 "U4" H 4800 1358 50  0000 C CNN
F 1 "LM7812CT" H 4800 1267 50  0000 C CNN
F 2 "Power_Integrations:TO-220" H 4800 1176 50  0000 C CIN
F 3 "" H 4800 950 50  0000 C CNN
	1    4800 950 
	1    0    0    -1  
$EndComp
$Comp
L LM7805CT U1
U 1 1 582FAAC9
P 1750 6250
F 0 "U1" H 1750 6658 50  0000 C CNN
F 1 "LM7805CT" H 1750 6567 50  0000 C CNN
F 2 "Power_Integrations:TO-220" H 1750 6476 50  0000 C CIN
F 3 "" H 1750 6250 50  0000 C CNN
	1    1750 6250
	1    0    0    -1  
$EndComp
$Comp
L BD249C Q6
U 1 1 582FCAF3
P 9150 850
F 0 "Q6" V 9350 550 50  0000 L CNN
F 1 "BD249C" V 9450 700 50  0000 L CNN
F 2 "TO_SOT_Packages_THT:TO-247_Vertical_Neutral123_largePads" V 9450 700 50  0001 L CIN
F 3 "" H 9150 850 50  0000 L CNN
	1    9150 850 
	0    -1   -1   0   
$EndComp
$Comp
L CONN_01X03 P9
U 1 1 5830C1E6
P 3600 1550
F 0 "P9" H 3600 1750 50  0000 C CNN
F 1 "CONN_01X03" V 3700 1550 50  0000 C CNN
F 2 "Pin_Headers:Pin_Header_Straight_1x03" H 3600 1550 50  0001 C CNN
F 3 "" H 3600 1550 50  0000 C CNN
	1    3600 1550
	0    1    1    0   
$EndComp
$Comp
L +24V #PWR043
U 1 1 5830CA04
P 3600 1250
F 0 "#PWR043" H 3600 1100 50  0001 C CNN
F 1 "+24V" H 3600 1450 50  0000 C CNN
F 2 "" H 3600 1250 50  0000 C CNN
F 3 "" H 3600 1250 50  0000 C CNN
	1    3600 1250
	1    0    0    -1  
$EndComp
NoConn ~ 5550 6300
$Comp
L PWR_FLAG #FLG044
U 1 1 58321FB6
P 3700 1250
F 0 "#FLG044" H 3700 1345 50  0001 C CNN
F 1 "PWR_FLAG" H 3950 1250 50  0000 C CNN
F 2 "" H 3700 1250 50  0000 C CNN
F 3 "" H 3700 1250 50  0000 C CNN
	1    3700 1250
	1    0    0    -1  
$EndComp
$Comp
L ZRB500 D17
U 1 1 583336B7
P 3700 4850
F 0 "D17" V 3400 4800 50  0000 L CNN
F 1 "ZRB500" H 3550 4750 50  0000 L CNN
F 2 "TO_SOT_Packages_SMD:SOT-23_Handsoldering" H 3700 4850 50  0001 C CNN
F 3 "" H 3700 4850 50  0000 C CNN
	1    3700 4850
	0    1    1    0   
$EndComp
$Comp
L ZRB500 D18
U 1 1 58334346
P 3650 3650
F 0 "D18" V 3550 3750 50  0000 L CNN
F 1 "ZRB500" H 3500 3550 50  0000 L CNN
F 2 "TO_SOT_Packages_SMD:SOT-23_Handsoldering" H 3650 3650 50  0001 C CNN
F 3 "" H 3650 3650 50  0000 C CNN
	1    3650 3650
	0    1    1    0   
$EndComp
$Comp
L R R20
U 1 1 5833698A
P 2550 3200
F 0 "R20" V 2650 3150 50  0000 L CNN
F 1 "2k2" V 2550 3150 50  0000 L CNN
F 2 "Resistors_SMD:R_1206_HandSoldering" V 2480 3200 50  0001 C CNN
F 3 "" H 2550 3200 50  0000 C CNN
	1    2550 3200
	0    -1   -1   0   
$EndComp
$Comp
L R R19
U 1 1 58336FF4
P 2550 4400
F 0 "R19" V 2650 4350 50  0000 L CNN
F 1 "2k2" V 2550 4350 50  0000 L CNN
F 2 "Resistors_SMD:R_1206_HandSoldering" V 2480 4400 50  0001 C CNN
F 3 "" H 2550 4400 50  0000 C CNN
	1    2550 4400
	0    -1   -1   0   
$EndComp
$Comp
L CONN_01X01 P11
U 1 1 583479AA
P 10900 4850
F 0 "P11" H 10978 4845 50  0001 L CNN
F 1 "DQ" H 10978 4800 50  0001 L CNN
F 2 "Wire_Pads:SolderWirePad_single_0-8mmDrill" H 10900 4850 50  0001 C CNN
F 3 "" H 10900 4850 50  0000 C CNN
	1    10900 4850
	1    0    0    -1  
$EndComp
$Comp
L CONN_01X01 P10
U 1 1 58347BA4
P 10900 4700
F 0 "P10" H 10978 4695 50  0001 L CNN
F 1 "DQ" H 10978 4650 50  0001 L CNN
F 2 "Wire_Pads:SolderWirePad_single_0-8mmDrill" H 10900 4700 50  0001 C CNN
F 3 "" H 10900 4700 50  0000 C CNN
	1    10900 4700
	1    0    0    -1  
$EndComp
$Comp
L +24V #PWR045
U 1 1 58351BF4
P 2150 4250
F 0 "#PWR045" H 2150 4100 50  0001 C CNN
F 1 "+24V" H 2165 4423 50  0000 C CNN
F 2 "" H 2150 4250 50  0000 C CNN
F 3 "" H 2150 4250 50  0000 C CNN
	1    2150 4250
	1    0    0    -1  
$EndComp
$Comp
L +5VL #PWR046
U 1 1 583525AF
P 3100 4250
F 0 "#PWR046" H 3100 4100 50  0001 C CNN
F 1 "+5VL" H 3115 4423 50  0000 C CNN
F 2 "" H 3100 4250 50  0000 C CNN
F 3 "" H 3100 4250 50  0000 C CNN
	1    3100 4250
	1    0    0    -1  
$EndComp
$Comp
L +24V #PWR047
U 1 1 5835DB13
P 7000 3150
F 0 "#PWR047" H 7000 3000 50  0001 C CNN
F 1 "+24V" H 7015 3323 50  0000 C CNN
F 2 "" H 7000 3150 50  0000 C CNN
F 3 "" H 7000 3150 50  0000 C CNN
	1    7000 3150
	1    0    0    -1  
$EndComp
$Comp
L +24V #PWR048
U 1 1 58360AFD
P 4500 2800
F 0 "#PWR048" H 4500 2650 50  0001 C CNN
F 1 "+24V" H 4550 3000 50  0000 C CNN
F 2 "" H 4500 2800 50  0000 C CNN
F 3 "" H 4500 2800 50  0000 C CNN
	1    4500 2800
	1    0    0    -1  
$EndComp
$Comp
L +24V #PWR049
U 1 1 5836299F
P 2150 3050
F 0 "#PWR049" H 2150 2900 50  0001 C CNN
F 1 "+24V" H 2165 3223 50  0000 C CNN
F 2 "" H 2150 3050 50  0000 C CNN
F 3 "" H 2150 3050 50  0000 C CNN
	1    2150 3050
	1    0    0    -1  
$EndComp
$Comp
L +5VP #PWR050
U 1 1 58362DC6
P 3100 3050
F 0 "#PWR050" H 3100 2900 50  0001 C CNN
F 1 "+5VP" H 3115 3223 50  0000 C CNN
F 2 "" H 3100 3050 50  0000 C CNN
F 3 "" H 3100 3050 50  0000 C CNN
	1    3100 3050
	1    0    0    -1  
$EndComp
$Comp
L +5VL #PWR051
U 1 1 58366DAB
P 4100 2800
F 0 "#PWR051" H 4100 2650 50  0001 C CNN
F 1 "+5VL" H 4050 3000 50  0000 C CNN
F 2 "" H 4100 2800 50  0000 C CNN
F 3 "" H 4100 2800 50  0000 C CNN
	1    4100 2800
	1    0    0    -1  
$EndComp
$Comp
L +5VP #PWR052
U 1 1 583677A8
P 4300 2800
F 0 "#PWR052" H 4300 2650 50  0001 C CNN
F 1 "+5VP" H 4300 3000 50  0000 C CNN
F 2 "" H 4300 2800 50  0000 C CNN
F 3 "" H 4300 2800 50  0000 C CNN
	1    4300 2800
	1    0    0    -1  
$EndComp
$Comp
L CONN_01X01 P14
U 1 1 58375CDE
P 10900 5050
F 0 "P14" V 11000 4950 50  0001 R CNN
F 1 "MG" V 10774 4962 50  0001 R CNN
F 2 "Wire_Pads:SolderWirePad_single_0-8mmDrill" H 10900 5050 50  0001 C CNN
F 3 "" H 10900 5050 50  0000 C CNN
	1    10900 5050
	1    0    0    -1  
$EndComp
$Comp
L CONN_01X01 P15
U 1 1 58375F33
P 10900 5200
F 0 "P15" V 10819 5112 50  0001 R CNN
F 1 "MG" V 10774 5112 50  0001 R CNN
F 2 "Wire_Pads:SolderWirePad_single_0-8mmDrill" H 10900 5200 50  0001 C CNN
F 3 "" H 10900 5200 50  0000 C CNN
	1    10900 5200
	1    0    0    -1  
$EndComp
$Comp
L CONN_01X01 P13
U 1 1 58377B58
P 10900 4250
F 0 "P13" H 10819 4117 50  0001 C CNN
F 1 "+5V" H 10819 4116 50  0001 C CNN
F 2 "Wire_Pads:SolderWirePad_single_0-8mmDrill" H 10900 4250 50  0001 C CNN
F 3 "" H 10900 4250 50  0000 C CNN
	1    10900 4250
	1    0    0    -1  
$EndComp
$Comp
L CONN_01X01 P12
U 1 1 58377D1C
P 10900 4100
F 0 "P12" H 10819 3875 50  0001 C CNN
F 1 "+5V" H 10819 3967 50  0001 C CNN
F 2 "Wire_Pads:SolderWirePad_single_0-8mmDrill" H 10900 4100 50  0001 C CNN
F 3 "" H 10900 4100 50  0000 C CNN
	1    10900 4100
	1    0    0    -1  
$EndComp
$Comp
L +5V #PWR053
U 1 1 58378D8E
P 10700 3950
F 0 "#PWR053" H 10700 3800 50  0001 C CNN
F 1 "+5V" H 10715 4123 50  0000 C CNN
F 2 "" H 10700 3950 50  0000 C CNN
F 3 "" H 10700 3950 50  0000 C CNN
	1    10700 3950
	1    0    0    -1  
$EndComp
Wire Wire Line
	8150 1800 8150 1900
Wire Wire Line
	7950 750  7950 1900
Wire Wire Line
	5850 1500 7950 1500
Connection ~ 7550 1500
Connection ~ 7250 1500
Connection ~ 6950 1500
Wire Wire Line
	6650 1800 6650 1900
Wire Wire Line
	6950 1800 6950 1900
Wire Wire Line
	7250 1800 7250 1900
Wire Wire Line
	7550 1800 7550 1900
Wire Wire Line
	7450 2850 7650 2850
Wire Wire Line
	7950 2650 7950 2200
Wire Wire Line
	7950 3050 7950 3200
Wire Wire Line
	7950 3500 7950 3600
Wire Wire Line
	7050 3850 7200 3850
Wire Wire Line
	7500 2850 7500 4100
Connection ~ 7500 3850
Wire Wire Line
	6000 3750 6450 3750
Wire Wire Line
	8950 1500 10550 1500
Connection ~ 9350 1500
Connection ~ 9650 1500
Connection ~ 9950 1500
Wire Wire Line
	9350 1800 9350 2000
Wire Wire Line
	9650 1800 9650 2000
Wire Wire Line
	9950 1800 9950 2000
Wire Wire Line
	10250 1800 10250 2000
Wire Wire Line
	6450 2350 6450 2750
Wire Wire Line
	8950 2900 8950 3000
Wire Wire Line
	6450 3950 6350 3950
Wire Wire Line
	6350 3950 6350 4850
Wire Wire Line
	6650 4150 6650 4850
Connection ~ 7500 2850
Wire Wire Line
	7150 2850 7050 2850
Wire Wire Line
	7950 900  8200 900 
Connection ~ 7950 1500
Wire Wire Line
	8400 1200 8400 1500
Wire Wire Line
	8350 1500 8650 1500
Wire Wire Line
	8650 1500 8650 1700
Connection ~ 8400 1500
Wire Wire Line
	8600 900  8950 900 
Connection ~ 8950 1500
Connection ~ 8950 1700
Wire Wire Line
	7100 3400 7100 3850
Connection ~ 7100 3850
Connection ~ 6650 1500
Wire Wire Line
	6050 4150 6050 3750
Connection ~ 6050 3750
Wire Wire Line
	6050 4450 6050 4850
Wire Wire Line
	6000 2950 6450 2950
Connection ~ 6200 2950
Wire Wire Line
	6200 3250 6200 4850
Wire Wire Line
	5150 2950 5150 3050
Wire Wire Line
	5000 2150 5250 2150
Wire Wire Line
	4850 2000 4850 2150
Wire Wire Line
	4850 2150 4950 2150
Wire Wire Line
	4950 2150 4950 2250
Connection ~ 5150 2000
Wire Wire Line
	4700 2150 4800 2150
Wire Wire Line
	4800 2150 4800 2550
Wire Wire Line
	4250 1750 4850 1750
Connection ~ 4700 1750
Wire Wire Line
	4750 2250 4650 2250
Wire Wire Line
	4250 2150 4250 2250
Wire Wire Line
	1700 1600 1700 1700
Wire Wire Line
	1950 1550 1950 1750
Connection ~ 1700 1650
Connection ~ 1950 1650
Wire Wire Line
	2200 1550 2200 1750
Wire Wire Line
	2450 1600 2450 1700
Connection ~ 2200 1650
Connection ~ 2450 1650
Wire Wire Line
	1300 1300 2450 1300
Wire Wire Line
	1950 1350 1950 1300
Connection ~ 1950 1300
Wire Wire Line
	2200 1350 2200 1300
Connection ~ 2200 1300
Wire Wire Line
	1300 2000 2450 2000
Wire Wire Line
	1950 1950 1950 2000
Connection ~ 1950 2000
Wire Wire Line
	2200 1950 2200 2000
Connection ~ 2200 2000
Wire Wire Line
	1300 1650 1300 2000
Connection ~ 1700 2000
Connection ~ 1700 1300
Wire Wire Line
	1150 750  2850 750 
Connection ~ 10250 1500
Wire Wire Line
	10550 1600 10550 2000
Wire Wire Line
	8950 2200 8950 2600
Wire Wire Line
	8950 900  8950 1900
Wire Wire Line
	3050 750  5850 750 
Wire Wire Line
	5850 750  5850 1500
Wire Wire Line
	550  6500 2850 6500
Connection ~ 1750 6500
Connection ~ 2200 6500
Wire Wire Line
	950  6200 1350 6200
Wire Wire Line
	2150 6200 2850 6200
Connection ~ 2200 6200
Wire Wire Line
	1750 6500 1750 6600
Connection ~ 2450 6200
Wire Wire Line
	2850 6500 2850 6700
Connection ~ 2450 6500
Wire Wire Line
	3600 3000 3600 2900
Connection ~ 1250 6500
Connection ~ 1250 6200
Wire Wire Line
	750  4650 750  4850
Connection ~ 750  4750
Wire Wire Line
	650  5150 1550 5150
Connection ~ 1150 5150
Wire Wire Line
	1550 4650 1550 4850
Connection ~ 1550 4750
Wire Wire Line
	750  4350 1550 4350
Connection ~ 1150 4350
Wire Wire Line
	750  4750 550  4750
Wire Wire Line
	550  4750 550  6500
Connection ~ 950  6500
Wire Wire Line
	1550 4750 1750 4750
Wire Wire Line
	1750 4750 1750 5250
Wire Wire Line
	1750 5250 950  5250
Wire Wire Line
	950  5250 950  6200
Wire Wire Line
	1600 1650 1950 1650
Wire Wire Line
	650  5150 650  4250
Wire Wire Line
	650  4250 1150 4250
Wire Wire Line
	1150 4250 1150 4150
Connection ~ 750  5150
Wire Wire Line
	1150 4050 1250 4050
Wire Wire Line
	1250 4050 1250 4350
Connection ~ 1250 4350
Wire Wire Line
	2350 900  2300 900 
Wire Wire Line
	2300 900  2300 750 
Connection ~ 2300 750 
Wire Wire Line
	2650 900  4400 900 
Connection ~ 3150 900 
Connection ~ 2850 900 
Wire Wire Line
	2850 1200 3150 1200
Wire Wire Line
	2850 1350 2850 1200
Wire Wire Line
	6850 6450 7700 6450
Wire Wire Line
	6850 6450 6850 6600
Wire Wire Line
	6850 6600 5550 6600
Connection ~ 2750 6200
Wire Wire Line
	2450 6500 2750 6500
Connection ~ 2750 6500
Wire Wire Line
	2750 6100 2750 6200
Wire Wire Line
	6150 7350 6350 7350
Wire Wire Line
	5850 6500 5850 7500
Wire Wire Line
	5850 7500 6450 7500
Wire Wire Line
	6450 7500 6450 7350
Wire Wire Line
	6550 7450 6550 7350
Wire Wire Line
	6650 6350 6650 6450
Wire Wire Line
	6350 6200 6150 6200
Wire Wire Line
	5550 6200 5850 6200
Connection ~ 5850 7350
Wire Wire Line
	5750 3950 5750 6700
Wire Wire Line
	9150 1500 9150 1900
Connection ~ 9150 1500
Wire Wire Line
	9150 2200 9150 2600
Wire Wire Line
	9150 3000 9150 2900
Wire Wire Line
	5650 6950 5350 6950
Wire Wire Line
	5350 7350 5650 7350
Wire Wire Line
	5650 7350 5650 7250
Wire Wire Line
	5500 7450 5500 7350
Connection ~ 5500 7350
Wire Wire Line
	5550 6400 5850 6400
Wire Wire Line
	5650 6400 5650 6950
Connection ~ 5650 6400
Wire Wire Line
	6150 6400 7850 6400
Wire Wire Line
	7850 6400 7850 3900
Wire Wire Line
	6650 5850 6650 5950
Wire Wire Line
	6900 5750 6900 5900
Wire Wire Line
	6900 5900 6650 5900
Connection ~ 6650 5900
Wire Wire Line
	6650 5400 6650 5550
Wire Wire Line
	6650 5500 6900 5500
Wire Wire Line
	6900 5500 6900 5650
Wire Wire Line
	6200 7200 6200 7350
Connection ~ 6200 7350
Connection ~ 4000 900 
Connection ~ 6650 5500
Wire Wire Line
	10400 1500 10400 2450
Wire Wire Line
	10400 2450 10550 2450
Connection ~ 10400 1500
Wire Wire Line
	9650 2550 10550 2550
Wire Wire Line
	9650 2550 9650 2950
Connection ~ 10250 2550
Wire Wire Line
	10250 2950 10250 2850
Wire Wire Line
	10100 2850 10550 2850
Wire Wire Line
	10550 2850 10550 2650
Wire Wire Line
	4800 1200 4800 1300
Wire Wire Line
	4800 1250 5550 1250
Wire Wire Line
	5300 1250 5300 1200
Connection ~ 4800 1250
Wire Wire Line
	5200 900  5550 900 
Wire Wire Line
	5300 900  5300 700 
Wire Wire Line
	5550 1250 5550 1200
Connection ~ 5300 1250
Connection ~ 5300 900 
Wire Wire Line
	3300 1850 3850 1850
Wire Wire Line
	3300 2250 3600 2250
Wire Wire Line
	3600 2200 3600 2500
Wire Wire Line
	3350 750  3350 1700
Connection ~ 3350 750 
Connection ~ 3600 1850
Connection ~ 3600 2250
Connection ~ 10250 2850
Wire Wire Line
	9800 2850 9650 2850
Connection ~ 9650 2850
Wire Wire Line
	2450 5800 2450 6200
Wire Wire Line
	2450 5700 2550 5700
Wire Wire Line
	2550 5700 2550 5850
Wire Wire Line
	7850 3900 8450 3900
Wire Wire Line
	8450 3900 8450 2500
Wire Wire Line
	8450 2500 9150 2500
Connection ~ 9150 2500
Wire Wire Line
	8950 2350 6450 2350
Connection ~ 8950 2350
Connection ~ 2900 1850
Connection ~ 2800 1850
Wire Wire Line
	7300 3550 7300 3450
Wire Wire Line
	7000 3150 7300 3150
Wire Wire Line
	7100 3150 7100 3300
Wire Wire Line
	6650 4850 6800 4850
Wire Wire Line
	6500 4550 6350 4550
Connection ~ 6350 4550
Wire Wire Line
	7800 1800 7800 1900
Connection ~ 7800 1500
Wire Wire Line
	2200 1650 2800 1650
Wire Wire Line
	2800 1650 2800 2250
Wire Wire Line
	3350 1700 2900 1700
Wire Wire Line
	2900 1700 2900 2250
Wire Wire Line
	1150 1650 1300 1650
Wire Wire Line
	1150 750  1150 1350
Wire Wire Line
	1150 1350 800  1350
Wire Wire Line
	800  1350 800  1900
Wire Wire Line
	800  1900 1150 1900
Wire Wire Line
	1150 1900 1150 1750
Wire Wire Line
	1150 1550 1300 1550
Wire Wire Line
	1300 1550 1300 1300
Wire Wire Line
	3000 1850 2900 1850
Wire Wire Line
	2900 2250 3000 2250
Wire Wire Line
	9350 750  9350 1500
Wire Wire Line
	8950 750  7950 750 
Connection ~ 7950 900 
Wire Wire Line
	9150 1050 9150 1250
Wire Wire Line
	9150 1250 8400 1250
Connection ~ 8400 1250
Wire Wire Line
	5550 6500 5850 6500
Wire Wire Line
	5450 2950 5450 3050
Wire Wire Line
	5150 2000 5150 1750
Wire Wire Line
	5150 1750 5850 1750
Wire Wire Line
	5850 1750 5850 2250
Wire Wire Line
	5850 2250 5450 2250
Wire Wire Line
	5700 2950 5700 3000
Wire Wire Line
	5700 3000 5350 3000
Wire Wire Line
	5350 3000 5350 2950
Wire Wire Line
	5250 2950 5250 3750
Wire Wire Line
	5250 3750 5700 3750
Wire Wire Line
	5750 6700 5550 6700
Wire Wire Line
	5450 2150 5350 2150
Wire Wire Line
	5350 2150 5350 2250
Wire Wire Line
	5150 2250 5150 2100
Wire Wire Line
	5150 2100 5250 2100
Wire Wire Line
	5250 2100 5250 1800
Wire Wire Line
	5250 1800 5600 1800
Wire Wire Line
	5600 1800 5600 2000
Wire Wire Line
	5250 2150 5250 2250
Wire Wire Line
	5300 2200 5300 2000
Wire Wire Line
	4850 2200 5300 2200
Wire Wire Line
	7100 3400 5050 3400
Wire Wire Line
	5050 3400 5050 2950
Wire Wire Line
	4850 2200 4850 2250
Wire Wire Line
	5050 2250 5000 2250
Wire Wire Line
	5000 2250 5000 2550
Wire Wire Line
	5000 2550 4800 2550
Wire Wire Line
	2550 5050 3850 5050
Wire Wire Line
	2550 5050 2550 4950
Wire Wire Line
	3100 4950 3100 5050
Connection ~ 3100 5050
Wire Wire Line
	3400 4950 3400 5050
Connection ~ 3400 5050
Wire Wire Line
	3850 5050 3850 4850
Connection ~ 3700 5050
Wire Wire Line
	2950 4650 3700 4650
Connection ~ 3100 4650
Connection ~ 3400 4650
Wire Wire Line
	2700 4400 3100 4400
Wire Wire Line
	3100 4250 3100 4650
Wire Wire Line
	2400 4400 2150 4400
Wire Wire Line
	2150 4250 2150 4650
Connection ~ 2150 4400
Connection ~ 3100 4400
Wire Wire Line
	2550 3850 3800 3850
Wire Wire Line
	2550 3850 2550 3750
Wire Wire Line
	3100 3750 3100 3850
Connection ~ 3100 3850
Wire Wire Line
	3400 3750 3400 3850
Connection ~ 3400 3850
Wire Wire Line
	2950 3450 3650 3450
Connection ~ 3100 3450
Connection ~ 3400 3450
Wire Wire Line
	3800 3850 3800 3650
Connection ~ 3650 3850
Wire Wire Line
	2700 3200 3100 3200
Wire Wire Line
	3100 3050 3100 3450
Wire Wire Line
	2400 3200 2150 3200
Wire Wire Line
	2150 3050 2150 3450
Connection ~ 7100 3150
Wire Wire Line
	7100 3300 6650 3300
Wire Wire Line
	6650 3300 6650 3550
Wire Wire Line
	4500 2800 4500 2950
Wire Wire Line
	4500 2950 4750 2950
Connection ~ 2150 3200
Connection ~ 3100 3200
Wire Wire Line
	4300 2800 4300 3050
Wire Wire Line
	4300 3050 4850 3050
Wire Wire Line
	4850 3050 4850 2950
Wire Wire Line
	4100 2800 4100 3150
Wire Wire Line
	4100 3150 4450 3150
Wire Wire Line
	4750 3150 4950 3150
Wire Wire Line
	4950 3150 4950 2950
Wire Wire Line
	3900 2700 3900 2800
Wire Wire Line
	5750 3950 4950 3950
Wire Wire Line
	4950 3950 4950 3300
Wire Wire Line
	4950 3300 3900 3300
Wire Wire Line
	3900 3300 3900 3100
Wire Wire Line
	4000 700  4000 900 
Wire Wire Line
	10700 3950 10700 4250
Connection ~ 10700 4100
Wire Wire Line
	10700 4700 10700 4850
Wire Wire Line
	10450 4700 10700 4700
Text Label 10450 4700 0    60   ~ 0
DQ
Text Label 5850 7500 0    60   ~ 0
DQ
Wire Wire Line
	10700 5050 10700 5200
Wire Wire Line
	10450 5050 10700 5050
Wire Wire Line
	8150 2200 8150 2250
Wire Wire Line
	8150 2250 7950 2250
Connection ~ 7950 2250
Text Label 8150 2250 0    60   ~ 0
MG
Text Label 10450 5050 0    60   ~ 0
MG
$Comp
L CONN_01X01 P16
U 1 1 583831FB
P 10900 5650
F 0 "P16" H 10978 5645 50  0001 L CNN
F 1 "GND" H 10978 5600 50  0001 L CNN
F 2 "Wire_Pads:SolderWirePad_single_0-8mmDrill" H 10900 5650 50  0001 C CNN
F 3 "" H 10900 5650 50  0000 C CNN
	1    10900 5650
	1    0    0    -1  
$EndComp
$Comp
L CONN_01X01 P17
U 1 1 583832E9
P 10900 5800
F 0 "P17" H 10978 5841 50  0001 L CNN
F 1 "GND" H 10978 5795 50  0001 L CNN
F 2 "Wire_Pads:SolderWirePad_single_0-8mmDrill" H 10900 5800 50  0001 C CNN
F 3 "" H 10900 5800 50  0000 C CNN
	1    10900 5800
	1    0    0    -1  
$EndComp
$Comp
L CONN_01X01 P19
U 1 1 5838614A
P 10900 4550
F 0 "P19" H 10978 4591 50  0001 L CNN
F 1 "POUT" H 10978 4545 50  0001 L CNN
F 2 "Wire_Pads:SolderWirePad_single_0-8mmDrill" H 10900 4550 50  0001 C CNN
F 3 "" H 10900 4550 50  0000 C CNN
	1    10900 4550
	1    0    0    -1  
$EndComp
$Comp
L CONN_01X01 P18
U 1 1 58386236
P 10900 4400
F 0 "P18" H 10978 4395 50  0001 L CNN
F 1 "POUT" H 10978 4350 50  0001 L CNN
F 2 "Wire_Pads:SolderWirePad_single_0-8mmDrill" H 10900 4400 50  0001 C CNN
F 3 "" H 10900 4400 50  0000 C CNN
	1    10900 4400
	1    0    0    -1  
$EndComp
Wire Wire Line
	10700 4400 10700 4550
Wire Wire Line
	10450 4400 10700 4400
Text Label 10450 4400 0    60   ~ 0
POUT
Text Label 10400 1500 0    60   ~ 0
POUT
$Comp
L CONN_01X01 P22
U 1 1 5838A2B1
P 10900 5350
F 0 "P22" H 10978 5345 50  0001 L CNN
F 1 "GND" H 10978 5300 50  0001 L CNN
F 2 "Wire_Pads:SolderWirePad_single_1-2mmDrill" H 10900 5350 50  0001 C CNN
F 3 "" H 10900 5350 50  0000 C CNN
	1    10900 5350
	1    0    0    -1  
$EndComp
$Comp
L CONN_01X01 P23
U 1 1 5838A2B7
P 10900 5500
F 0 "P23" H 10978 5541 50  0001 L CNN
F 1 "GND" H 10978 5495 50  0001 L CNN
F 2 "Wire_Pads:SolderWirePad_single_1-2mmDrill" H 10900 5500 50  0001 C CNN
F 3 "" H 10900 5500 50  0000 C CNN
	1    10900 5500
	1    0    0    -1  
$EndComp
$Comp
L GND #PWR054
U 1 1 5838A2BD
P 10450 5500
F 0 "#PWR054" H 10450 5250 50  0001 C CNN
F 1 "GND" H 10455 5327 50  0000 C CNN
F 2 "" H 10450 5500 50  0000 C CNN
F 3 "" H 10450 5500 50  0000 C CNN
	1    10450 5500
	1    0    0    -1  
$EndComp
$Comp
L CONN_01X01 P20
U 1 1 5838A4B4
P 10900 5950
F 0 "P20" H 10978 5945 50  0001 L CNN
F 1 "GND" H 10978 5900 50  0001 L CNN
F 2 "Wire_Pads:SolderWirePad_single_1-2mmDrill" H 10900 5950 50  0001 C CNN
F 3 "" H 10900 5950 50  0000 C CNN
	1    10900 5950
	1    0    0    -1  
$EndComp
$Comp
L CONN_01X01 P21
U 1 1 5838A4BA
P 10900 6100
F 0 "P21" H 10978 6141 50  0001 L CNN
F 1 "GND" H 10978 6095 50  0001 L CNN
F 2 "Wire_Pads:SolderWirePad_single_1-2mmDrill" H 10900 6100 50  0001 C CNN
F 3 "" H 10900 6100 50  0000 C CNN
	1    10900 6100
	1    0    0    -1  
$EndComp
$Comp
L CONN_01X01 P24
U 1 1 5833568F
P 10900 6250
F 0 "P24" H 10978 6245 50  0001 L CNN
F 1 "GND" H 10978 6200 50  0001 L CNN
F 2 "Wire_Pads:SolderWirePad_single_1-2mmDrill" H 10900 6250 50  0001 C CNN
F 3 "" H 10900 6250 50  0000 C CNN
	1    10900 6250
	1    0    0    -1  
$EndComp
$Comp
L CONN_01X01 P25
U 1 1 58335695
P 10900 6400
F 0 "P25" H 10978 6441 50  0001 L CNN
F 1 "GND" H 10978 6395 50  0001 L CNN
F 2 "Wire_Pads:SolderWirePad_single_1-2mmDrill" H 10900 6400 50  0001 C CNN
F 3 "" H 10900 6400 50  0000 C CNN
	1    10900 6400
	1    0    0    -1  
$EndComp
Wire Wire Line
	10700 5350 10700 6400
Connection ~ 10700 5500
Connection ~ 10700 5650
Connection ~ 10700 5800
Connection ~ 10700 5950
Connection ~ 10700 6250
Wire Wire Line
	10700 5950 10700 6100
Connection ~ 10700 6100
Wire Wire Line
	10700 5500 10450 5500
Wire Wire Line
	2300 3100 2300 3200
Connection ~ 2300 3200
Wire Wire Line
	3600 1850 3600 1900
Wire Wire Line
	3850 1850 3850 1350
Wire Wire Line
	3850 1350 3700 1350
Wire Wire Line
	3700 1350 3700 1250
Wire Wire Line
	3600 1250 3600 1350
Wire Wire Line
	3500 1250 3500 1350
$Comp
L C C36
U 1 1 5833F65B
P 10250 1150
F 0 "C36" H 10275 1250 50  0000 L CNN
F 1 "1nF" H 10275 1050 50  0000 L CNN
F 2 "Capacitors_SMD:C_1206_HandSoldering" H 10288 1000 50  0001 C CNN
F 3 "" H 10250 1150 50  0000 C CNN
	1    10250 1150
	1    0    0    -1  
$EndComp
Wire Wire Line
	10250 1300 10250 1500
$Comp
L GNDD #PWR055
U 1 1 5833FDA6
P 10550 1000
F 0 "#PWR055" H 10550 750 50  0001 C CNN
F 1 "GNDD" H 10550 850 50  0000 C CNN
F 2 "" H 10550 1000 50  0000 C CNN
F 3 "" H 10550 1000 50  0000 C CNN
	1    10550 1000
	1    0    0    -1  
$EndComp
Wire Wire Line
	10550 1000 10250 1000
$Comp
L BC547 Q7
U 1 1 584DDB2F
P 7400 4300
F 0 "Q7" H 7600 4375 50  0000 L CNN
F 1 "BC547" H 7600 4300 50  0000 L CNN
F 2 "TO_SOT_Packages_THT:TO-92_Inline_Wide" H 7600 4225 50  0000 L CIN
F 3 "" H 7400 4300 50  0000 L CNN
	1    7400 4300
	-1   0    0    -1  
$EndComp
Wire Wire Line
	7500 4100 7300 4100
$Comp
L GND #PWR056
U 1 1 584DE819
P 7300 4600
F 0 "#PWR056" H 7300 4350 50  0001 C CNN
F 1 "GND" H 7300 4450 50  0000 C CNN
F 2 "" H 7300 4600 50  0000 C CNN
F 3 "" H 7300 4600 50  0000 C CNN
	1    7300 4600
	1    0    0    -1  
$EndComp
Wire Wire Line
	7300 4500 7300 4600
$Comp
L R R21
U 1 1 584DEABE
P 7700 4450
F 0 "R21" V 7780 4450 50  0000 C CNN
F 1 "1k" V 7700 4450 50  0000 C CNN
F 2 "Resistors_SMD:R_1206_HandSoldering" V 7630 4450 50  0001 C CNN
F 3 "" H 7700 4450 50  0000 C CNN
	1    7700 4450
	1    0    0    -1  
$EndComp
Wire Wire Line
	7600 4300 7700 4300
Wire Wire Line
	7700 6450 7700 4600
$EndSCHEMATC
