%!PS-Adobe-3.0
%%Creator: PCBNEW
%%CreationDate: Mon Nov 21 21:14:23 2016
%%Title: /home/dev/workspace/sn1534/pdf/sn1534-F.SilkS.ps
%%Pages: 1
%%PageOrder: Ascend
%%BoundingBox: 0 0 596 842
%%DocumentMedia: A4 595 842 0 () ()
%%Orientation: Landscape
%%EndComments
%%BeginProlog
/line { newpath moveto lineto stroke } bind def
/cir0 { newpath 0 360 arc stroke } bind def
/cir1 { newpath 0 360 arc gsave fill grestore stroke } bind def
/cir2 { newpath 0 360 arc gsave fill grestore stroke } bind def
/arc0 { newpath arc stroke } bind def
/arc1 { newpath 4 index 4 index moveto arc closepath gsave fill
    grestore stroke } bind def
/arc2 { newpath 4 index 4 index moveto arc closepath gsave fill
    grestore stroke } bind def
/poly0 { stroke } bind def
/poly1 { closepath gsave fill grestore stroke } bind def
/poly2 { closepath gsave fill grestore stroke } bind def
/rect0 { rectstroke } bind def
/rect1 { rectfill } bind def
/rect2 { rectfill } bind def
/linemode0 { 0 setlinecap 0 setlinejoin 0 setlinewidth } bind def
/linemode1 { 1 setlinecap 1 setlinejoin } bind def
/dashedline { [200] 100 setdash } bind def
/solidline { [] 0 setdash } bind def
/phantomshow { moveto
    /KicadFont findfont 0.000001 scalefont setfont
    show } bind def
/textshow { gsave
    findfont exch scalefont setfont concat 1 scale 0 0 moveto show
    } bind def
/reencodefont {
  findfont dup length dict begin
  { 1 index /FID ne
    { def }
    { pop pop } ifelse
  } forall
  /Encoding ISOLatin1Encoding def
  currentdict
  end } bind def
/KicadFont /Helvetica reencodefont definefont pop
/KicadFont-Bold /Helvetica-Bold reencodefont definefont pop
/KicadFont-Oblique /Helvetica-Oblique reencodefont definefont pop
/KicadFont-BoldOblique /Helvetica-BoldOblique reencodefont definefont pop
%%EndProlog
%%Page: 1 1
%%BeginPageSetup
gsave
0.0072 0.0072 scale
linemode1
82680 0 translate 90 rotate
78.7402 setlinewidth
%%EndPageSetup
0 0 0 setrgbcolor
0 0 0 setrgbcolor
59.0551 setlinewidth
newpath
45330 22380 moveto
45330 32580 lineto
stroke
0 0 0 setrgbcolor
newpath
23530 22380 moveto
45330 22380 lineto
stroke
0 0 0 setrgbcolor
newpath
23530 32580 moveto
23530 22380 lineto
stroke
0 0 0 setrgbcolor
newpath
45330 32580 moveto
23530 32580 lineto
stroke
0 0 0 setrgbcolor
newpath
16830 70180 moveto
16830 33980 lineto
stroke
0 0 0 setrgbcolor
newpath
98430 70180 moveto
16830 70180 lineto
stroke
0 0 0 setrgbcolor
newpath
98430 33980 moveto
98430 70180 lineto
stroke
0 0 0 setrgbcolor
newpath
16830 33980 moveto
98430 33980 lineto
stroke
0 0 0 setrgbcolor
newpath
79136.3 44983.5 moveto
79923.7 44983.5 lineto
stroke
0 0 0 setrgbcolor
newpath
79923.7 44176.5 moveto
79136.3 44176.5 lineto
stroke
0 0 0 setrgbcolor
newpath
70653.2 39586.3 moveto
70653.2 40373.7 lineto
stroke
0 0 0 setrgbcolor
newpath
69806.8 40373.7 moveto
69806.8 39586.3 lineto
stroke
0 0 0 setrgbcolor
newpath
92436.3 37383.5 moveto
93223.7 37383.5 lineto
stroke
0 0 0 setrgbcolor
newpath
93223.7 36576.5 moveto
92436.3 36576.5 lineto
stroke
0 0 0 setrgbcolor
newpath
95333.5 39573.7 moveto
95333.5 38786.3 lineto
stroke
0 0 0 setrgbcolor
newpath
94526.5 38786.3 moveto
94526.5 39573.7 lineto
stroke
0 0 0 setrgbcolor
newpath
87436.3 39083.5 moveto
88223.7 39083.5 lineto
stroke
0 0 0 setrgbcolor
newpath
88223.7 38276.5 moveto
87436.3 38276.5 lineto
stroke
0 0 0 setrgbcolor
newpath
91033.5 39573.7 moveto
91033.5 38786.3 lineto
stroke
0 0 0 setrgbcolor
newpath
90226.5 38786.3 moveto
90226.5 39573.7 lineto
stroke
0 0 0 setrgbcolor
newpath
92436.3 41683.5 moveto
93223.7 41683.5 lineto
stroke
0 0 0 setrgbcolor
newpath
93223.7 40876.5 moveto
92436.3 40876.5 lineto
stroke
0 0 0 setrgbcolor
newpath
75536.3 62083.5 moveto
76323.7 62083.5 lineto
stroke
0 0 0 setrgbcolor
newpath
76323.7 61276.5 moveto
75536.3 61276.5 lineto
stroke
0 0 0 setrgbcolor
newpath
70036.3 62083.5 moveto
70823.7 62083.5 lineto
stroke
0 0 0 setrgbcolor
newpath
70823.7 61276.5 moveto
70036.3 61276.5 lineto
stroke
0 0 0 setrgbcolor
newpath
85536.3 36333.5 moveto
86323.7 36333.5 lineto
stroke
0 0 0 setrgbcolor
newpath
86323.7 35526.5 moveto
85536.3 35526.5 lineto
stroke
0 0 0 setrgbcolor
newpath
81036.3 62083.5 moveto
81823.7 62083.5 lineto
stroke
0 0 0 setrgbcolor
newpath
81823.7 61276.5 moveto
81036.3 61276.5 lineto
stroke
0 0 0 setrgbcolor
newpath
92036.3 62083.5 moveto
92823.7 62083.5 lineto
stroke
0 0 0 setrgbcolor
newpath
92823.7 61276.5 moveto
92036.3 61276.5 lineto
stroke
0 0 0 setrgbcolor
newpath
68726.5 39586.3 moveto
68726.5 40373.7 lineto
stroke
0 0 0 setrgbcolor
newpath
69533.5 40373.7 moveto
69533.5 39586.3 lineto
stroke
0 0 0 setrgbcolor
newpath
90623.7 45926.5 moveto
89836.3 45926.5 lineto
stroke
0 0 0 setrgbcolor
newpath
89836.3 46733.5 moveto
90623.7 46733.5 lineto
stroke
0 0 0 setrgbcolor
newpath
25473.5 40573.7 moveto
25473.5 39786.3 lineto
stroke
0 0 0 setrgbcolor
newpath
24666.5 39786.3 moveto
24666.5 40573.7 lineto
stroke
0 0 0 setrgbcolor
newpath
32806.5 39786.3 moveto
32806.5 40573.7 lineto
stroke
0 0 0 setrgbcolor
newpath
33613.5 40573.7 moveto
33613.5 39786.3 lineto
stroke
0 0 0 setrgbcolor
newpath
62226.5 39786.3 moveto
62226.5 40573.7 lineto
stroke
0 0 0 setrgbcolor
newpath
63033.5 40573.7 moveto
63033.5 39786.3 lineto
stroke
0 0 0 setrgbcolor
newpath
55833.5 50073.7 moveto
55833.5 49286.3 lineto
stroke
0 0 0 setrgbcolor
newpath
55026.5 49286.3 moveto
55026.5 50073.7 lineto
stroke
0 0 0 setrgbcolor
newpath
58333.5 50073.7 moveto
58333.5 49286.3 lineto
stroke
0 0 0 setrgbcolor
newpath
57526.5 49286.3 moveto
57526.5 50073.7 lineto
stroke
0 0 0 setrgbcolor
newpath
54733.5 39373.7 moveto
54733.5 38586.3 lineto
stroke
0 0 0 setrgbcolor
newpath
53926.5 38586.3 moveto
53926.5 39373.7 lineto
stroke
0 0 0 setrgbcolor
newpath
30536.3 60083.5 moveto
31323.7 60083.5 lineto
stroke
0 0 0 setrgbcolor
newpath
31323.7 59276.5 moveto
30536.3 59276.5 lineto
stroke
0 0 0 setrgbcolor
newpath
22333.5 50073.7 moveto
22333.5 49286.3 lineto
stroke
0 0 0 setrgbcolor
newpath
21526.5 49286.3 moveto
21526.5 50073.7 lineto
stroke
0 0 0 setrgbcolor
newpath
22526.5 49286.3 moveto
22526.5 50073.7 lineto
stroke
0 0 0 setrgbcolor
newpath
23333.5 50073.7 moveto
23333.5 49286.3 lineto
stroke
0 0 0 setrgbcolor
newpath
23526.5 53786.3 moveto
23526.5 54573.7 lineto
stroke
0 0 0 setrgbcolor
newpath
24333.5 54573.7 moveto
24333.5 53786.3 lineto
stroke
0 0 0 setrgbcolor
newpath
32123.7 43703.2 moveto
31336.3 43703.2 lineto
stroke
0 0 0 setrgbcolor
newpath
31336.3 42856.8 moveto
32123.7 42856.8 lineto
stroke
0 0 0 setrgbcolor
newpath
31236.3 23956.8 moveto
32023.7 23956.8 lineto
stroke
0 0 0 setrgbcolor
newpath
32023.7 24803.2 moveto
31236.3 24803.2 lineto
stroke
0 0 0 setrgbcolor
newpath
43723.7 41903.2 moveto
42936.3 41903.2 lineto
stroke
0 0 0 setrgbcolor
newpath
42936.3 41056.8 moveto
43723.7 41056.8 lineto
stroke
0 0 0 setrgbcolor
newpath
42936.3 37056.8 moveto
43723.7 37056.8 lineto
stroke
0 0 0 setrgbcolor
newpath
43723.7 37903.2 moveto
42936.3 37903.2 lineto
stroke
0 0 0 setrgbcolor
newpath
58106.8 41373.7 moveto
58106.8 40586.3 lineto
stroke
0 0 0 setrgbcolor
newpath
58953.2 40586.3 moveto
58953.2 41373.7 lineto
stroke
0 0 0 setrgbcolor
newpath
62036.3 60256.8 moveto
62823.7 60256.8 lineto
stroke
0 0 0 setrgbcolor
newpath
62823.7 61103.2 moveto
62036.3 61103.2 lineto
stroke
0 0 0 setrgbcolor
newpath
53553.2 43186.3 moveto
53553.2 43973.7 lineto
stroke
0 0 0 setrgbcolor
newpath
52706.8 43973.7 moveto
52706.8 43186.3 lineto
stroke
0 0 0 setrgbcolor
newpath
57536.3 56756.8 moveto
58323.7 56756.8 lineto
stroke
0 0 0 setrgbcolor
newpath
58323.7 57603.2 moveto
57536.3 57603.2 lineto
stroke
0 0 0 setrgbcolor
newpath
56053.2 41486.3 moveto
56053.2 42273.7 lineto
stroke
0 0 0 setrgbcolor
newpath
55206.8 42273.7 moveto
55206.8 41486.3 lineto
stroke
0 0 0 setrgbcolor
newpath
50106.8 43973.7 moveto
50106.8 43186.3 lineto
stroke
0 0 0 setrgbcolor
newpath
50953.2 43186.3 moveto
50953.2 43973.7 lineto
stroke
0 0 0 setrgbcolor
newpath
52253.2 43186.3 moveto
52253.2 43973.7 lineto
stroke
0 0 0 setrgbcolor
newpath
51406.8 43973.7 moveto
51406.8 43186.3 lineto
stroke
0 0 0 setrgbcolor
newpath
48906.8 43973.7 moveto
48906.8 43186.3 lineto
stroke
0 0 0 setrgbcolor
newpath
49753.2 43186.3 moveto
49753.2 43973.7 lineto
stroke
0 0 0 setrgbcolor
newpath
54753.2 41486.3 moveto
54753.2 42273.7 lineto
stroke
0 0 0 setrgbcolor
newpath
53906.8 42273.7 moveto
53906.8 41486.3 lineto
stroke
0 0 0 setrgbcolor
newpath
20174 40129.5 moveto
20450 40129.5 lineto
stroke
0 0 0 setrgbcolor
newpath
20174 40208.5 moveto
20174 40129.5 lineto
stroke
0 0 0 setrgbcolor
newpath
20174 41310.5 moveto
20174 41212.5 lineto
stroke
0 0 0 setrgbcolor
newpath
20450 41310.5 moveto
20174 41310.5 lineto
stroke
0 0 0 setrgbcolor
newpath
28930 41370.5 moveto
28654 41370.5 lineto
stroke
0 0 0 setrgbcolor
newpath
28654 41370.5 moveto
28654 41272.5 lineto
stroke
0 0 0 setrgbcolor
newpath
28654 40268.5 moveto
28654 40189.5 lineto
stroke
0 0 0 setrgbcolor
newpath
28654 40189.5 moveto
28930 40189.5 lineto
stroke
0 0 0 setrgbcolor
newpath
23546.8 40573.7 moveto
23546.8 39786.3 lineto
stroke
0 0 0 setrgbcolor
newpath
24393.2 39786.3 moveto
24393.2 40573.7 lineto
stroke
0 0 0 setrgbcolor
newpath
32413.2 39786.3 moveto
32413.2 40573.7 lineto
stroke
0 0 0 setrgbcolor
newpath
31566.8 40573.7 moveto
31566.8 39786.3 lineto
stroke
0 0 0 setrgbcolor
newpath
23933.5 45673.7 moveto
23933.5 44886.3 lineto
stroke
0 0 0 setrgbcolor
newpath
23126.5 44886.3 moveto
23126.5 45673.7 lineto
stroke
0 0 0 setrgbcolor
78.7402 setlinewidth
58835.5 59180 354.13 cir0
0 0 0 setrgbcolor
52930 59180 354.13 cir0
0 0 0 setrgbcolor
26930 45338 413.63 cir0
0 0 0 setrgbcolor
26930 55180 413.63 cir0
0 0 0 setrgbcolor
35930 59680 413.63 cir0
0 0 0 setrgbcolor
26088 59680 413.63 cir0
0 0 0 setrgbcolor
59.0551 setlinewidth
0 0 0 setrgbcolor
0 0 0 setrgbcolor
newpath
79783.1 44439.4 moveto
79801.8 44420.6 lineto
79858.1 44401.9 lineto
79895.6 44401.9 lineto
79951.8 44420.6 lineto
79989.3 44458.1 lineto
80008.1 44495.6 lineto
80026.8 44570.6 lineto
80026.8 44626.9 lineto
80008.1 44701.9 lineto
79989.3 44739.4 lineto
79951.8 44776.9 lineto
79895.6 44795.6 lineto
79858.1 44795.6 lineto
79801.8 44776.9 lineto
79783.1 44758.1 lineto
stroke
newpath
79633.1 44758.1 moveto
79614.4 44776.9 lineto
79576.9 44795.6 lineto
79483.1 44795.6 lineto
79445.6 44776.9 lineto
79426.9 44758.1 lineto
79408.1 44720.6 lineto
79408.1 44683.1 lineto
79426.9 44626.9 lineto
79651.9 44401.9 lineto
79408.1 44401.9 lineto
stroke
newpath
79164.4 44795.6 moveto
79126.9 44795.6 lineto
79089.4 44776.9 lineto
79070.7 44758.1 lineto
79051.9 44720.6 lineto
79033.2 44645.6 lineto
79033.2 44551.9 lineto
79051.9 44476.9 lineto
79070.7 44439.4 lineto
79089.4 44420.6 lineto
79126.9 44401.9 lineto
79164.4 44401.9 lineto
79201.9 44420.6 lineto
79220.7 44439.4 lineto
79239.4 44476.9 lineto
79258.2 44551.9 lineto
79258.2 44645.6 lineto
79239.4 44720.6 lineto
79220.7 44758.1 lineto
79201.9 44776.9 lineto
79164.4 44795.6 lineto
stroke
0 0 0 setrgbcolor
0 0 0 setrgbcolor
0 0 0 setrgbcolor
newpath
68951.9 39914.4 moveto
69139.4 39783.1 lineto
stroke
newpath
68951.9 39689.4 moveto
69345.6 39689.4 lineto
69345.6 39839.4 lineto
69326.9 39876.9 lineto
69308.1 39895.6 lineto
69270.6 39914.4 lineto
69214.4 39914.4 lineto
69176.9 39895.6 lineto
69158.1 39876.9 lineto
69139.4 39839.4 lineto
69139.4 39689.4 lineto
stroke
newpath
69345.6 40251.8 moveto
69345.6 40176.9 lineto
69326.9 40139.4 lineto
69308.1 40120.6 lineto
69251.9 40083.1 lineto
69176.9 40064.4 lineto
69026.9 40064.4 lineto
68989.4 40083.1 lineto
68970.6 40101.9 lineto
68951.9 40139.4 lineto
68951.9 40214.3 lineto
68970.6 40251.8 lineto
68989.4 40270.6 lineto
69026.9 40289.3 lineto
69120.6 40289.3 lineto
69158.1 40270.6 lineto
69176.9 40251.8 lineto
69195.6 40214.3 lineto
69195.6 40139.4 lineto
69176.9 40101.9 lineto
69158.1 40083.1 lineto
69120.6 40064.4 lineto
stroke
0 0 0 setrgbcolor
0 0 0 setrgbcolor
0 0 0 setrgbcolor
newpath
92895.6 36839.4 moveto
92914.4 36820.6 lineto
92970.6 36801.9 lineto
93008.1 36801.9 lineto
93064.3 36820.6 lineto
93101.8 36858.1 lineto
93120.6 36895.6 lineto
93139.3 36970.6 lineto
93139.3 37026.9 lineto
93120.6 37101.9 lineto
93101.8 37139.4 lineto
93064.3 37176.9 lineto
93008.1 37195.6 lineto
92970.6 37195.6 lineto
92914.4 37176.9 lineto
92895.6 37158.1 lineto
stroke
newpath
92520.7 36801.9 moveto
92745.6 36801.9 lineto
stroke
newpath
92633.1 36801.9 moveto
92633.1 37195.6 lineto
92670.6 37139.4 lineto
92708.1 37101.9 lineto
92745.6 37083.1 lineto
stroke
0 0 0 setrgbcolor
0 0 0 setrgbcolor
0 0 0 setrgbcolor
newpath
94789.4 39114.4 moveto
94770.6 39095.6 lineto
94751.9 39039.4 lineto
94751.9 39001.9 lineto
94770.6 38945.7 lineto
94808.1 38908.2 lineto
94845.6 38889.4 lineto
94920.6 38870.7 lineto
94976.9 38870.7 lineto
95051.9 38889.4 lineto
95089.4 38908.2 lineto
95126.9 38945.7 lineto
95145.6 39001.9 lineto
95145.6 39039.4 lineto
95126.9 39095.6 lineto
95108.1 39114.4 lineto
stroke
newpath
95108.1 39264.4 moveto
95126.9 39283.1 lineto
95145.6 39320.6 lineto
95145.6 39414.3 lineto
95126.9 39451.8 lineto
95108.1 39470.6 lineto
95070.6 39489.3 lineto
95033.1 39489.3 lineto
94976.9 39470.6 lineto
94751.9 39245.6 lineto
94751.9 39489.3 lineto
stroke
0 0 0 setrgbcolor
0 0 0 setrgbcolor
0 0 0 setrgbcolor
newpath
87995.6 38539.4 moveto
88014.4 38520.6 lineto
88070.6 38501.9 lineto
88108.1 38501.9 lineto
88164.3 38520.6 lineto
88201.8 38558.1 lineto
88220.6 38595.6 lineto
88239.3 38670.6 lineto
88239.3 38726.9 lineto
88220.6 38801.9 lineto
88201.8 38839.4 lineto
88164.3 38876.9 lineto
88108.1 38895.6 lineto
88070.6 38895.6 lineto
88014.4 38876.9 lineto
87995.6 38858.1 lineto
stroke
newpath
87658.2 38764.4 moveto
87658.2 38501.9 lineto
stroke
newpath
87751.9 38914.3 moveto
87845.6 38633.1 lineto
87601.9 38633.1 lineto
stroke
0 0 0 setrgbcolor
0 0 0 setrgbcolor
0 0 0 setrgbcolor
newpath
90489.4 39114.4 moveto
90470.6 39095.6 lineto
90451.9 39039.4 lineto
90451.9 39001.9 lineto
90470.6 38945.7 lineto
90508.1 38908.2 lineto
90545.6 38889.4 lineto
90620.6 38870.7 lineto
90676.9 38870.7 lineto
90751.9 38889.4 lineto
90789.4 38908.2 lineto
90826.9 38945.7 lineto
90845.6 39001.9 lineto
90845.6 39039.4 lineto
90826.9 39095.6 lineto
90808.1 39114.4 lineto
stroke
newpath
90845.6 39470.6 moveto
90845.6 39283.1 lineto
90658.1 39264.4 lineto
90676.9 39283.1 lineto
90695.6 39320.6 lineto
90695.6 39414.3 lineto
90676.9 39451.8 lineto
90658.1 39470.6 lineto
90620.6 39489.3 lineto
90526.9 39489.3 lineto
90489.4 39470.6 lineto
90470.6 39451.8 lineto
90451.9 39414.3 lineto
90451.9 39320.6 lineto
90470.6 39283.1 lineto
90489.4 39264.4 lineto
stroke
0 0 0 setrgbcolor
0 0 0 setrgbcolor
0 0 0 setrgbcolor
newpath
92895.6 41139.4 moveto
92914.4 41120.6 lineto
92970.6 41101.9 lineto
93008.1 41101.9 lineto
93064.3 41120.6 lineto
93101.8 41158.1 lineto
93120.6 41195.6 lineto
93139.3 41270.6 lineto
93139.3 41326.9 lineto
93120.6 41401.9 lineto
93101.8 41439.4 lineto
93064.3 41476.9 lineto
93008.1 41495.6 lineto
92970.6 41495.6 lineto
92914.4 41476.9 lineto
92895.6 41458.1 lineto
stroke
newpath
92558.2 41495.6 moveto
92633.1 41495.6 lineto
92670.6 41476.9 lineto
92689.4 41458.1 lineto
92726.9 41401.9 lineto
92745.6 41326.9 lineto
92745.6 41176.9 lineto
92726.9 41139.4 lineto
92708.1 41120.6 lineto
92670.6 41101.9 lineto
92595.7 41101.9 lineto
92558.2 41120.6 lineto
92539.4 41139.4 lineto
92520.7 41176.9 lineto
92520.7 41270.6 lineto
92539.4 41308.1 lineto
92558.2 41326.9 lineto
92595.7 41345.6 lineto
92670.6 41345.6 lineto
92708.1 41326.9 lineto
92726.9 41308.1 lineto
92745.6 41270.6 lineto
stroke
0 0 0 setrgbcolor
0 0 0 setrgbcolor
0 0 0 setrgbcolor
newpath
75995.6 61539.4 moveto
76014.4 61520.6 lineto
76070.6 61501.9 lineto
76108.1 61501.9 lineto
76164.3 61520.6 lineto
76201.8 61558.1 lineto
76220.6 61595.6 lineto
76239.3 61670.6 lineto
76239.3 61726.9 lineto
76220.6 61801.9 lineto
76201.8 61839.4 lineto
76164.3 61876.9 lineto
76108.1 61895.6 lineto
76070.6 61895.6 lineto
76014.4 61876.9 lineto
75995.6 61858.1 lineto
stroke
newpath
75864.4 61895.6 moveto
75601.9 61895.6 lineto
75770.6 61501.9 lineto
stroke
0 0 0 setrgbcolor
0 0 0 setrgbcolor
0 0 0 setrgbcolor
newpath
70495.6 61539.4 moveto
70514.4 61520.6 lineto
70570.6 61501.9 lineto
70608.1 61501.9 lineto
70664.3 61520.6 lineto
70701.8 61558.1 lineto
70720.6 61595.6 lineto
70739.3 61670.6 lineto
70739.3 61726.9 lineto
70720.6 61801.9 lineto
70701.8 61839.4 lineto
70664.3 61876.9 lineto
70608.1 61895.6 lineto
70570.6 61895.6 lineto
70514.4 61876.9 lineto
70495.6 61858.1 lineto
stroke
newpath
70270.6 61726.9 moveto
70308.1 61745.6 lineto
70326.9 61764.4 lineto
70345.6 61801.9 lineto
70345.6 61820.6 lineto
70326.9 61858.1 lineto
70308.1 61876.9 lineto
70270.6 61895.6 lineto
70195.7 61895.6 lineto
70158.2 61876.9 lineto
70139.4 61858.1 lineto
70120.7 61820.6 lineto
70120.7 61801.9 lineto
70139.4 61764.4 lineto
70158.2 61745.6 lineto
70195.7 61726.9 lineto
70270.6 61726.9 lineto
70308.1 61708.1 lineto
70326.9 61689.4 lineto
70345.6 61651.9 lineto
70345.6 61576.9 lineto
70326.9 61539.4 lineto
70308.1 61520.6 lineto
70270.6 61501.9 lineto
70195.7 61501.9 lineto
70158.2 61520.6 lineto
70139.4 61539.4 lineto
70120.7 61576.9 lineto
70120.7 61651.9 lineto
70139.4 61689.4 lineto
70158.2 61708.1 lineto
70195.7 61726.9 lineto
stroke
0 0 0 setrgbcolor
0 0 0 setrgbcolor
0 0 0 setrgbcolor
newpath
85995.6 35739.4 moveto
86014.4 35720.6 lineto
86070.6 35701.9 lineto
86108.1 35701.9 lineto
86164.3 35720.6 lineto
86201.8 35758.1 lineto
86220.6 35795.6 lineto
86239.3 35870.6 lineto
86239.3 35926.9 lineto
86220.6 36001.9 lineto
86201.8 36039.4 lineto
86164.3 36076.9 lineto
86108.1 36095.6 lineto
86070.6 36095.6 lineto
86014.4 36076.9 lineto
85995.6 36058.1 lineto
stroke
newpath
85808.1 35701.9 moveto
85733.1 35701.9 lineto
85695.7 35720.6 lineto
85676.9 35739.4 lineto
85639.4 35795.6 lineto
85620.7 35870.6 lineto
85620.7 36020.6 lineto
85639.4 36058.1 lineto
85658.2 36076.9 lineto
85695.7 36095.6 lineto
85770.6 36095.6 lineto
85808.1 36076.9 lineto
85826.9 36058.1 lineto
85845.6 36020.6 lineto
85845.6 35926.9 lineto
85826.9 35889.4 lineto
85808.1 35870.6 lineto
85770.6 35851.9 lineto
85695.7 35851.9 lineto
85658.2 35870.6 lineto
85639.4 35889.4 lineto
85620.7 35926.9 lineto
stroke
0 0 0 setrgbcolor
0 0 0 setrgbcolor
0 0 0 setrgbcolor
newpath
81683.1 61539.4 moveto
81701.8 61520.6 lineto
81758.1 61501.9 lineto
81795.6 61501.9 lineto
81851.8 61520.6 lineto
81889.3 61558.1 lineto
81908.1 61595.6 lineto
81926.8 61670.6 lineto
81926.8 61726.9 lineto
81908.1 61801.9 lineto
81889.3 61839.4 lineto
81851.8 61876.9 lineto
81795.6 61895.6 lineto
81758.1 61895.6 lineto
81701.8 61876.9 lineto
81683.1 61858.1 lineto
stroke
newpath
81308.1 61501.9 moveto
81533.1 61501.9 lineto
stroke
newpath
81420.6 61501.9 moveto
81420.6 61895.6 lineto
81458.1 61839.4 lineto
81495.6 61801.9 lineto
81533.1 61783.1 lineto
stroke
newpath
81064.4 61895.6 moveto
81026.9 61895.6 lineto
80989.4 61876.9 lineto
80970.7 61858.1 lineto
80951.9 61820.6 lineto
80933.2 61745.6 lineto
80933.2 61651.9 lineto
80951.9 61576.9 lineto
80970.7 61539.4 lineto
80989.4 61520.6 lineto
81026.9 61501.9 lineto
81064.4 61501.9 lineto
81101.9 61520.6 lineto
81120.7 61539.4 lineto
81139.4 61576.9 lineto
81158.2 61651.9 lineto
81158.2 61745.6 lineto
81139.4 61820.6 lineto
81120.7 61858.1 lineto
81101.9 61876.9 lineto
81064.4 61895.6 lineto
stroke
0 0 0 setrgbcolor
0 0 0 setrgbcolor
0 0 0 setrgbcolor
newpath
92683.1 61539.4 moveto
92701.8 61520.6 lineto
92758.1 61501.9 lineto
92795.6 61501.9 lineto
92851.8 61520.6 lineto
92889.3 61558.1 lineto
92908.1 61595.6 lineto
92926.8 61670.6 lineto
92926.8 61726.9 lineto
92908.1 61801.9 lineto
92889.3 61839.4 lineto
92851.8 61876.9 lineto
92795.6 61895.6 lineto
92758.1 61895.6 lineto
92701.8 61876.9 lineto
92683.1 61858.1 lineto
stroke
newpath
92308.1 61501.9 moveto
92533.1 61501.9 lineto
stroke
newpath
92420.6 61501.9 moveto
92420.6 61895.6 lineto
92458.1 61839.4 lineto
92495.6 61801.9 lineto
92533.1 61783.1 lineto
stroke
newpath
91933.2 61501.9 moveto
92158.2 61501.9 lineto
stroke
newpath
92045.7 61501.9 moveto
92045.7 61895.6 lineto
92083.2 61839.4 lineto
92120.7 61801.9 lineto
92158.2 61783.1 lineto
stroke
0 0 0 setrgbcolor
0 0 0 setrgbcolor
0 0 0 setrgbcolor
newpath
70089.4 39726.9 moveto
70070.6 39708.2 lineto
70051.9 39651.9 lineto
70051.9 39614.4 lineto
70070.6 39558.2 lineto
70108.1 39520.7 lineto
70145.6 39501.9 lineto
70220.6 39483.2 lineto
70276.9 39483.2 lineto
70351.9 39501.9 lineto
70389.4 39520.7 lineto
70426.9 39558.2 lineto
70445.6 39614.4 lineto
70445.6 39651.9 lineto
70426.9 39708.2 lineto
70408.1 39726.9 lineto
stroke
newpath
70051.9 40101.9 moveto
70051.9 39876.9 lineto
stroke
newpath
70051.9 39989.4 moveto
70445.6 39989.4 lineto
70389.4 39951.9 lineto
70351.9 39914.4 lineto
70333.1 39876.9 lineto
stroke
newpath
70445.6 40233.1 moveto
70445.6 40476.8 lineto
70295.6 40345.6 lineto
70295.6 40401.8 lineto
70276.9 40439.3 lineto
70258.1 40458.1 lineto
70220.6 40476.8 lineto
70126.9 40476.8 lineto
70089.4 40458.1 lineto
70070.6 40439.3 lineto
70051.9 40401.8 lineto
70051.9 40289.3 lineto
70070.6 40251.8 lineto
70089.4 40233.1 lineto
stroke
0 0 0 setrgbcolor
0 0 0 setrgbcolor
0 0 0 setrgbcolor
newpath
90483.1 46139.4 moveto
90501.8 46120.6 lineto
90558.1 46101.9 lineto
90595.6 46101.9 lineto
90651.8 46120.6 lineto
90689.3 46158.1 lineto
90708.1 46195.6 lineto
90726.8 46270.6 lineto
90726.8 46326.9 lineto
90708.1 46401.9 lineto
90689.3 46439.4 lineto
90651.8 46476.9 lineto
90595.6 46495.6 lineto
90558.1 46495.6 lineto
90501.8 46476.9 lineto
90483.1 46458.1 lineto
stroke
newpath
90108.1 46101.9 moveto
90333.1 46101.9 lineto
stroke
newpath
90220.6 46101.9 moveto
90220.6 46495.6 lineto
90258.1 46439.4 lineto
90295.6 46401.9 lineto
90333.1 46383.1 lineto
stroke
newpath
89770.7 46364.4 moveto
89770.7 46101.9 lineto
stroke
newpath
89864.4 46514.3 moveto
89958.2 46233.1 lineto
89714.4 46233.1 lineto
stroke
0 0 0 setrgbcolor
0 0 0 setrgbcolor
0 0 0 setrgbcolor
newpath
24789.4 39926.9 moveto
24770.6 39908.2 lineto
24751.9 39851.9 lineto
24751.9 39814.4 lineto
24770.6 39758.2 lineto
24808.1 39720.7 lineto
24845.6 39701.9 lineto
24920.6 39683.2 lineto
24976.9 39683.2 lineto
25051.9 39701.9 lineto
25089.4 39720.7 lineto
25126.9 39758.2 lineto
25145.6 39814.4 lineto
25145.6 39851.9 lineto
25126.9 39908.2 lineto
25108.1 39926.9 lineto
stroke
newpath
24751.9 40301.9 moveto
24751.9 40076.9 lineto
stroke
newpath
24751.9 40189.4 moveto
25145.6 40189.4 lineto
25089.4 40151.9 lineto
25051.9 40114.4 lineto
25033.1 40076.9 lineto
stroke
newpath
25145.6 40433.1 moveto
25145.6 40695.6 lineto
24751.9 40526.8 lineto
stroke
0 0 0 setrgbcolor
0 0 0 setrgbcolor
0 0 0 setrgbcolor
newpath
32989.4 39926.9 moveto
32970.6 39908.2 lineto
32951.9 39851.9 lineto
32951.9 39814.4 lineto
32970.6 39758.2 lineto
33008.1 39720.7 lineto
33045.6 39701.9 lineto
33120.6 39683.2 lineto
33176.9 39683.2 lineto
33251.9 39701.9 lineto
33289.4 39720.7 lineto
33326.9 39758.2 lineto
33345.6 39814.4 lineto
33345.6 39851.9 lineto
33326.9 39908.2 lineto
33308.1 39926.9 lineto
stroke
newpath
32951.9 40301.9 moveto
32951.9 40076.9 lineto
stroke
newpath
32951.9 40189.4 moveto
33345.6 40189.4 lineto
33289.4 40151.9 lineto
33251.9 40114.4 lineto
33233.1 40076.9 lineto
stroke
newpath
32951.9 40489.3 moveto
32951.9 40564.3 lineto
32970.6 40601.8 lineto
32989.4 40620.6 lineto
33045.6 40658.1 lineto
33120.6 40676.8 lineto
33270.6 40676.8 lineto
33308.1 40658.1 lineto
33326.9 40639.3 lineto
33345.6 40601.8 lineto
33345.6 40526.8 lineto
33326.9 40489.3 lineto
33308.1 40470.6 lineto
33270.6 40451.8 lineto
33176.9 40451.8 lineto
33139.4 40470.6 lineto
33120.6 40489.3 lineto
33101.9 40526.8 lineto
33101.9 40601.8 lineto
33120.6 40639.3 lineto
33139.4 40658.1 lineto
33176.9 40676.8 lineto
stroke
0 0 0 setrgbcolor
0 0 0 setrgbcolor
0 0 0 setrgbcolor
newpath
62489.4 39926.9 moveto
62470.6 39908.2 lineto
62451.9 39851.9 lineto
62451.9 39814.4 lineto
62470.6 39758.2 lineto
62508.1 39720.7 lineto
62545.6 39701.9 lineto
62620.6 39683.2 lineto
62676.9 39683.2 lineto
62751.9 39701.9 lineto
62789.4 39720.7 lineto
62826.9 39758.2 lineto
62845.6 39814.4 lineto
62845.6 39851.9 lineto
62826.9 39908.2 lineto
62808.1 39926.9 lineto
stroke
newpath
62808.1 40076.9 moveto
62826.9 40095.6 lineto
62845.6 40133.1 lineto
62845.6 40226.9 lineto
62826.9 40264.4 lineto
62808.1 40283.1 lineto
62770.6 40301.9 lineto
62733.1 40301.9 lineto
62676.9 40283.1 lineto
62451.9 40058.1 lineto
62451.9 40301.9 lineto
stroke
newpath
62808.1 40451.8 moveto
62826.9 40470.6 lineto
62845.6 40508.1 lineto
62845.6 40601.8 lineto
62826.9 40639.3 lineto
62808.1 40658.1 lineto
62770.6 40676.8 lineto
62733.1 40676.8 lineto
62676.9 40658.1 lineto
62451.9 40433.1 lineto
62451.9 40676.8 lineto
stroke
0 0 0 setrgbcolor
0 0 0 setrgbcolor
0 0 0 setrgbcolor
newpath
55289.4 49426.9 moveto
55270.6 49408.2 lineto
55251.9 49351.9 lineto
55251.9 49314.4 lineto
55270.6 49258.2 lineto
55308.1 49220.7 lineto
55345.6 49201.9 lineto
55420.6 49183.2 lineto
55476.9 49183.2 lineto
55551.9 49201.9 lineto
55589.4 49220.7 lineto
55626.9 49258.2 lineto
55645.6 49314.4 lineto
55645.6 49351.9 lineto
55626.9 49408.2 lineto
55608.1 49426.9 lineto
stroke
newpath
55608.1 49576.9 moveto
55626.9 49595.6 lineto
55645.6 49633.1 lineto
55645.6 49726.9 lineto
55626.9 49764.4 lineto
55608.1 49783.1 lineto
55570.6 49801.9 lineto
55533.1 49801.9 lineto
55476.9 49783.1 lineto
55251.9 49558.1 lineto
55251.9 49801.9 lineto
stroke
newpath
55645.6 50158.1 moveto
55645.6 49970.6 lineto
55458.1 49951.8 lineto
55476.9 49970.6 lineto
55495.6 50008.1 lineto
55495.6 50101.8 lineto
55476.9 50139.3 lineto
55458.1 50158.1 lineto
55420.6 50176.8 lineto
55326.9 50176.8 lineto
55289.4 50158.1 lineto
55270.6 50139.3 lineto
55251.9 50101.8 lineto
55251.9 50008.1 lineto
55270.6 49970.6 lineto
55289.4 49951.8 lineto
stroke
0 0 0 setrgbcolor
0 0 0 setrgbcolor
0 0 0 setrgbcolor
newpath
57789.4 49426.9 moveto
57770.6 49408.2 lineto
57751.9 49351.9 lineto
57751.9 49314.4 lineto
57770.6 49258.2 lineto
57808.1 49220.7 lineto
57845.6 49201.9 lineto
57920.6 49183.2 lineto
57976.9 49183.2 lineto
58051.9 49201.9 lineto
58089.4 49220.7 lineto
58126.9 49258.2 lineto
58145.6 49314.4 lineto
58145.6 49351.9 lineto
58126.9 49408.2 lineto
58108.1 49426.9 lineto
stroke
newpath
58108.1 49576.9 moveto
58126.9 49595.6 lineto
58145.6 49633.1 lineto
58145.6 49726.9 lineto
58126.9 49764.4 lineto
58108.1 49783.1 lineto
58070.6 49801.9 lineto
58033.1 49801.9 lineto
57976.9 49783.1 lineto
57751.9 49558.1 lineto
57751.9 49801.9 lineto
stroke
newpath
58145.6 50139.3 moveto
58145.6 50064.3 lineto
58126.9 50026.8 lineto
58108.1 50008.1 lineto
58051.9 49970.6 lineto
57976.9 49951.8 lineto
57826.9 49951.8 lineto
57789.4 49970.6 lineto
57770.6 49989.3 lineto
57751.9 50026.8 lineto
57751.9 50101.8 lineto
57770.6 50139.3 lineto
57789.4 50158.1 lineto
57826.9 50176.8 lineto
57920.6 50176.8 lineto
57958.1 50158.1 lineto
57976.9 50139.3 lineto
57995.6 50101.8 lineto
57995.6 50026.8 lineto
57976.9 49989.3 lineto
57958.1 49970.6 lineto
57920.6 49951.8 lineto
stroke
0 0 0 setrgbcolor
0 0 0 setrgbcolor
0 0 0 setrgbcolor
newpath
54189.4 38826.9 moveto
54170.6 38808.2 lineto
54151.9 38751.9 lineto
54151.9 38714.4 lineto
54170.6 38658.2 lineto
54208.1 38620.7 lineto
54245.6 38601.9 lineto
54320.6 38583.2 lineto
54376.9 38583.2 lineto
54451.9 38601.9 lineto
54489.4 38620.7 lineto
54526.9 38658.2 lineto
54545.6 38714.4 lineto
54545.6 38751.9 lineto
54526.9 38808.2 lineto
54508.1 38826.9 lineto
stroke
newpath
54508.1 38976.9 moveto
54526.9 38995.6 lineto
54545.6 39033.1 lineto
54545.6 39126.9 lineto
54526.9 39164.4 lineto
54508.1 39183.1 lineto
54470.6 39201.9 lineto
54433.1 39201.9 lineto
54376.9 39183.1 lineto
54151.9 38958.1 lineto
54151.9 39201.9 lineto
stroke
newpath
54376.9 39426.8 moveto
54395.6 39389.3 lineto
54414.4 39370.6 lineto
54451.9 39351.8 lineto
54470.6 39351.8 lineto
54508.1 39370.6 lineto
54526.9 39389.3 lineto
54545.6 39426.8 lineto
54545.6 39501.8 lineto
54526.9 39539.3 lineto
54508.1 39558.1 lineto
54470.6 39576.8 lineto
54451.9 39576.8 lineto
54414.4 39558.1 lineto
54395.6 39539.3 lineto
54376.9 39501.8 lineto
54376.9 39426.8 lineto
54358.1 39389.3 lineto
54339.4 39370.6 lineto
54301.9 39351.8 lineto
54226.9 39351.8 lineto
54189.4 39370.6 lineto
54170.6 39389.3 lineto
54151.9 39426.8 lineto
54151.9 39501.8 lineto
54170.6 39539.3 lineto
54189.4 39558.1 lineto
54226.9 39576.8 lineto
54301.9 39576.8 lineto
54339.4 39558.1 lineto
54358.1 39539.3 lineto
54376.9 39501.8 lineto
stroke
0 0 0 setrgbcolor
0 0 0 setrgbcolor
0 0 0 setrgbcolor
newpath
31183.1 59539.4 moveto
31201.8 59520.6 lineto
31258.1 59501.9 lineto
31295.6 59501.9 lineto
31351.8 59520.6 lineto
31389.3 59558.1 lineto
31408.1 59595.6 lineto
31426.8 59670.6 lineto
31426.8 59726.9 lineto
31408.1 59801.9 lineto
31389.3 59839.4 lineto
31351.8 59876.9 lineto
31295.6 59895.6 lineto
31258.1 59895.6 lineto
31201.8 59876.9 lineto
31183.1 59858.1 lineto
stroke
newpath
31051.9 59895.6 moveto
30808.1 59895.6 lineto
30939.4 59745.6 lineto
30883.1 59745.6 lineto
30845.6 59726.9 lineto
30826.9 59708.1 lineto
30808.1 59670.6 lineto
30808.1 59576.9 lineto
30826.9 59539.4 lineto
30845.6 59520.6 lineto
30883.1 59501.9 lineto
30995.6 59501.9 lineto
31033.1 59520.6 lineto
31051.9 59539.4 lineto
stroke
newpath
30564.4 59895.6 moveto
30526.9 59895.6 lineto
30489.4 59876.9 lineto
30470.7 59858.1 lineto
30451.9 59820.6 lineto
30433.2 59745.6 lineto
30433.2 59651.9 lineto
30451.9 59576.9 lineto
30470.7 59539.4 lineto
30489.4 59520.6 lineto
30526.9 59501.9 lineto
30564.4 59501.9 lineto
30601.9 59520.6 lineto
30620.7 59539.4 lineto
30639.4 59576.9 lineto
30658.2 59651.9 lineto
30658.2 59745.6 lineto
30639.4 59820.6 lineto
30620.7 59858.1 lineto
30601.9 59876.9 lineto
30564.4 59895.6 lineto
stroke
0 0 0 setrgbcolor
0 0 0 setrgbcolor
0 0 0 setrgbcolor
newpath
21789.4 49426.9 moveto
21770.6 49408.2 lineto
21751.9 49351.9 lineto
21751.9 49314.4 lineto
21770.6 49258.2 lineto
21808.1 49220.7 lineto
21845.6 49201.9 lineto
21920.6 49183.2 lineto
21976.9 49183.2 lineto
22051.9 49201.9 lineto
22089.4 49220.7 lineto
22126.9 49258.2 lineto
22145.6 49314.4 lineto
22145.6 49351.9 lineto
22126.9 49408.2 lineto
22108.1 49426.9 lineto
stroke
newpath
22145.6 49558.1 moveto
22145.6 49801.9 lineto
21995.6 49670.6 lineto
21995.6 49726.9 lineto
21976.9 49764.4 lineto
21958.1 49783.1 lineto
21920.6 49801.9 lineto
21826.9 49801.9 lineto
21789.4 49783.1 lineto
21770.6 49764.4 lineto
21751.9 49726.9 lineto
21751.9 49614.4 lineto
21770.6 49576.9 lineto
21789.4 49558.1 lineto
stroke
newpath
22108.1 49951.8 moveto
22126.9 49970.6 lineto
22145.6 50008.1 lineto
22145.6 50101.8 lineto
22126.9 50139.3 lineto
22108.1 50158.1 lineto
22070.6 50176.8 lineto
22033.1 50176.8 lineto
21976.9 50158.1 lineto
21751.9 49933.1 lineto
21751.9 50176.8 lineto
stroke
0 0 0 setrgbcolor
0 0 0 setrgbcolor
0 0 0 setrgbcolor
newpath
22789.4 49426.9 moveto
22770.6 49408.2 lineto
22751.9 49351.9 lineto
22751.9 49314.4 lineto
22770.6 49258.2 lineto
22808.1 49220.7 lineto
22845.6 49201.9 lineto
22920.6 49183.2 lineto
22976.9 49183.2 lineto
23051.9 49201.9 lineto
23089.4 49220.7 lineto
23126.9 49258.2 lineto
23145.6 49314.4 lineto
23145.6 49351.9 lineto
23126.9 49408.2 lineto
23108.1 49426.9 lineto
stroke
newpath
23145.6 49558.1 moveto
23145.6 49801.9 lineto
22995.6 49670.6 lineto
22995.6 49726.9 lineto
22976.9 49764.4 lineto
22958.1 49783.1 lineto
22920.6 49801.9 lineto
22826.9 49801.9 lineto
22789.4 49783.1 lineto
22770.6 49764.4 lineto
22751.9 49726.9 lineto
22751.9 49614.4 lineto
22770.6 49576.9 lineto
22789.4 49558.1 lineto
stroke
newpath
23145.6 49933.1 moveto
23145.6 50176.8 lineto
22995.6 50045.6 lineto
22995.6 50101.8 lineto
22976.9 50139.3 lineto
22958.1 50158.1 lineto
22920.6 50176.8 lineto
22826.9 50176.8 lineto
22789.4 50158.1 lineto
22770.6 50139.3 lineto
22751.9 50101.8 lineto
22751.9 49989.3 lineto
22770.6 49951.8 lineto
22789.4 49933.1 lineto
stroke
0 0 0 setrgbcolor
0 0 0 setrgbcolor
0 0 0 setrgbcolor
newpath
23789.4 53926.9 moveto
23770.6 53908.2 lineto
23751.9 53851.9 lineto
23751.9 53814.4 lineto
23770.6 53758.2 lineto
23808.1 53720.7 lineto
23845.6 53701.9 lineto
23920.6 53683.2 lineto
23976.9 53683.2 lineto
24051.9 53701.9 lineto
24089.4 53720.7 lineto
24126.9 53758.2 lineto
24145.6 53814.4 lineto
24145.6 53851.9 lineto
24126.9 53908.2 lineto
24108.1 53926.9 lineto
stroke
newpath
24145.6 54058.1 moveto
24145.6 54301.9 lineto
23995.6 54170.6 lineto
23995.6 54226.9 lineto
23976.9 54264.4 lineto
23958.1 54283.1 lineto
23920.6 54301.9 lineto
23826.9 54301.9 lineto
23789.4 54283.1 lineto
23770.6 54264.4 lineto
23751.9 54226.9 lineto
23751.9 54114.4 lineto
23770.6 54076.9 lineto
23789.4 54058.1 lineto
stroke
newpath
24014.4 54639.3 moveto
23751.9 54639.3 lineto
stroke
newpath
24164.3 54545.6 moveto
23883.1 54451.8 lineto
23883.1 54695.6 lineto
stroke
0 0 0 setrgbcolor
0 0 0 setrgbcolor
0 0 0 setrgbcolor
newpath
31795.6 43101.9 moveto
31926.9 43289.4 lineto
stroke
newpath
32020.6 43101.9 moveto
32020.6 43495.6 lineto
31870.6 43495.6 lineto
31833.1 43476.9 lineto
31814.4 43458.1 lineto
31795.6 43420.6 lineto
31795.6 43364.4 lineto
31814.4 43326.9 lineto
31833.1 43308.1 lineto
31870.6 43289.4 lineto
32020.6 43289.4 lineto
stroke
newpath
31645.6 43458.1 moveto
31626.9 43476.9 lineto
31589.4 43495.6 lineto
31495.7 43495.6 lineto
31458.2 43476.9 lineto
31439.4 43458.1 lineto
31420.7 43420.6 lineto
31420.7 43383.1 lineto
31439.4 43326.9 lineto
31664.4 43101.9 lineto
31420.7 43101.9 lineto
stroke
0 0 0 setrgbcolor
0 0 0 setrgbcolor
0 0 0 setrgbcolor
newpath
31695.6 25107.4 moveto
31826.9 25294.9 lineto
stroke
newpath
31920.6 25107.4 moveto
31920.6 25501.1 lineto
31770.6 25501.1 lineto
31733.1 25482.4 lineto
31714.4 25463.6 lineto
31695.6 25426.1 lineto
31695.6 25369.9 lineto
31714.4 25332.4 lineto
31733.1 25313.6 lineto
31770.6 25294.9 lineto
31920.6 25294.9 lineto
stroke
newpath
31564.4 25501.1 moveto
31320.7 25501.1 lineto
31451.9 25351.1 lineto
31395.7 25351.1 lineto
31358.2 25332.4 lineto
31339.4 25313.6 lineto
31320.7 25276.1 lineto
31320.7 25182.4 lineto
31339.4 25144.9 lineto
31358.2 25126.2 lineto
31395.7 25107.4 lineto
31508.1 25107.4 lineto
31545.6 25126.2 lineto
31564.4 25144.9 lineto
stroke
0 0 0 setrgbcolor
0 0 0 setrgbcolor
0 0 0 setrgbcolor
newpath
43395.6 41301.9 moveto
43526.9 41489.4 lineto
stroke
newpath
43620.6 41301.9 moveto
43620.6 41695.6 lineto
43470.6 41695.6 lineto
43433.1 41676.9 lineto
43414.4 41658.1 lineto
43395.6 41620.6 lineto
43395.6 41564.4 lineto
43414.4 41526.9 lineto
43433.1 41508.1 lineto
43470.6 41489.4 lineto
43620.6 41489.4 lineto
stroke
newpath
43058.2 41564.4 moveto
43058.2 41301.9 lineto
stroke
newpath
43151.9 41714.3 moveto
43245.6 41433.1 lineto
43001.9 41433.1 lineto
stroke
0 0 0 setrgbcolor
0 0 0 setrgbcolor
0 0 0 setrgbcolor
newpath
43395.6 37301.9 moveto
43526.9 37489.4 lineto
stroke
newpath
43620.6 37301.9 moveto
43620.6 37695.6 lineto
43470.6 37695.6 lineto
43433.1 37676.9 lineto
43414.4 37658.1 lineto
43395.6 37620.6 lineto
43395.6 37564.4 lineto
43414.4 37526.9 lineto
43433.1 37508.1 lineto
43470.6 37489.4 lineto
43620.6 37489.4 lineto
stroke
newpath
43039.4 37695.6 moveto
43226.9 37695.6 lineto
43245.6 37508.1 lineto
43226.9 37526.9 lineto
43189.4 37545.6 lineto
43095.7 37545.6 lineto
43058.2 37526.9 lineto
43039.4 37508.1 lineto
43020.7 37470.6 lineto
43020.7 37376.9 lineto
43039.4 37339.4 lineto
43058.2 37320.6 lineto
43095.7 37301.9 lineto
43189.4 37301.9 lineto
43226.9 37320.6 lineto
43245.6 37339.4 lineto
stroke
0 0 0 setrgbcolor
0 0 0 setrgbcolor
0 0 0 setrgbcolor
newpath
58351.9 40914.4 moveto
58539.4 40783.1 lineto
stroke
newpath
58351.9 40689.4 moveto
58745.6 40689.4 lineto
58745.6 40839.4 lineto
58726.9 40876.9 lineto
58708.1 40895.6 lineto
58670.6 40914.4 lineto
58614.4 40914.4 lineto
58576.9 40895.6 lineto
58558.1 40876.9 lineto
58539.4 40839.4 lineto
58539.4 40689.4 lineto
stroke
newpath
58745.6 41045.6 moveto
58745.6 41308.1 lineto
58351.9 41139.4 lineto
stroke
0 0 0 setrgbcolor
0 0 0 setrgbcolor
0 0 0 setrgbcolor
newpath
62595.6 60501.9 moveto
62726.9 60689.4 lineto
stroke
newpath
62820.6 60501.9 moveto
62820.6 60895.6 lineto
62670.6 60895.6 lineto
62633.1 60876.9 lineto
62614.4 60858.1 lineto
62595.6 60820.6 lineto
62595.6 60764.4 lineto
62614.4 60726.9 lineto
62633.1 60708.1 lineto
62670.6 60689.4 lineto
62820.6 60689.4 lineto
stroke
newpath
62370.6 60726.9 moveto
62408.1 60745.6 lineto
62426.9 60764.4 lineto
62445.6 60801.9 lineto
62445.6 60820.6 lineto
62426.9 60858.1 lineto
62408.1 60876.9 lineto
62370.6 60895.6 lineto
62295.7 60895.6 lineto
62258.2 60876.9 lineto
62239.4 60858.1 lineto
62220.7 60820.6 lineto
62220.7 60801.9 lineto
62239.4 60764.4 lineto
62258.2 60745.6 lineto
62295.7 60726.9 lineto
62370.6 60726.9 lineto
62408.1 60708.1 lineto
62426.9 60689.4 lineto
62445.6 60651.9 lineto
62445.6 60576.9 lineto
62426.9 60539.4 lineto
62408.1 60520.6 lineto
62370.6 60501.9 lineto
62295.7 60501.9 lineto
62258.2 60520.6 lineto
62239.4 60539.4 lineto
62220.7 60576.9 lineto
62220.7 60651.9 lineto
62239.4 60689.4 lineto
62258.2 60708.1 lineto
62295.7 60726.9 lineto
stroke
0 0 0 setrgbcolor
0 0 0 setrgbcolor
0 0 0 setrgbcolor
newpath
51651.9 43614.4 moveto
51839.4 43483.1 lineto
stroke
newpath
51651.9 43389.4 moveto
52045.6 43389.4 lineto
52045.6 43539.4 lineto
52026.9 43576.9 lineto
52008.1 43595.6 lineto
51970.6 43614.4 lineto
51914.4 43614.4 lineto
51876.9 43595.6 lineto
51858.1 43576.9 lineto
51839.4 43539.4 lineto
51839.4 43389.4 lineto
stroke
newpath
51651.9 43801.9 moveto
51651.9 43876.9 lineto
51670.6 43914.3 lineto
51689.4 43933.1 lineto
51745.6 43970.6 lineto
51820.6 43989.3 lineto
51970.6 43989.3 lineto
52008.1 43970.6 lineto
52026.9 43951.8 lineto
52045.6 43914.3 lineto
52045.6 43839.4 lineto
52026.9 43801.9 lineto
52008.1 43783.1 lineto
51970.6 43764.4 lineto
51876.9 43764.4 lineto
51839.4 43783.1 lineto
51820.6 43801.9 lineto
51801.9 43839.4 lineto
51801.9 43914.3 lineto
51820.6 43951.8 lineto
51839.4 43970.6 lineto
51876.9 43989.3 lineto
stroke
0 0 0 setrgbcolor
0 0 0 setrgbcolor
0 0 0 setrgbcolor
newpath
58083.1 57801.9 moveto
58214.3 57989.4 lineto
stroke
newpath
58308.1 57801.9 moveto
58308.1 58195.6 lineto
58158.1 58195.6 lineto
58120.6 58176.9 lineto
58101.8 58158.1 lineto
58083.1 58120.6 lineto
58083.1 58064.4 lineto
58101.8 58026.9 lineto
58120.6 58008.1 lineto
58158.1 57989.4 lineto
58308.1 57989.4 lineto
stroke
newpath
57708.1 57801.9 moveto
57933.1 57801.9 lineto
stroke
newpath
57820.6 57801.9 moveto
57820.6 58195.6 lineto
57858.1 58139.4 lineto
57895.6 58101.9 lineto
57933.1 58083.1 lineto
stroke
newpath
57464.4 58195.6 moveto
57426.9 58195.6 lineto
57389.4 58176.9 lineto
57370.7 58158.1 lineto
57351.9 58120.6 lineto
57333.2 58045.6 lineto
57333.2 57951.9 lineto
57351.9 57876.9 lineto
57370.7 57839.4 lineto
57389.4 57820.6 lineto
57426.9 57801.9 lineto
57464.4 57801.9 lineto
57501.9 57820.6 lineto
57520.7 57839.4 lineto
57539.4 57876.9 lineto
57558.2 57951.9 lineto
57558.2 58045.6 lineto
57539.4 58120.6 lineto
57520.7 58158.1 lineto
57501.9 58176.9 lineto
57464.4 58195.6 lineto
stroke
0 0 0 setrgbcolor
0 0 0 setrgbcolor
0 0 0 setrgbcolor
newpath
55451.9 41726.9 moveto
55639.4 41595.7 lineto
stroke
newpath
55451.9 41501.9 moveto
55845.6 41501.9 lineto
55845.6 41651.9 lineto
55826.9 41689.4 lineto
55808.1 41708.2 lineto
55770.6 41726.9 lineto
55714.4 41726.9 lineto
55676.9 41708.2 lineto
55658.1 41689.4 lineto
55639.4 41651.9 lineto
55639.4 41501.9 lineto
stroke
newpath
55451.9 42101.9 moveto
55451.9 41876.9 lineto
stroke
newpath
55451.9 41989.4 moveto
55845.6 41989.4 lineto
55789.4 41951.9 lineto
55751.9 41914.4 lineto
55733.1 41876.9 lineto
stroke
newpath
55451.9 42476.8 moveto
55451.9 42251.8 lineto
stroke
newpath
55451.9 42364.3 moveto
55845.6 42364.3 lineto
55789.4 42326.8 lineto
55751.9 42289.3 lineto
55733.1 42251.8 lineto
stroke
0 0 0 setrgbcolor
0 0 0 setrgbcolor
0 0 0 setrgbcolor
newpath
50351.9 43426.9 moveto
50539.4 43295.7 lineto
stroke
newpath
50351.9 43201.9 moveto
50745.6 43201.9 lineto
50745.6 43351.9 lineto
50726.9 43389.4 lineto
50708.1 43408.2 lineto
50670.6 43426.9 lineto
50614.4 43426.9 lineto
50576.9 43408.2 lineto
50558.1 43389.4 lineto
50539.4 43351.9 lineto
50539.4 43201.9 lineto
stroke
newpath
50351.9 43801.9 moveto
50351.9 43576.9 lineto
stroke
newpath
50351.9 43689.4 moveto
50745.6 43689.4 lineto
50689.4 43651.9 lineto
50651.9 43614.4 lineto
50633.1 43576.9 lineto
stroke
newpath
50614.4 44139.3 moveto
50351.9 44139.3 lineto
stroke
newpath
50764.3 44045.6 moveto
50483.1 43951.8 lineto
50483.1 44195.6 lineto
stroke
0 0 0 setrgbcolor
0 0 0 setrgbcolor
0 0 0 setrgbcolor
newpath
52951.9 43326.9 moveto
53139.4 43195.7 lineto
stroke
newpath
52951.9 43101.9 moveto
53345.6 43101.9 lineto
53345.6 43251.9 lineto
53326.9 43289.4 lineto
53308.1 43308.2 lineto
53270.6 43326.9 lineto
53214.4 43326.9 lineto
53176.9 43308.2 lineto
53158.1 43289.4 lineto
53139.4 43251.9 lineto
53139.4 43101.9 lineto
stroke
newpath
52951.9 43701.9 moveto
52951.9 43476.9 lineto
stroke
newpath
52951.9 43589.4 moveto
53345.6 43589.4 lineto
53289.4 43551.9 lineto
53251.9 43514.4 lineto
53233.1 43476.9 lineto
stroke
newpath
53345.6 44058.1 moveto
53345.6 43870.6 lineto
53158.1 43851.8 lineto
53176.9 43870.6 lineto
53195.6 43908.1 lineto
53195.6 44001.8 lineto
53176.9 44039.3 lineto
53158.1 44058.1 lineto
53120.6 44076.8 lineto
53026.9 44076.8 lineto
52989.4 44058.1 lineto
52970.6 44039.3 lineto
52951.9 44001.8 lineto
52951.9 43908.1 lineto
52970.6 43870.6 lineto
52989.4 43851.8 lineto
stroke
0 0 0 setrgbcolor
0 0 0 setrgbcolor
0 0 0 setrgbcolor
newpath
49151.9 43426.9 moveto
49339.4 43295.7 lineto
stroke
newpath
49151.9 43201.9 moveto
49545.6 43201.9 lineto
49545.6 43351.9 lineto
49526.9 43389.4 lineto
49508.1 43408.2 lineto
49470.6 43426.9 lineto
49414.4 43426.9 lineto
49376.9 43408.2 lineto
49358.1 43389.4 lineto
49339.4 43351.9 lineto
49339.4 43201.9 lineto
stroke
newpath
49151.9 43801.9 moveto
49151.9 43576.9 lineto
stroke
newpath
49151.9 43689.4 moveto
49545.6 43689.4 lineto
49489.4 43651.9 lineto
49451.9 43614.4 lineto
49433.1 43576.9 lineto
stroke
newpath
49545.6 44139.3 moveto
49545.6 44064.3 lineto
49526.9 44026.8 lineto
49508.1 44008.1 lineto
49451.9 43970.6 lineto
49376.9 43951.8 lineto
49226.9 43951.8 lineto
49189.4 43970.6 lineto
49170.6 43989.3 lineto
49151.9 44026.8 lineto
49151.9 44101.8 lineto
49170.6 44139.3 lineto
49189.4 44158.1 lineto
49226.9 44176.8 lineto
49320.6 44176.8 lineto
49358.1 44158.1 lineto
49376.9 44139.3 lineto
49395.6 44101.8 lineto
49395.6 44026.8 lineto
49376.9 43989.3 lineto
49358.1 43970.6 lineto
49320.6 43951.8 lineto
stroke
0 0 0 setrgbcolor
0 0 0 setrgbcolor
0 0 0 setrgbcolor
newpath
54151.9 41626.9 moveto
54339.4 41495.7 lineto
stroke
newpath
54151.9 41401.9 moveto
54545.6 41401.9 lineto
54545.6 41551.9 lineto
54526.9 41589.4 lineto
54508.1 41608.2 lineto
54470.6 41626.9 lineto
54414.4 41626.9 lineto
54376.9 41608.2 lineto
54358.1 41589.4 lineto
54339.4 41551.9 lineto
54339.4 41401.9 lineto
stroke
newpath
54151.9 42001.9 moveto
54151.9 41776.9 lineto
stroke
newpath
54151.9 41889.4 moveto
54545.6 41889.4 lineto
54489.4 41851.9 lineto
54451.9 41814.4 lineto
54433.1 41776.9 lineto
stroke
newpath
54545.6 42133.1 moveto
54545.6 42395.6 lineto
54151.9 42226.8 lineto
stroke
0 0 0 setrgbcolor
0 0 0 setrgbcolor
0 0 0 setrgbcolor
newpath
20808.1 39501.9 moveto
20808.1 39895.6 lineto
20714.3 39895.6 lineto
20658.1 39876.9 lineto
20620.6 39839.4 lineto
20601.8 39801.9 lineto
20583.1 39726.9 lineto
20583.1 39670.6 lineto
20601.8 39595.6 lineto
20620.6 39558.1 lineto
20658.1 39520.6 lineto
20714.3 39501.9 lineto
20808.1 39501.9 lineto
stroke
newpath
20208.1 39501.9 moveto
20433.1 39501.9 lineto
stroke
newpath
20320.6 39501.9 moveto
20320.6 39895.6 lineto
20358.1 39839.4 lineto
20395.6 39801.9 lineto
20433.1 39783.1 lineto
stroke
newpath
20076.9 39895.6 moveto
19814.4 39895.6 lineto
19983.2 39501.9 lineto
stroke
0 0 0 setrgbcolor
0 0 0 setrgbcolor
0 0 0 setrgbcolor
newpath
29208.1 39601.9 moveto
29208.1 39995.6 lineto
29114.3 39995.6 lineto
29058.1 39976.9 lineto
29020.6 39939.4 lineto
29001.8 39901.9 lineto
28983.1 39826.9 lineto
28983.1 39770.6 lineto
29001.8 39695.6 lineto
29020.6 39658.1 lineto
29058.1 39620.6 lineto
29114.3 39601.9 lineto
29208.1 39601.9 lineto
stroke
newpath
28608.1 39601.9 moveto
28833.1 39601.9 lineto
stroke
newpath
28720.6 39601.9 moveto
28720.6 39995.6 lineto
28758.1 39939.4 lineto
28795.6 39901.9 lineto
28833.1 39883.1 lineto
stroke
newpath
28383.2 39826.9 moveto
28420.7 39845.6 lineto
28439.4 39864.4 lineto
28458.2 39901.9 lineto
28458.2 39920.6 lineto
28439.4 39958.1 lineto
28420.7 39976.9 lineto
28383.2 39995.6 lineto
28308.2 39995.6 lineto
28270.7 39976.9 lineto
28251.9 39958.1 lineto
28233.2 39920.6 lineto
28233.2 39901.9 lineto
28251.9 39864.4 lineto
28270.7 39845.6 lineto
28308.2 39826.9 lineto
28383.2 39826.9 lineto
28420.7 39808.1 lineto
28439.4 39789.4 lineto
28458.2 39751.9 lineto
28458.2 39676.9 lineto
28439.4 39639.4 lineto
28420.7 39620.6 lineto
28383.2 39601.9 lineto
28308.2 39601.9 lineto
28270.7 39620.6 lineto
28251.9 39639.4 lineto
28233.2 39676.9 lineto
28233.2 39751.9 lineto
28251.9 39789.4 lineto
28270.7 39808.1 lineto
28308.2 39826.9 lineto
stroke
0 0 0 setrgbcolor
0 0 0 setrgbcolor
0 0 0 setrgbcolor
newpath
23776.9 39966.9 moveto
23964.4 39835.7 lineto
stroke
newpath
23776.9 39741.9 moveto
24170.6 39741.9 lineto
24170.6 39891.9 lineto
24151.9 39929.4 lineto
24133.1 39948.2 lineto
24095.6 39966.9 lineto
24039.4 39966.9 lineto
24001.9 39948.2 lineto
23983.1 39929.4 lineto
23964.4 39891.9 lineto
23964.4 39741.9 lineto
stroke
newpath
23776.9 40341.9 moveto
23776.9 40116.9 lineto
stroke
newpath
23776.9 40229.4 moveto
24170.6 40229.4 lineto
24114.4 40191.9 lineto
24076.9 40154.4 lineto
24058.1 40116.9 lineto
stroke
newpath
23776.9 40529.3 moveto
23776.9 40604.3 lineto
23795.6 40641.8 lineto
23814.4 40660.6 lineto
23870.6 40698.1 lineto
23945.6 40716.8 lineto
24095.6 40716.8 lineto
24133.1 40698.1 lineto
24151.9 40679.3 lineto
24170.6 40641.8 lineto
24170.6 40566.8 lineto
24151.9 40529.3 lineto
24133.1 40510.6 lineto
24095.6 40491.8 lineto
24001.9 40491.8 lineto
23964.4 40510.6 lineto
23945.6 40529.3 lineto
23926.9 40566.8 lineto
23926.9 40641.8 lineto
23945.6 40679.3 lineto
23964.4 40698.1 lineto
24001.9 40716.8 lineto
stroke
0 0 0 setrgbcolor
0 0 0 setrgbcolor
0 0 0 setrgbcolor
newpath
31751.9 39926.9 moveto
31939.4 39795.7 lineto
stroke
newpath
31751.9 39701.9 moveto
32145.6 39701.9 lineto
32145.6 39851.9 lineto
32126.9 39889.4 lineto
32108.1 39908.2 lineto
32070.6 39926.9 lineto
32014.4 39926.9 lineto
31976.9 39908.2 lineto
31958.1 39889.4 lineto
31939.4 39851.9 lineto
31939.4 39701.9 lineto
stroke
newpath
32108.1 40076.9 moveto
32126.9 40095.6 lineto
32145.6 40133.1 lineto
32145.6 40226.9 lineto
32126.9 40264.4 lineto
32108.1 40283.1 lineto
32070.6 40301.9 lineto
32033.1 40301.9 lineto
31976.9 40283.1 lineto
31751.9 40058.1 lineto
31751.9 40301.9 lineto
stroke
newpath
32145.6 40545.6 moveto
32145.6 40583.1 lineto
32126.9 40620.6 lineto
32108.1 40639.3 lineto
32070.6 40658.1 lineto
31995.6 40676.8 lineto
31901.9 40676.8 lineto
31826.9 40658.1 lineto
31789.4 40639.3 lineto
31770.6 40620.6 lineto
31751.9 40583.1 lineto
31751.9 40545.6 lineto
31770.6 40508.1 lineto
31789.4 40489.3 lineto
31826.9 40470.6 lineto
31901.9 40451.8 lineto
31995.6 40451.8 lineto
32070.6 40470.6 lineto
32108.1 40489.3 lineto
32126.9 40508.1 lineto
32145.6 40545.6 lineto
stroke
0 0 0 setrgbcolor
0 0 0 setrgbcolor
0 0 0 setrgbcolor
newpath
63408.1 55001.9 moveto
63408.1 55395.6 lineto
63258.1 55395.6 lineto
63220.6 55376.9 lineto
63201.8 55358.1 lineto
63183.1 55320.6 lineto
63183.1 55264.4 lineto
63201.8 55226.9 lineto
63220.6 55208.1 lineto
63258.1 55189.4 lineto
63408.1 55189.4 lineto
stroke
newpath
62808.1 55001.9 moveto
63033.1 55001.9 lineto
stroke
newpath
62920.6 55001.9 moveto
62920.6 55395.6 lineto
62958.1 55339.4 lineto
62995.6 55301.9 lineto
63033.1 55283.1 lineto
stroke
newpath
62564.4 55395.6 moveto
62526.9 55395.6 lineto
62489.4 55376.9 lineto
62470.7 55358.1 lineto
62451.9 55320.6 lineto
62433.2 55245.6 lineto
62433.2 55151.9 lineto
62451.9 55076.9 lineto
62470.7 55039.4 lineto
62489.4 55020.6 lineto
62526.9 55001.9 lineto
62564.4 55001.9 lineto
62601.9 55020.6 lineto
62620.7 55039.4 lineto
62639.4 55076.9 lineto
62658.2 55151.9 lineto
62658.2 55245.6 lineto
62639.4 55320.6 lineto
62620.7 55358.1 lineto
62601.9 55376.9 lineto
62564.4 55395.6 lineto
stroke
0 0 0 setrgbcolor
0 0 0 setrgbcolor
0 0 0 setrgbcolor
newpath
63408.1 46001.9 moveto
63408.1 46395.6 lineto
63258.1 46395.6 lineto
63220.6 46376.9 lineto
63201.8 46358.1 lineto
63183.1 46320.6 lineto
63183.1 46264.4 lineto
63201.8 46226.9 lineto
63220.6 46208.1 lineto
63258.1 46189.4 lineto
63408.1 46189.4 lineto
stroke
newpath
62808.1 46001.9 moveto
63033.1 46001.9 lineto
stroke
newpath
62920.6 46001.9 moveto
62920.6 46395.6 lineto
62958.1 46339.4 lineto
62995.6 46301.9 lineto
63033.1 46283.1 lineto
stroke
newpath
62433.2 46001.9 moveto
62658.2 46001.9 lineto
stroke
newpath
62545.7 46001.9 moveto
62545.7 46395.6 lineto
62583.2 46339.4 lineto
62620.7 46301.9 lineto
62658.2 46283.1 lineto
stroke
0 0 0 setrgbcolor
0 0 0 setrgbcolor
0 0 0 setrgbcolor
newpath
76695.6 44601.9 moveto
76826.9 44789.4 lineto
stroke
newpath
76920.6 44601.9 moveto
76920.6 44995.6 lineto
76770.6 44995.6 lineto
76733.1 44976.9 lineto
76714.4 44958.1 lineto
76695.6 44920.6 lineto
76695.6 44864.4 lineto
76714.4 44826.9 lineto
76733.1 44808.1 lineto
76770.6 44789.4 lineto
76920.6 44789.4 lineto
stroke
newpath
76320.7 44601.9 moveto
76545.6 44601.9 lineto
stroke
newpath
76433.1 44601.9 moveto
76433.1 44995.6 lineto
76470.6 44939.4 lineto
76508.1 44901.9 lineto
76545.6 44883.1 lineto
stroke
0 0 0 setrgbcolor
0 0 0 setrgbcolor
0 0 0 setrgbcolor
newpath
61251.9 41901.9 moveto
61645.6 41901.9 lineto
61645.6 42051.9 lineto
61626.9 42089.4 lineto
61608.1 42108.2 lineto
61570.6 42126.9 lineto
61514.4 42126.9 lineto
61476.9 42108.2 lineto
61458.1 42089.4 lineto
61439.4 42051.9 lineto
61439.4 41901.9 lineto
stroke
newpath
61251.9 42501.9 moveto
61251.9 42276.9 lineto
stroke
newpath
61251.9 42389.4 moveto
61645.6 42389.4 lineto
61589.4 42351.9 lineto
61551.9 42314.4 lineto
61533.1 42276.9 lineto
stroke
newpath
61608.1 42651.8 moveto
61626.9 42670.6 lineto
61645.6 42708.1 lineto
61645.6 42801.8 lineto
61626.9 42839.3 lineto
61608.1 42858.1 lineto
61570.6 42876.8 lineto
61533.1 42876.8 lineto
61476.9 42858.1 lineto
61251.9 42633.1 lineto
61251.9 42876.8 lineto
stroke
0 0 0 setrgbcolor
0 0 0 setrgbcolor
0 0 0 setrgbcolor
newpath
61908.1 55001.9 moveto
61908.1 55395.6 lineto
61758.1 55395.6 lineto
61720.6 55376.9 lineto
61701.8 55358.1 lineto
61683.1 55320.6 lineto
61683.1 55264.4 lineto
61701.8 55226.9 lineto
61720.6 55208.1 lineto
61758.1 55189.4 lineto
61908.1 55189.4 lineto
stroke
newpath
61308.1 55001.9 moveto
61533.1 55001.9 lineto
stroke
newpath
61420.6 55001.9 moveto
61420.6 55395.6 lineto
61458.1 55339.4 lineto
61495.6 55301.9 lineto
61533.1 55283.1 lineto
stroke
newpath
61176.9 55395.6 moveto
60933.2 55395.6 lineto
61064.4 55245.6 lineto
61008.2 55245.6 lineto
60970.7 55226.9 lineto
60951.9 55208.1 lineto
60933.2 55170.6 lineto
60933.2 55076.9 lineto
60951.9 55039.4 lineto
60970.7 55020.6 lineto
61008.2 55001.9 lineto
61120.7 55001.9 lineto
61158.2 55020.6 lineto
61176.9 55039.4 lineto
stroke
0 0 0 setrgbcolor
0 0 0 setrgbcolor
0 0 0 setrgbcolor
newpath
60408.1 46001.9 moveto
60408.1 46395.6 lineto
60258.1 46395.6 lineto
60220.6 46376.9 lineto
60201.8 46358.1 lineto
60183.1 46320.6 lineto
60183.1 46264.4 lineto
60201.8 46226.9 lineto
60220.6 46208.1 lineto
60258.1 46189.4 lineto
60408.1 46189.4 lineto
stroke
newpath
59808.1 46001.9 moveto
60033.1 46001.9 lineto
stroke
newpath
59920.6 46001.9 moveto
59920.6 46395.6 lineto
59958.1 46339.4 lineto
59995.6 46301.9 lineto
60033.1 46283.1 lineto
stroke
newpath
59470.7 46264.4 moveto
59470.7 46001.9 lineto
stroke
newpath
59564.4 46414.3 moveto
59658.2 46133.1 lineto
59414.4 46133.1 lineto
stroke
0 0 0 setrgbcolor
0 0 0 setrgbcolor
0 0 0 setrgbcolor
newpath
60408.1 55001.9 moveto
60408.1 55395.6 lineto
60258.1 55395.6 lineto
60220.6 55376.9 lineto
60201.8 55358.1 lineto
60183.1 55320.6 lineto
60183.1 55264.4 lineto
60201.8 55226.9 lineto
60220.6 55208.1 lineto
60258.1 55189.4 lineto
60408.1 55189.4 lineto
stroke
newpath
59808.1 55001.9 moveto
60033.1 55001.9 lineto
stroke
newpath
59920.6 55001.9 moveto
59920.6 55395.6 lineto
59958.1 55339.4 lineto
59995.6 55301.9 lineto
60033.1 55283.1 lineto
stroke
newpath
59451.9 55395.6 moveto
59639.4 55395.6 lineto
59658.2 55208.1 lineto
59639.4 55226.9 lineto
59601.9 55245.6 lineto
59508.2 55245.6 lineto
59470.7 55226.9 lineto
59451.9 55208.1 lineto
59433.2 55170.6 lineto
59433.2 55076.9 lineto
59451.9 55039.4 lineto
59470.7 55020.6 lineto
59508.2 55001.9 lineto
59601.9 55001.9 lineto
59639.4 55020.6 lineto
59658.2 55039.4 lineto
stroke
0 0 0 setrgbcolor
0 0 0 setrgbcolor
0 0 0 setrgbcolor
newpath
28751.9 49301.9 moveto
29145.6 49301.9 lineto
29145.6 49451.9 lineto
29126.9 49489.4 lineto
29108.1 49508.2 lineto
29070.6 49526.9 lineto
29014.4 49526.9 lineto
28976.9 49508.2 lineto
28958.1 49489.4 lineto
28939.4 49451.9 lineto
28939.4 49301.9 lineto
stroke
newpath
28751.9 49901.9 moveto
28751.9 49676.9 lineto
stroke
newpath
28751.9 49789.4 moveto
29145.6 49789.4 lineto
29089.4 49751.9 lineto
29051.9 49714.4 lineto
29033.1 49676.9 lineto
stroke
newpath
29145.6 50239.3 moveto
29145.6 50164.3 lineto
29126.9 50126.8 lineto
29108.1 50108.1 lineto
29051.9 50070.6 lineto
28976.9 50051.8 lineto
28826.9 50051.8 lineto
28789.4 50070.6 lineto
28770.6 50089.3 lineto
28751.9 50126.8 lineto
28751.9 50201.8 lineto
28770.6 50239.3 lineto
28789.4 50258.1 lineto
28826.9 50276.8 lineto
28920.6 50276.8 lineto
28958.1 50258.1 lineto
28976.9 50239.3 lineto
28995.6 50201.8 lineto
28995.6 50126.8 lineto
28976.9 50089.3 lineto
28958.1 50070.6 lineto
28920.6 50051.8 lineto
stroke
0 0 0 setrgbcolor
0 0 0 setrgbcolor
0 0 0 setrgbcolor
newpath
29651.9 43901.9 moveto
30045.6 43901.9 lineto
30045.6 44051.9 lineto
30026.9 44089.4 lineto
30008.1 44108.2 lineto
29970.6 44126.9 lineto
29914.4 44126.9 lineto
29876.9 44108.2 lineto
29858.1 44089.4 lineto
29839.4 44051.9 lineto
29839.4 43901.9 lineto
stroke
newpath
29651.9 44501.9 moveto
29651.9 44276.9 lineto
stroke
newpath
29651.9 44389.4 moveto
30045.6 44389.4 lineto
29989.4 44351.9 lineto
29951.9 44314.4 lineto
29933.1 44276.9 lineto
stroke
newpath
30045.6 44633.1 moveto
30045.6 44895.6 lineto
29651.9 44726.8 lineto
stroke
0 0 0 setrgbcolor
0 0 0 setrgbcolor
0 0 0 setrgbcolor
newpath
44608.1 55001.9 moveto
44608.1 55395.6 lineto
44458.1 55395.6 lineto
44420.6 55376.9 lineto
44401.8 55358.1 lineto
44383.1 55320.6 lineto
44383.1 55264.4 lineto
44401.8 55226.9 lineto
44420.6 55208.1 lineto
44458.1 55189.4 lineto
44608.1 55189.4 lineto
stroke
newpath
44008.1 55001.9 moveto
44233.1 55001.9 lineto
stroke
newpath
44120.6 55001.9 moveto
44120.6 55395.6 lineto
44158.1 55339.4 lineto
44195.6 55301.9 lineto
44233.1 55283.1 lineto
stroke
newpath
43783.2 55226.9 moveto
43820.7 55245.6 lineto
43839.4 55264.4 lineto
43858.2 55301.9 lineto
43858.2 55320.6 lineto
43839.4 55358.1 lineto
43820.7 55376.9 lineto
43783.2 55395.6 lineto
43708.2 55395.6 lineto
43670.7 55376.9 lineto
43651.9 55358.1 lineto
43633.2 55320.6 lineto
43633.2 55301.9 lineto
43651.9 55264.4 lineto
43670.7 55245.6 lineto
43708.2 55226.9 lineto
43783.2 55226.9 lineto
43820.7 55208.1 lineto
43839.4 55189.4 lineto
43858.2 55151.9 lineto
43858.2 55076.9 lineto
43839.4 55039.4 lineto
43820.7 55020.6 lineto
43783.2 55001.9 lineto
43708.2 55001.9 lineto
43670.7 55020.6 lineto
43651.9 55039.4 lineto
43633.2 55076.9 lineto
43633.2 55151.9 lineto
43651.9 55189.4 lineto
43670.7 55208.1 lineto
43708.2 55226.9 lineto
stroke
0 0 0 setrgbcolor
0 0 0 setrgbcolor
0 0 0 setrgbcolor
newpath
43951.9 44901.9 moveto
44345.6 44901.9 lineto
44345.6 45051.9 lineto
44326.9 45089.4 lineto
44308.1 45108.2 lineto
44270.6 45126.9 lineto
44214.4 45126.9 lineto
44176.9 45108.2 lineto
44158.1 45089.4 lineto
44139.4 45051.9 lineto
44139.4 44901.9 lineto
stroke
newpath
43951.9 45501.9 moveto
43951.9 45276.9 lineto
stroke
newpath
43951.9 45389.4 moveto
44345.6 45389.4 lineto
44289.4 45351.9 lineto
44251.9 45314.4 lineto
44233.1 45276.9 lineto
stroke
newpath
43951.9 45689.3 moveto
43951.9 45764.3 lineto
43970.6 45801.8 lineto
43989.4 45820.6 lineto
44045.6 45858.1 lineto
44120.6 45876.8 lineto
44270.6 45876.8 lineto
44308.1 45858.1 lineto
44326.9 45839.3 lineto
44345.6 45801.8 lineto
44345.6 45726.8 lineto
44326.9 45689.3 lineto
44308.1 45670.6 lineto
44270.6 45651.8 lineto
44176.9 45651.8 lineto
44139.4 45670.6 lineto
44120.6 45689.3 lineto
44101.9 45726.8 lineto
44101.9 45801.8 lineto
44120.6 45839.3 lineto
44139.4 45858.1 lineto
44176.9 45876.8 lineto
stroke
0 0 0 setrgbcolor
0 0 0 setrgbcolor
0 0 0 setrgbcolor
newpath
80908.1 55501.9 moveto
80908.1 55895.6 lineto
80758.1 55895.6 lineto
80720.6 55876.9 lineto
80701.8 55858.1 lineto
80683.1 55820.6 lineto
80683.1 55764.4 lineto
80701.8 55726.9 lineto
80720.6 55708.1 lineto
80758.1 55689.4 lineto
80908.1 55689.4 lineto
stroke
newpath
80533.1 55858.1 moveto
80514.4 55876.9 lineto
80476.9 55895.6 lineto
80383.1 55895.6 lineto
80345.6 55876.9 lineto
80326.9 55858.1 lineto
80308.1 55820.6 lineto
80308.1 55783.1 lineto
80326.9 55726.9 lineto
80551.9 55501.9 lineto
80308.1 55501.9 lineto
stroke
newpath
80064.4 55895.6 moveto
80026.9 55895.6 lineto
79989.4 55876.9 lineto
79970.7 55858.1 lineto
79951.9 55820.6 lineto
79933.2 55745.6 lineto
79933.2 55651.9 lineto
79951.9 55576.9 lineto
79970.7 55539.4 lineto
79989.4 55520.6 lineto
80026.9 55501.9 lineto
80064.4 55501.9 lineto
80101.9 55520.6 lineto
80120.7 55539.4 lineto
80139.4 55576.9 lineto
80158.2 55651.9 lineto
80158.2 55745.6 lineto
80139.4 55820.6 lineto
80120.7 55858.1 lineto
80101.9 55876.9 lineto
80064.4 55895.6 lineto
stroke
0 0 0 setrgbcolor
0 0 0 setrgbcolor
0 0 0 setrgbcolor
newpath
82408.1 55501.9 moveto
82408.1 55895.6 lineto
82258.1 55895.6 lineto
82220.6 55876.9 lineto
82201.8 55858.1 lineto
82183.1 55820.6 lineto
82183.1 55764.4 lineto
82201.8 55726.9 lineto
82220.6 55708.1 lineto
82258.1 55689.4 lineto
82408.1 55689.4 lineto
stroke
newpath
82033.1 55858.1 moveto
82014.4 55876.9 lineto
81976.9 55895.6 lineto
81883.1 55895.6 lineto
81845.6 55876.9 lineto
81826.9 55858.1 lineto
81808.1 55820.6 lineto
81808.1 55783.1 lineto
81826.9 55726.9 lineto
82051.9 55501.9 lineto
81808.1 55501.9 lineto
stroke
newpath
81433.2 55501.9 moveto
81658.2 55501.9 lineto
stroke
newpath
81545.7 55501.9 moveto
81545.7 55895.6 lineto
81583.2 55839.4 lineto
81620.7 55801.9 lineto
81658.2 55783.1 lineto
stroke
0 0 0 setrgbcolor
0 0 0 setrgbcolor
0 0 0 setrgbcolor
newpath
79408.1 55501.9 moveto
79408.1 55895.6 lineto
79258.1 55895.6 lineto
79220.6 55876.9 lineto
79201.8 55858.1 lineto
79183.1 55820.6 lineto
79183.1 55764.4 lineto
79201.8 55726.9 lineto
79220.6 55708.1 lineto
79258.1 55689.4 lineto
79408.1 55689.4 lineto
stroke
newpath
79033.1 55858.1 moveto
79014.4 55876.9 lineto
78976.9 55895.6 lineto
78883.1 55895.6 lineto
78845.6 55876.9 lineto
78826.9 55858.1 lineto
78808.1 55820.6 lineto
78808.1 55783.1 lineto
78826.9 55726.9 lineto
79051.9 55501.9 lineto
78808.1 55501.9 lineto
stroke
newpath
78658.2 55858.1 moveto
78639.4 55876.9 lineto
78601.9 55895.6 lineto
78508.2 55895.6 lineto
78470.7 55876.9 lineto
78451.9 55858.1 lineto
78433.2 55820.6 lineto
78433.2 55783.1 lineto
78451.9 55726.9 lineto
78676.9 55501.9 lineto
78433.2 55501.9 lineto
stroke
0 0 0 setrgbcolor
0 0 0 setrgbcolor
0 0 0 setrgbcolor
newpath
82408.1 50501.9 moveto
82408.1 50895.6 lineto
82258.1 50895.6 lineto
82220.6 50876.9 lineto
82201.8 50858.1 lineto
82183.1 50820.6 lineto
82183.1 50764.4 lineto
82201.8 50726.9 lineto
82220.6 50708.1 lineto
82258.1 50689.4 lineto
82408.1 50689.4 lineto
stroke
newpath
82033.1 50858.1 moveto
82014.4 50876.9 lineto
81976.9 50895.6 lineto
81883.1 50895.6 lineto
81845.6 50876.9 lineto
81826.9 50858.1 lineto
81808.1 50820.6 lineto
81808.1 50783.1 lineto
81826.9 50726.9 lineto
82051.9 50501.9 lineto
81808.1 50501.9 lineto
stroke
newpath
81676.9 50895.6 moveto
81433.2 50895.6 lineto
81564.4 50745.6 lineto
81508.2 50745.6 lineto
81470.7 50726.9 lineto
81451.9 50708.1 lineto
81433.2 50670.6 lineto
81433.2 50576.9 lineto
81451.9 50539.4 lineto
81470.7 50520.6 lineto
81508.2 50501.9 lineto
81620.7 50501.9 lineto
81658.2 50520.6 lineto
81676.9 50539.4 lineto
stroke
0 0 0 setrgbcolor
0 0 0 setrgbcolor
0 0 0 setrgbcolor
newpath
80908.1 50501.9 moveto
80908.1 50895.6 lineto
80758.1 50895.6 lineto
80720.6 50876.9 lineto
80701.8 50858.1 lineto
80683.1 50820.6 lineto
80683.1 50764.4 lineto
80701.8 50726.9 lineto
80720.6 50708.1 lineto
80758.1 50689.4 lineto
80908.1 50689.4 lineto
stroke
newpath
80533.1 50858.1 moveto
80514.4 50876.9 lineto
80476.9 50895.6 lineto
80383.1 50895.6 lineto
80345.6 50876.9 lineto
80326.9 50858.1 lineto
80308.1 50820.6 lineto
80308.1 50783.1 lineto
80326.9 50726.9 lineto
80551.9 50501.9 lineto
80308.1 50501.9 lineto
stroke
newpath
79970.7 50764.4 moveto
79970.7 50501.9 lineto
stroke
newpath
80064.4 50914.3 moveto
80158.2 50633.1 lineto
79914.4 50633.1 lineto
stroke
0 0 0 setrgbcolor
0 0 0 setrgbcolor
0 0 0 setrgbcolor
newpath
79408.1 50501.9 moveto
79408.1 50895.6 lineto
79258.1 50895.6 lineto
79220.6 50876.9 lineto
79201.8 50858.1 lineto
79183.1 50820.6 lineto
79183.1 50764.4 lineto
79201.8 50726.9 lineto
79220.6 50708.1 lineto
79258.1 50689.4 lineto
79408.1 50689.4 lineto
stroke
newpath
79033.1 50858.1 moveto
79014.4 50876.9 lineto
78976.9 50895.6 lineto
78883.1 50895.6 lineto
78845.6 50876.9 lineto
78826.9 50858.1 lineto
78808.1 50820.6 lineto
78808.1 50783.1 lineto
78826.9 50726.9 lineto
79051.9 50501.9 lineto
78808.1 50501.9 lineto
stroke
newpath
78451.9 50895.6 moveto
78639.4 50895.6 lineto
78658.2 50708.1 lineto
78639.4 50726.9 lineto
78601.9 50745.6 lineto
78508.2 50745.6 lineto
78470.7 50726.9 lineto
78451.9 50708.1 lineto
78433.2 50670.6 lineto
78433.2 50576.9 lineto
78451.9 50539.4 lineto
78470.7 50520.6 lineto
78508.2 50501.9 lineto
78601.9 50501.9 lineto
78639.4 50520.6 lineto
78658.2 50539.4 lineto
stroke
0 0 0 setrgbcolor
0 0 0 setrgbcolor
0 0 0 setrgbcolor
newpath
23389.4 45126.9 moveto
23370.6 45108.2 lineto
23351.9 45051.9 lineto
23351.9 45014.4 lineto
23370.6 44958.2 lineto
23408.1 44920.7 lineto
23445.6 44901.9 lineto
23520.6 44883.2 lineto
23576.9 44883.2 lineto
23651.9 44901.9 lineto
23689.4 44920.7 lineto
23726.9 44958.2 lineto
23745.6 45014.4 lineto
23745.6 45051.9 lineto
23726.9 45108.2 lineto
23708.1 45126.9 lineto
stroke
newpath
23745.6 45258.1 moveto
23745.6 45501.9 lineto
23595.6 45370.6 lineto
23595.6 45426.9 lineto
23576.9 45464.4 lineto
23558.1 45483.1 lineto
23520.6 45501.9 lineto
23426.9 45501.9 lineto
23389.4 45483.1 lineto
23370.6 45464.4 lineto
23351.9 45426.9 lineto
23351.9 45314.4 lineto
23370.6 45276.9 lineto
23389.4 45258.1 lineto
stroke
newpath
23745.6 45839.3 moveto
23745.6 45764.3 lineto
23726.9 45726.8 lineto
23708.1 45708.1 lineto
23651.9 45670.6 lineto
23576.9 45651.8 lineto
23426.9 45651.8 lineto
23389.4 45670.6 lineto
23370.6 45689.3 lineto
23351.9 45726.8 lineto
23351.9 45801.8 lineto
23370.6 45839.3 lineto
23389.4 45858.1 lineto
23426.9 45876.8 lineto
23520.6 45876.8 lineto
23558.1 45858.1 lineto
23576.9 45839.3 lineto
23595.6 45801.8 lineto
23595.6 45726.8 lineto
23576.9 45689.3 lineto
23558.1 45670.6 lineto
23520.6 45651.8 lineto
stroke
showpage
grestore
%%EOF
