%!PS-Adobe-3.0
%%Creator: PCBNEW
%%CreationDate: Mon Nov 21 21:14:23 2016
%%Title: /home/dev/workspace/sn1534/pdf/sn1534-F.Cu.ps
%%Pages: 1
%%PageOrder: Ascend
%%BoundingBox: 0 0 596 842
%%DocumentMedia: A4 595 842 0 () ()
%%Orientation: Landscape
%%EndComments
%%BeginProlog
/line { newpath moveto lineto stroke } bind def
/cir0 { newpath 0 360 arc stroke } bind def
/cir1 { newpath 0 360 arc gsave fill grestore stroke } bind def
/cir2 { newpath 0 360 arc gsave fill grestore stroke } bind def
/arc0 { newpath arc stroke } bind def
/arc1 { newpath 4 index 4 index moveto arc closepath gsave fill
    grestore stroke } bind def
/arc2 { newpath 4 index 4 index moveto arc closepath gsave fill
    grestore stroke } bind def
/poly0 { stroke } bind def
/poly1 { closepath gsave fill grestore stroke } bind def
/poly2 { closepath gsave fill grestore stroke } bind def
/rect0 { rectstroke } bind def
/rect1 { rectfill } bind def
/rect2 { rectfill } bind def
/linemode0 { 0 setlinecap 0 setlinejoin 0 setlinewidth } bind def
/linemode1 { 1 setlinecap 1 setlinejoin } bind def
/dashedline { [200] 100 setdash } bind def
/solidline { [] 0 setdash } bind def
/phantomshow { moveto
    /KicadFont findfont 0.000001 scalefont setfont
    show } bind def
/textshow { gsave
    findfont exch scalefont setfont concat 1 scale 0 0 moveto show
    } bind def
/reencodefont {
  findfont dup length dict begin
  { 1 index /FID ne
    { def }
    { pop pop } ifelse
  } forall
  /Encoding ISOLatin1Encoding def
  currentdict
  end } bind def
/KicadFont /Helvetica reencodefont definefont pop
/KicadFont-Bold /Helvetica-Bold reencodefont definefont pop
/KicadFont-Oblique /Helvetica-Oblique reencodefont definefont pop
/KicadFont-BoldOblique /Helvetica-BoldOblique reencodefont definefont pop
%%EndProlog
%%Page: 1 1
%%BeginPageSetup
gsave
0.0072 0.0072 scale
linemode1
82680 0 translate 90 rotate
78.7402 setlinewidth
%%EndPageSetup
0 0 0 setrgbcolor
0 0 0 setrgbcolor
59.0551 setlinewidth
newpath
45330 22380 moveto
45330 32580 lineto
stroke
0 0 0 setrgbcolor
newpath
23530 22380 moveto
45330 22380 lineto
stroke
0 0 0 setrgbcolor
newpath
23530 32580 moveto
23530 22380 lineto
stroke
0 0 0 setrgbcolor
newpath
45330 32580 moveto
23530 32580 lineto
stroke
0 0 0 setrgbcolor
newpath
16830 70180 moveto
16830 33980 lineto
stroke
0 0 0 setrgbcolor
newpath
98430 70180 moveto
16830 70180 lineto
stroke
0 0 0 setrgbcolor
newpath
98430 33980 moveto
98430 70180 lineto
stroke
0 0 0 setrgbcolor
newpath
16830 33980 moveto
98430 33980 lineto
stroke
0 0 0 setrgbcolor
0 setlinewidth
26550 39975.7 255.906 cir1
78.7402 setlinewidth
0 0 0 setrgbcolor
0 setlinewidth
newpath
26805.9 41215.9 moveto
26294.1 41215.9 lineto
26294.1 40704.1 lineto
26805.9 40704.1 lineto
26805.9 41215.9 lineto
poly1
0 0 0 setrgbcolor
58835.5 59180 393.5 cir1
78.7402 setlinewidth
0 0 0 setrgbcolor
0 setlinewidth
52930 59180 393.5 cir1
78.7402 setlinewidth
0 0 0 setrgbcolor
0 setlinewidth
73631 37279.8 334.5 cir1
78.7402 setlinewidth
0 0 0 setrgbcolor
0 setlinewidth
newpath
73296.5 40945.3 moveto
73965.5 40945.3 lineto
73965.5 41614.3 lineto
73296.5 41614.3 lineto
73296.5 40945.3 lineto
poly1
0 0 0 setrgbcolor
newpath
38004.8 53254.8 moveto
34855.2 53254.8 lineto
34855.2 50105.2 lineto
38004.8 50105.2 lineto
38004.8 53254.8 lineto
poly1
0 0 0 setrgbcolor
newpath
38004.8 49317.8 moveto
34855.2 49317.8 lineto
34855.2 46168.2 lineto
38004.8 46168.2 lineto
38004.8 49317.8 lineto
poly1
0 0 0 setrgbcolor
90678 36980 413.386 cir1
78.7402 setlinewidth
0 0 0 setrgbcolor
0 setlinewidth
newpath
91091.4 40818.6 moveto
91091.4 41645.4 lineto
90264.6 41645.4 lineto
90264.6 40818.6 lineto
91091.4 40818.6 lineto
poly1
0 0 0 setrgbcolor
94930 41232 413.386 cir1
78.7402 setlinewidth
0 0 0 setrgbcolor
0 setlinewidth
94930 36980 413.386 cir1
78.7402 setlinewidth
0 0 0 setrgbcolor
0 setlinewidth
newpath
79923.7 44895 moveto
79923.7 44265 lineto
80711.1 44265 lineto
80711.1 44895 lineto
79923.7 44895 lineto
poly1
0 0 0 setrgbcolor
newpath
78348.9 44895 moveto
78348.9 44265 lineto
79136.3 44265 lineto
79136.3 44895 lineto
78348.9 44895 lineto
poly1
0 0 0 setrgbcolor
780 setlinewidth
newpath
82598.5 37190 moveto
82598.5 37970 lineto
stroke
0 0 0 setrgbcolor
newpath
80630 37190 moveto
80630 37970 lineto
stroke
0 0 0 setrgbcolor
0 setlinewidth
newpath
70564.6 41161.1 moveto
69895.4 41161.1 lineto
69895.4 40373.7 lineto
70564.6 40373.7 lineto
70564.6 41161.1 lineto
poly1
0 0 0 setrgbcolor
newpath
70564.6 39586.3 moveto
69895.4 39586.3 lineto
69895.4 38798.9 lineto
70564.6 38798.9 lineto
70564.6 39586.3 lineto
poly1
0 0 0 setrgbcolor
26930 45338 453 cir1
78.7402 setlinewidth
0 0 0 setrgbcolor
0 setlinewidth
26930 55180 453 cir1
78.7402 setlinewidth
0 0 0 setrgbcolor
780 setlinewidth
newpath
20040 53243 moveto
20820 53243 lineto
stroke
0 0 0 setrgbcolor
newpath
20040 55211.5 moveto
20820 55211.5 lineto
stroke
0 0 0 setrgbcolor
newpath
20040 57180 moveto
20820 57180 lineto
stroke
0 0 0 setrgbcolor
newpath
84320 48680 moveto
83540 48680 lineto
stroke
0 0 0 setrgbcolor
newpath
87320 48680 moveto
86540 48680 lineto
stroke
0 0 0 setrgbcolor
newpath
87320 54680 moveto
86540 54680 lineto
stroke
0 0 0 setrgbcolor
newpath
84320 54680 moveto
83540 54680 lineto
stroke
0 0 0 setrgbcolor
newpath
87320 56680 moveto
86540 56680 lineto
stroke
0 0 0 setrgbcolor
newpath
84320 56680 moveto
83540 56680 lineto
stroke
0 0 0 setrgbcolor
newpath
87320 58680 moveto
86540 58680 lineto
stroke
0 0 0 setrgbcolor
newpath
84320 58680 moveto
83540 58680 lineto
stroke
0 0 0 setrgbcolor
0 setlinewidth
newpath
93223.7 37295 moveto
93223.7 36665 lineto
94011.1 36665 lineto
94011.1 37295 lineto
93223.7 37295 lineto
poly1
0 0 0 setrgbcolor
newpath
91648.9 37295 moveto
91648.9 36665 lineto
92436.3 36665 lineto
92436.3 37295 lineto
91648.9 37295 lineto
poly1
0 0 0 setrgbcolor
newpath
94615 37998.9 moveto
95245 37998.9 lineto
95245 38786.3 lineto
94615 38786.3 lineto
94615 37998.9 lineto
poly1
0 0 0 setrgbcolor
newpath
94615 39573.7 moveto
95245 39573.7 lineto
95245 40361.1 lineto
94615 40361.1 lineto
94615 39573.7 lineto
poly1
0 0 0 setrgbcolor
newpath
89011.1 38365 moveto
89011.1 38995 lineto
88223.7 38995 lineto
88223.7 38365 lineto
89011.1 38365 lineto
poly1
0 0 0 setrgbcolor
newpath
87436.3 38365 moveto
87436.3 38995 lineto
86648.9 38995 lineto
86648.9 38365 lineto
87436.3 38365 lineto
poly1
0 0 0 setrgbcolor
newpath
90945 38786.3 moveto
90315 38786.3 lineto
90315 37998.9 lineto
90945 37998.9 lineto
90945 38786.3 lineto
poly1
0 0 0 setrgbcolor
newpath
90945 40361.1 moveto
90315 40361.1 lineto
90315 39573.7 lineto
90945 39573.7 lineto
90945 40361.1 lineto
poly1
0 0 0 setrgbcolor
newpath
94011.1 40965 moveto
94011.1 41595 lineto
93223.7 41595 lineto
93223.7 40965 lineto
94011.1 40965 lineto
poly1
0 0 0 setrgbcolor
newpath
92436.3 40965 moveto
92436.3 41595 lineto
91648.9 41595 lineto
91648.9 40965 lineto
92436.3 40965 lineto
poly1
0 0 0 setrgbcolor
newpath
76323.7 61995 moveto
76323.7 61365 lineto
77111.1 61365 lineto
77111.1 61995 lineto
76323.7 61995 lineto
poly1
0 0 0 setrgbcolor
newpath
74748.9 61995 moveto
74748.9 61365 lineto
75536.3 61365 lineto
75536.3 61995 lineto
74748.9 61995 lineto
poly1
0 0 0 setrgbcolor
newpath
71611.1 61365 moveto
71611.1 61995 lineto
70823.7 61995 lineto
70823.7 61365 lineto
71611.1 61365 lineto
poly1
0 0 0 setrgbcolor
newpath
70036.3 61365 moveto
70036.3 61995 lineto
69248.9 61995 lineto
69248.9 61365 lineto
70036.3 61365 lineto
poly1
0 0 0 setrgbcolor
newpath
86323.7 36245 moveto
86323.7 35615 lineto
87111.1 35615 lineto
87111.1 36245 lineto
86323.7 36245 lineto
poly1
0 0 0 setrgbcolor
newpath
84748.9 36245 moveto
84748.9 35615 lineto
85536.3 35615 lineto
85536.3 36245 lineto
84748.9 36245 lineto
poly1
0 0 0 setrgbcolor
newpath
82611.1 61365 moveto
82611.1 61995 lineto
81823.7 61995 lineto
81823.7 61365 lineto
82611.1 61365 lineto
poly1
0 0 0 setrgbcolor
newpath
81036.3 61365 moveto
81036.3 61995 lineto
80248.9 61995 lineto
80248.9 61365 lineto
81036.3 61365 lineto
poly1
0 0 0 setrgbcolor
newpath
92823.7 61995 moveto
92823.7 61365 lineto
93611.1 61365 lineto
93611.1 61995 lineto
92823.7 61995 lineto
poly1
0 0 0 setrgbcolor
newpath
91248.9 61995 moveto
91248.9 61365 lineto
92036.3 61365 lineto
92036.3 61995 lineto
91248.9 61995 lineto
poly1
0 0 0 setrgbcolor
newpath
84724.1 39735.9 moveto
84724.1 39224.1 lineto
85235.9 39224.1 lineto
85235.9 39735.9 lineto
84724.1 39735.9 lineto
poly1
0 0 0 setrgbcolor
85964.3 39480 255.906 cir1
78.7402 setlinewidth
0 0 0 setrgbcolor
0 setlinewidth
newpath
68815 40373.7 moveto
69445 40373.7 lineto
69445 41161.1 lineto
68815 41161.1 lineto
68815 40373.7 lineto
poly1
0 0 0 setrgbcolor
newpath
68815 38798.9 moveto
69445 38798.9 lineto
69445 39586.3 lineto
68815 39586.3 lineto
68815 38798.9 lineto
poly1
0 0 0 setrgbcolor
newpath
89048.9 46645 moveto
89048.9 46015 lineto
89836.3 46015 lineto
89836.3 46645 lineto
89048.9 46645 lineto
poly1
0 0 0 setrgbcolor
newpath
90623.7 46645 moveto
90623.7 46015 lineto
91411.1 46015 lineto
91411.1 46645 lineto
90623.7 46645 lineto
poly1
0 0 0 setrgbcolor
91298.5 45080 255.906 cir1
78.7402 setlinewidth
0 0 0 setrgbcolor
0 setlinewidth
newpath
89074.1 45335.9 moveto
89074.1 44824.1 lineto
89585.9 44824.1 lineto
89585.9 45335.9 lineto
89074.1 45335.9 lineto
poly1
0 0 0 setrgbcolor
newpath
25385 39786.3 moveto
24755 39786.3 lineto
24755 38998.9 lineto
25385 38998.9 lineto
25385 39786.3 lineto
poly1
0 0 0 setrgbcolor
newpath
25385 41361.1 moveto
24755 41361.1 lineto
24755 40573.7 lineto
25385 40573.7 lineto
25385 41361.1 lineto
poly1
0 0 0 setrgbcolor
newpath
34985.9 41210.9 moveto
34474.1 41210.9 lineto
34474.1 40699.1 lineto
34985.9 40699.1 lineto
34985.9 41210.9 lineto
poly1
0 0 0 setrgbcolor
34730 39970.7 255.906 cir1
78.7402 setlinewidth
0 0 0 setrgbcolor
0 setlinewidth
newpath
33525 41361.1 moveto
32895 41361.1 lineto
32895 40573.7 lineto
33525 40573.7 lineto
33525 41361.1 lineto
poly1
0 0 0 setrgbcolor
newpath
33525 39786.3 moveto
32895 39786.3 lineto
32895 38998.9 lineto
33525 38998.9 lineto
33525 39786.3 lineto
poly1
0 0 0 setrgbcolor
newpath
79074.1 46635.9 moveto
79074.1 46124.1 lineto
79585.9 46124.1 lineto
79585.9 46635.9 lineto
79074.1 46635.9 lineto
poly1
0 0 0 setrgbcolor
80314.3 46380 255.906 cir1
78.7402 setlinewidth
0 0 0 setrgbcolor
0 setlinewidth
newpath
62315 40573.7 moveto
62945 40573.7 lineto
62945 41361.1 lineto
62315 41361.1 lineto
62315 40573.7 lineto
poly1
0 0 0 setrgbcolor
newpath
62315 38998.9 moveto
62945 38998.9 lineto
62945 39786.3 lineto
62315 39786.3 lineto
62315 38998.9 lineto
poly1
0 0 0 setrgbcolor
newpath
46074.1 37224.1 moveto
46585.9 37224.1 lineto
46585.9 37735.9 lineto
46074.1 37735.9 lineto
46074.1 37224.1 lineto
poly1
0 0 0 setrgbcolor
46330 38464.3 255.906 cir1
78.7402 setlinewidth
0 0 0 setrgbcolor
0 setlinewidth
46330 40495.7 255.906 cir1
78.7402 setlinewidth
0 0 0 setrgbcolor
0 setlinewidth
newpath
46585.9 41735.9 moveto
46074.1 41735.9 lineto
46074.1 41224.1 lineto
46585.9 41224.1 lineto
46585.9 41735.9 lineto
poly1
0 0 0 setrgbcolor
newpath
55745 49286.3 moveto
55115 49286.3 lineto
55115 48498.9 lineto
55745 48498.9 lineto
55745 49286.3 lineto
poly1
0 0 0 setrgbcolor
newpath
55745 50861.1 moveto
55115 50861.1 lineto
55115 50073.7 lineto
55745 50073.7 lineto
55745 50861.1 lineto
poly1
0 0 0 setrgbcolor
newpath
58245 49286.3 moveto
57615 49286.3 lineto
57615 48498.9 lineto
58245 48498.9 lineto
58245 49286.3 lineto
poly1
0 0 0 setrgbcolor
newpath
58245 50861.1 moveto
57615 50861.1 lineto
57615 50073.7 lineto
58245 50073.7 lineto
58245 50861.1 lineto
poly1
0 0 0 setrgbcolor
newpath
54015 37798.9 moveto
54645 37798.9 lineto
54645 38586.3 lineto
54015 38586.3 lineto
54015 37798.9 lineto
poly1
0 0 0 setrgbcolor
newpath
54015 39373.7 moveto
54645 39373.7 lineto
54645 40161.1 lineto
54015 40161.1 lineto
54015 39373.7 lineto
poly1
0 0 0 setrgbcolor
newpath
32111.1 59365 moveto
32111.1 59995 lineto
31323.7 59995 lineto
31323.7 59365 lineto
32111.1 59365 lineto
poly1
0 0 0 setrgbcolor
newpath
30536.3 59365 moveto
30536.3 59995 lineto
29748.9 59995 lineto
29748.9 59365 lineto
30536.3 59365 lineto
poly1
0 0 0 setrgbcolor
19930 50164.3 255.906 cir1
78.7402 setlinewidth
0 0 0 setrgbcolor
0 setlinewidth
newpath
19674.1 48924.1 moveto
20185.9 48924.1 lineto
20185.9 49435.9 lineto
19674.1 49435.9 lineto
19674.1 48924.1 lineto
poly1
0 0 0 setrgbcolor
newpath
21615 48498.9 moveto
22245 48498.9 lineto
22245 49286.3 lineto
21615 49286.3 lineto
21615 48498.9 lineto
poly1
0 0 0 setrgbcolor
newpath
21615 50073.7 moveto
22245 50073.7 lineto
22245 50861.1 lineto
21615 50861.1 lineto
21615 50073.7 lineto
poly1
0 0 0 setrgbcolor
newpath
22615 50073.7 moveto
23245 50073.7 lineto
23245 50861.1 lineto
22615 50861.1 lineto
22615 50073.7 lineto
poly1
0 0 0 setrgbcolor
newpath
22615 48498.9 moveto
23245 48498.9 lineto
23245 49286.3 lineto
22615 49286.3 lineto
22615 48498.9 lineto
poly1
0 0 0 setrgbcolor
newpath
24245 55361.1 moveto
23615 55361.1 lineto
23615 54573.7 lineto
24245 54573.7 lineto
24245 55361.1 lineto
poly1
0 0 0 setrgbcolor
newpath
24245 53786.3 moveto
23615 53786.3 lineto
23615 52998.9 lineto
24245 52998.9 lineto
24245 53786.3 lineto
poly1
0 0 0 setrgbcolor
newpath
74634.5 62688 moveto
75225.5 62688 lineto
75225.5 63672 lineto
74634.5 63672 lineto
74634.5 62688 lineto
poly1
0 0 0 setrgbcolor
591 setlinewidth
newpath
76930 62983.5 moveto
76930 63376.5 lineto
stroke
0 0 0 setrgbcolor
0 setlinewidth
newpath
69134.5 62688 moveto
69725.5 62688 lineto
69725.5 63672 lineto
69134.5 63672 lineto
69134.5 62688 lineto
poly1
0 0 0 setrgbcolor
591 setlinewidth
newpath
71430 62983.5 moveto
71430 63376.5 lineto
stroke
0 0 0 setrgbcolor
newpath
82430 62983.5 moveto
82430 63376.5 lineto
stroke
0 0 0 setrgbcolor
0 setlinewidth
newpath
80134.5 62688 moveto
80725.5 62688 lineto
80725.5 63672 lineto
80134.5 63672 lineto
80134.5 62688 lineto
poly1
0 0 0 setrgbcolor
591 setlinewidth
newpath
93430 62983.5 moveto
93430 63376.5 lineto
stroke
0 0 0 setrgbcolor
0 setlinewidth
newpath
91134.5 62688 moveto
91725.5 62688 lineto
91725.5 63672 lineto
91134.5 63672 lineto
91134.5 62688 lineto
poly1
0 0 0 setrgbcolor
newpath
89463.5 48414.7 moveto
88794.5 48414.7 lineto
88794.5 47745.7 lineto
89463.5 47745.7 lineto
89463.5 48414.7 lineto
poly1
0 0 0 setrgbcolor
89129 52080.2 334.5 cir1
78.7402 setlinewidth
0 0 0 setrgbcolor
591 setlinewidth
newpath
87930 62983.5 moveto
87930 63376.5 lineto
stroke
0 0 0 setrgbcolor
0 setlinewidth
newpath
85634.5 62688 moveto
86225.5 62688 lineto
86225.5 63672 lineto
85634.5 63672 lineto
85634.5 62688 lineto
poly1
0 0 0 setrgbcolor
87430.2 46681 334.5 cir1
78.7402 setlinewidth
0 0 0 setrgbcolor
0 setlinewidth
newpath
83764.7 46346.5 moveto
83764.7 47015.5 lineto
83095.7 47015.5 lineto
83095.7 46346.5 lineto
83764.7 46346.5 lineto
poly1
0 0 0 setrgbcolor
newpath
28323.7 25306 moveto
28323.7 26054 lineto
27536.3 26054 lineto
27536.3 25306 lineto
28323.7 25306 lineto
poly1
0 0 0 setrgbcolor
27930 26680 374.016 cir1
78.7402 setlinewidth
0 0 0 setrgbcolor
0 setlinewidth
newpath
36495.3 29713.5 moveto
36495.3 29044.5 lineto
37164.3 29044.5 lineto
37164.3 29713.5 lineto
36495.3 29713.5 lineto
poly1
0 0 0 setrgbcolor
32829.8 29379 334.5 cir1
78.7402 setlinewidth
0 0 0 setrgbcolor
0 setlinewidth
25030 26680 374.016 cir1
78.7402 setlinewidth
0 0 0 setrgbcolor
0 setlinewidth
newpath
25423.7 25306 moveto
25423.7 26054 lineto
24636.3 26054 lineto
24636.3 25306 lineto
25423.7 25306 lineto
poly1
0 0 0 setrgbcolor
newpath
62963.5 38514.7 moveto
62294.5 38514.7 lineto
62294.5 37845.7 lineto
62963.5 37845.7 lineto
62963.5 38514.7 lineto
poly1
0 0 0 setrgbcolor
62629 42180.2 334.5 cir1
78.7402 setlinewidth
0 0 0 setrgbcolor
0 setlinewidth
60429 42180.2 334.5 cir1
78.7402 setlinewidth
0 0 0 setrgbcolor
0 setlinewidth
newpath
60763.5 38514.7 moveto
60094.5 38514.7 lineto
60094.5 37845.7 lineto
60763.5 37845.7 lineto
60763.5 38514.7 lineto
poly1
0 0 0 setrgbcolor
newpath
64095.3 44513.5 moveto
64095.3 43844.5 lineto
64764.3 43844.5 lineto
64764.3 44513.5 lineto
64095.3 44513.5 lineto
poly1
0 0 0 setrgbcolor
60429.8 44179 334.5 cir1
78.7402 setlinewidth
0 0 0 setrgbcolor
0 setlinewidth
newpath
24822.5 47073.5 moveto
24035.5 47073.5 lineto
24035.5 46286.5 lineto
24822.5 46286.5 lineto
24822.5 47073.5 lineto
poly1
0 0 0 setrgbcolor
24429 50680 393.5 cir1
78.7402 setlinewidth
0 0 0 setrgbcolor
629.921 setlinewidth
newpath
67630 41967.8 moveto
67630 41692.2 lineto
stroke
0 0 0 setrgbcolor
newpath
66630 41967.8 moveto
66630 41692.2 lineto
stroke
0 0 0 setrgbcolor
newpath
65630 41967.8 moveto
65630 41692.2 lineto
stroke
0 0 0 setrgbcolor
newpath
64630 41967.8 moveto
64630 41692.2 lineto
stroke
0 0 0 setrgbcolor
newpath
64630 38967.8 moveto
64630 38692.2 lineto
stroke
0 0 0 setrgbcolor
newpath
65630 38967.8 moveto
65630 38692.2 lineto
stroke
0 0 0 setrgbcolor
newpath
66630 38967.8 moveto
66630 38692.2 lineto
stroke
0 0 0 setrgbcolor
newpath
67630 38967.8 moveto
67630 38692.2 lineto
stroke
0 0 0 setrgbcolor
780 setlinewidth
newpath
77498.5 37190 moveto
77498.5 37970 lineto
stroke
0 0 0 setrgbcolor
newpath
75530 37190 moveto
75530 37970 lineto
stroke
0 0 0 setrgbcolor
0 setlinewidth
86430 45180 300 cir1
78.7402 setlinewidth
0 0 0 setrgbcolor
0 setlinewidth
84430 45180 300 cir1
78.7402 setlinewidth
0 0 0 setrgbcolor
0 setlinewidth
85430 45180 300 cir1
78.7402 setlinewidth
0 0 0 setrgbcolor
591 setlinewidth
newpath
72526.5 40180 moveto
72133.5 40180 lineto
stroke
0 0 0 setrgbcolor
newpath
72526.5 38180 moveto
72133.5 38180 lineto
stroke
0 0 0 setrgbcolor
newpath
72526.5 39180 moveto
72133.5 39180 lineto
stroke
0 0 0 setrgbcolor
0 setlinewidth
58430 44180 300 cir1
78.7402 setlinewidth
0 0 0 setrgbcolor
0 setlinewidth
58430 43180 300 cir1
78.7402 setlinewidth
0 0 0 setrgbcolor
0 setlinewidth
58430 45180 300 cir1
78.7402 setlinewidth
0 0 0 setrgbcolor
0 setlinewidth
newpath
31336.3 42945.4 moveto
31336.3 43614.6 lineto
30548.9 43614.6 lineto
30548.9 42945.4 lineto
31336.3 42945.4 lineto
poly1
0 0 0 setrgbcolor
newpath
32911.1 42945.4 moveto
32911.1 43614.6 lineto
32123.7 43614.6 lineto
32123.7 42945.4 lineto
32911.1 42945.4 lineto
poly1
0 0 0 setrgbcolor
newpath
32811.1 24045.4 moveto
32811.1 24714.6 lineto
32023.7 24714.6 lineto
32023.7 24045.4 lineto
32811.1 24045.4 lineto
poly1
0 0 0 setrgbcolor
newpath
31236.3 24045.4 moveto
31236.3 24714.6 lineto
30448.9 24714.6 lineto
30448.9 24045.4 lineto
31236.3 24045.4 lineto
poly1
0 0 0 setrgbcolor
newpath
42936.3 41145.4 moveto
42936.3 41814.6 lineto
42148.9 41814.6 lineto
42148.9 41145.4 lineto
42936.3 41145.4 lineto
poly1
0 0 0 setrgbcolor
newpath
44511.1 41145.4 moveto
44511.1 41814.6 lineto
43723.7 41814.6 lineto
43723.7 41145.4 lineto
44511.1 41145.4 lineto
poly1
0 0 0 setrgbcolor
newpath
44511.1 37145.4 moveto
44511.1 37814.6 lineto
43723.7 37814.6 lineto
43723.7 37145.4 lineto
44511.1 37145.4 lineto
poly1
0 0 0 setrgbcolor
newpath
42936.3 37145.4 moveto
42936.3 37814.6 lineto
42148.9 37814.6 lineto
42148.9 37145.4 lineto
42936.3 37145.4 lineto
poly1
0 0 0 setrgbcolor
newpath
58864.6 40586.3 moveto
58195.4 40586.3 lineto
58195.4 39798.9 lineto
58864.6 39798.9 lineto
58864.6 40586.3 lineto
poly1
0 0 0 setrgbcolor
newpath
58864.6 42161.1 moveto
58195.4 42161.1 lineto
58195.4 41373.7 lineto
58864.6 41373.7 lineto
58864.6 42161.1 lineto
poly1
0 0 0 setrgbcolor
newpath
62823.7 61014.6 moveto
62823.7 60345.4 lineto
63611.1 60345.4 lineto
63611.1 61014.6 lineto
62823.7 61014.6 lineto
poly1
0 0 0 setrgbcolor
newpath
61248.9 61014.6 moveto
61248.9 60345.4 lineto
62036.3 60345.4 lineto
62036.3 61014.6 lineto
61248.9 61014.6 lineto
poly1
0 0 0 setrgbcolor
newpath
53464.6 44761.1 moveto
52795.4 44761.1 lineto
52795.4 43973.7 lineto
53464.6 43973.7 lineto
53464.6 44761.1 lineto
poly1
0 0 0 setrgbcolor
newpath
53464.6 43186.3 moveto
52795.4 43186.3 lineto
52795.4 42398.9 lineto
53464.6 42398.9 lineto
53464.6 43186.3 lineto
poly1
0 0 0 setrgbcolor
newpath
58323.7 57514.6 moveto
58323.7 56845.4 lineto
59111.1 56845.4 lineto
59111.1 57514.6 lineto
58323.7 57514.6 lineto
poly1
0 0 0 setrgbcolor
newpath
56748.9 57514.6 moveto
56748.9 56845.4 lineto
57536.3 56845.4 lineto
57536.3 57514.6 lineto
56748.9 57514.6 lineto
poly1
0 0 0 setrgbcolor
newpath
55964.6 43061.1 moveto
55295.4 43061.1 lineto
55295.4 42273.7 lineto
55964.6 42273.7 lineto
55964.6 43061.1 lineto
poly1
0 0 0 setrgbcolor
newpath
55964.6 41486.3 moveto
55295.4 41486.3 lineto
55295.4 40698.9 lineto
55964.6 40698.9 lineto
55964.6 41486.3 lineto
poly1
0 0 0 setrgbcolor
35930 59680 453 cir1
78.7402 setlinewidth
0 0 0 setrgbcolor
0 setlinewidth
26088 59680 453 cir1
78.7402 setlinewidth
0 0 0 setrgbcolor
0 setlinewidth
newpath
50864.6 43186.3 moveto
50195.4 43186.3 lineto
50195.4 42398.9 lineto
50864.6 42398.9 lineto
50864.6 43186.3 lineto
poly1
0 0 0 setrgbcolor
newpath
50864.6 44761.1 moveto
50195.4 44761.1 lineto
50195.4 43973.7 lineto
50864.6 43973.7 lineto
50864.6 44761.1 lineto
poly1
0 0 0 setrgbcolor
newpath
51495.4 43973.7 moveto
52164.6 43973.7 lineto
52164.6 44761.1 lineto
51495.4 44761.1 lineto
51495.4 43973.7 lineto
poly1
0 0 0 setrgbcolor
newpath
51495.4 42398.9 moveto
52164.6 42398.9 lineto
52164.6 43186.3 lineto
51495.4 43186.3 lineto
51495.4 42398.9 lineto
poly1
0 0 0 setrgbcolor
newpath
49664.6 43186.3 moveto
48995.4 43186.3 lineto
48995.4 42398.9 lineto
49664.6 42398.9 lineto
49664.6 43186.3 lineto
poly1
0 0 0 setrgbcolor
newpath
49664.6 44761.1 moveto
48995.4 44761.1 lineto
48995.4 43973.7 lineto
49664.6 43973.7 lineto
49664.6 44761.1 lineto
poly1
0 0 0 setrgbcolor
newpath
54664.6 43061.1 moveto
53995.4 43061.1 lineto
53995.4 42273.7 lineto
54664.6 42273.7 lineto
54664.6 43061.1 lineto
poly1
0 0 0 setrgbcolor
newpath
54664.6 41486.3 moveto
53995.4 41486.3 lineto
53995.4 40698.9 lineto
54664.6 40698.9 lineto
54664.6 41486.3 lineto
poly1
0 0 0 setrgbcolor
1181 setlinewidth
newpath
43630 26277 moveto
43630 25883 lineto
stroke
0 0 0 setrgbcolor
newpath
39692 26277 moveto
39692 25883 lineto
stroke
0 0 0 setrgbcolor
newpath
41661 26277 moveto
41661 25883 lineto
stroke
0 0 0 setrgbcolor
newpath
33561 26277 moveto
33561 25883 lineto
stroke
0 0 0 setrgbcolor
newpath
31592 26277 moveto
31592 25883 lineto
stroke
0 0 0 setrgbcolor
newpath
35530 26277 moveto
35530 25883 lineto
stroke
0 0 0 setrgbcolor
0 setlinewidth
63930 63180 300 cir1
78.7402 setlinewidth
0 0 0 setrgbcolor
0 setlinewidth
61930 63180 300 cir1
78.7402 setlinewidth
0 0 0 setrgbcolor
0 setlinewidth
62930 63180 300 cir1
78.7402 setlinewidth
0 0 0 setrgbcolor
629.921 setlinewidth
newpath
52830 38117.8 moveto
52830 37842.2 lineto
stroke
0 0 0 setrgbcolor
newpath
51830 38117.8 moveto
51830 37842.2 lineto
stroke
0 0 0 setrgbcolor
newpath
50830 38117.8 moveto
50830 37842.2 lineto
stroke
0 0 0 setrgbcolor
newpath
49830 38117.8 moveto
49830 37842.2 lineto
stroke
0 0 0 setrgbcolor
newpath
49830 41117.8 moveto
49830 40842.2 lineto
stroke
0 0 0 setrgbcolor
newpath
50830 41117.8 moveto
50830 40842.2 lineto
stroke
0 0 0 setrgbcolor
newpath
51830 41117.8 moveto
51830 40842.2 lineto
stroke
0 0 0 setrgbcolor
newpath
52830 41117.8 moveto
52830 40842.2 lineto
stroke
0 0 0 setrgbcolor
780 setlinewidth
newpath
94820 53680 moveto
94040 53680 lineto
stroke
0 0 0 setrgbcolor
newpath
94820 55648.5 moveto
94040 55648.5 lineto
stroke
0 0 0 setrgbcolor
newpath
94820 57617 moveto
94040 57617 lineto
stroke
0 0 0 setrgbcolor
newpath
94820 48180 moveto
94040 48180 lineto
stroke
0 0 0 setrgbcolor
newpath
94820 50148.5 moveto
94040 50148.5 lineto
stroke
0 0 0 setrgbcolor
newpath
20040 44211.5 moveto
20820 44211.5 lineto
stroke
0 0 0 setrgbcolor
newpath
20040 46180 moveto
20820 46180 lineto
stroke
0 0 0 setrgbcolor
1378 setlinewidth
newpath
56130 62786 moveto
56130 63574 lineto
stroke
0 0 0 setrgbcolor
newpath
51730 62786 moveto
51730 63574 lineto
stroke
0 0 0 setrgbcolor
newpath
53930 62786 moveto
53930 63574 lineto
stroke
0 0 0 setrgbcolor
newpath
43930 62786 moveto
43930 63574 lineto
stroke
0 0 0 setrgbcolor
newpath
41730 62786 moveto
41730 63574 lineto
stroke
0 0 0 setrgbcolor
newpath
46130 62786 moveto
46130 63574 lineto
stroke
0 0 0 setrgbcolor
800 setlinewidth
newpath
86680 37480 moveto
86680 37280 lineto
stroke
0 0 0 setrgbcolor
newpath
85680 37480 moveto
85680 37280 lineto
stroke
0 0 0 setrgbcolor
newpath
87680 37480 moveto
87680 37280 lineto
stroke
0 0 0 setrgbcolor
newpath
22750 39160 moveto
22550 39160 lineto
stroke
0 0 0 setrgbcolor
newpath
22750 41160 moveto
22550 41160 lineto
stroke
0 0 0 setrgbcolor
newpath
22750 40160 moveto
22550 40160 lineto
stroke
0 0 0 setrgbcolor
newpath
30790 40160 moveto
30590 40160 lineto
stroke
0 0 0 setrgbcolor
newpath
30790 41160 moveto
30590 41160 lineto
stroke
0 0 0 setrgbcolor
newpath
30790 39160 moveto
30590 39160 lineto
stroke
0 0 0 setrgbcolor
newpath
81080 43080 moveto
81080 42880 lineto
stroke
0 0 0 setrgbcolor
newpath
79080 43080 moveto
79080 42880 lineto
stroke
0 0 0 setrgbcolor
newpath
80080 43080 moveto
80080 42880 lineto
stroke
0 0 0 setrgbcolor
1378 setlinewidth
newpath
36130 62786 moveto
36130 63574 lineto
stroke
0 0 0 setrgbcolor
newpath
31730 62786 moveto
31730 63574 lineto
stroke
0 0 0 setrgbcolor
newpath
33930 62786 moveto
33930 63574 lineto
stroke
0 0 0 setrgbcolor
0 setlinewidth
87545.7 40530 255.906 cir1
78.7402 setlinewidth
0 0 0 setrgbcolor
0 setlinewidth
newpath
88785.9 40274.1 moveto
88785.9 40785.9 lineto
88274.1 40785.9 lineto
88274.1 40274.1 lineto
88785.9 40274.1 lineto
poly1
0 0 0 setrgbcolor
newpath
82470 41480 moveto
81790 41480 lineto
81790 40680 lineto
82470 40680 lineto
82470 41480 lineto
poly1
0 0 0 setrgbcolor
680 setlinewidth
newpath
81130 41140 moveto
81130 41020 lineto
stroke
0 0 0 setrgbcolor
newpath
80130 41140 moveto
80130 41020 lineto
stroke
0 0 0 setrgbcolor
newpath
43830 39420 moveto
43830 39540 lineto
stroke
0 0 0 setrgbcolor
newpath
42830 39420 moveto
42830 39540 lineto
stroke
0 0 0 setrgbcolor
newpath
41830 39420 moveto
41830 39540 lineto
stroke
0 0 0 setrgbcolor
newpath
40830 39420 moveto
40830 39540 lineto
stroke
0 0 0 setrgbcolor
newpath
39830 39420 moveto
39830 39540 lineto
stroke
0 0 0 setrgbcolor
newpath
38830 39420 moveto
38830 39540 lineto
stroke
0 0 0 setrgbcolor
newpath
37830 39420 moveto
37830 39540 lineto
stroke
0 0 0 setrgbcolor
0 setlinewidth
newpath
36490 39080 moveto
37170 39080 lineto
37170 39880 lineto
36490 39880 lineto
36490 39080 lineto
poly1
0 0 0 setrgbcolor
newpath
72504.8 53254.8 moveto
69355.2 53254.8 lineto
69355.2 50105.2 lineto
72504.8 50105.2 lineto
72504.8 53254.8 lineto
poly1
0 0 0 setrgbcolor
newpath
72504.8 49317.8 moveto
69355.2 49317.8 lineto
69355.2 46168.2 lineto
72504.8 46168.2 lineto
72504.8 49317.8 lineto
poly1
0 0 0 setrgbcolor
newpath
53504.8 53254.8 moveto
50355.2 53254.8 lineto
50355.2 50105.2 lineto
53504.8 50105.2 lineto
53504.8 53254.8 lineto
poly1
0 0 0 setrgbcolor
newpath
53504.8 49317.8 moveto
50355.2 49317.8 lineto
50355.2 46168.2 lineto
53504.8 46168.2 lineto
53504.8 49317.8 lineto
poly1
0 0 0 setrgbcolor
newpath
36490 30880 moveto
37170 30880 lineto
37170 31680 lineto
36490 31680 lineto
36490 30880 lineto
poly1
0 0 0 setrgbcolor
680 setlinewidth
newpath
37830 31220 moveto
37830 31340 lineto
stroke
0 0 0 setrgbcolor
newpath
38830 31220 moveto
38830 31340 lineto
stroke
0 0 0 setrgbcolor
newpath
39830 31220 moveto
39830 31340 lineto
stroke
0 0 0 setrgbcolor
newpath
40830 31220 moveto
40830 31340 lineto
stroke
0 0 0 setrgbcolor
newpath
41830 31220 moveto
41830 31340 lineto
stroke
0 0 0 setrgbcolor
newpath
42830 31220 moveto
42830 31340 lineto
stroke
0 0 0 setrgbcolor
newpath
43830 31220 moveto
43830 31340 lineto
stroke
0 0 0 setrgbcolor
0 setlinewidth
newpath
20193.5 40877.5 moveto
19484.5 40877.5 lineto
19484.5 40562.5 lineto
20193.5 40562.5 lineto
20193.5 40877.5 lineto
poly1
0 0 0 setrgbcolor
newpath
21375.5 40503.5 moveto
20666.5 40503.5 lineto
20666.5 40188.5 lineto
21375.5 40188.5 lineto
21375.5 40503.5 lineto
poly1
0 0 0 setrgbcolor
newpath
21375.5 41251.5 moveto
20666.5 41251.5 lineto
20666.5 40936.5 lineto
21375.5 40936.5 lineto
21375.5 41251.5 lineto
poly1
0 0 0 setrgbcolor
newpath
29855.5 41311.5 moveto
29146.5 41311.5 lineto
29146.5 40996.5 lineto
29855.5 40996.5 lineto
29855.5 41311.5 lineto
poly1
0 0 0 setrgbcolor
newpath
29855.5 40563.5 moveto
29146.5 40563.5 lineto
29146.5 40248.5 lineto
29855.5 40248.5 lineto
29855.5 40563.5 lineto
poly1
0 0 0 setrgbcolor
newpath
28673.5 40937.5 moveto
27964.5 40937.5 lineto
27964.5 40622.5 lineto
28673.5 40622.5 lineto
28673.5 40937.5 lineto
poly1
0 0 0 setrgbcolor
newpath
23635.4 38998.9 moveto
24304.6 38998.9 lineto
24304.6 39786.3 lineto
23635.4 39786.3 lineto
23635.4 38998.9 lineto
poly1
0 0 0 setrgbcolor
newpath
23635.4 40573.7 moveto
24304.6 40573.7 lineto
24304.6 41361.1 lineto
23635.4 41361.1 lineto
23635.4 40573.7 lineto
poly1
0 0 0 setrgbcolor
newpath
31655.4 40573.7 moveto
32324.6 40573.7 lineto
32324.6 41361.1 lineto
31655.4 41361.1 lineto
31655.4 40573.7 lineto
poly1
0 0 0 setrgbcolor
newpath
31655.4 38998.9 moveto
32324.6 38998.9 lineto
32324.6 39786.3 lineto
31655.4 39786.3 lineto
31655.4 38998.9 lineto
poly1
0 0 0 setrgbcolor
62930 54180 393.5 cir1
78.7402 setlinewidth
0 0 0 setrgbcolor
0 setlinewidth
62930 45180 393.5 cir1
78.7402 setlinewidth
0 0 0 setrgbcolor
0 setlinewidth
76130 43980 492 cir1
78.7402 setlinewidth
0 0 0 setrgbcolor
0 setlinewidth
83930 43980 492 cir1
78.7402 setlinewidth
0 0 0 setrgbcolor
0 setlinewidth
61430 39180 393.5 cir1
78.7402 setlinewidth
0 0 0 setrgbcolor
0 setlinewidth
61430 54180 393.5 cir1
78.7402 setlinewidth
0 0 0 setrgbcolor
0 setlinewidth
59930 45180 393.5 cir1
78.7402 setlinewidth
0 0 0 setrgbcolor
0 setlinewidth
59930 54180 393.5 cir1
78.7402 setlinewidth
0 0 0 setrgbcolor
0 setlinewidth
28930 48780 393.5 cir1
78.7402 setlinewidth
0 0 0 setrgbcolor
0 setlinewidth
28930 44280 393.5 cir1
78.7402 setlinewidth
0 0 0 setrgbcolor
0 setlinewidth
44130 54180 393.5 cir1
78.7402 setlinewidth
0 0 0 setrgbcolor
0 setlinewidth
44130 44380 393.5 cir1
78.7402 setlinewidth
0 0 0 setrgbcolor
0 setlinewidth
80430 54180 689 cir1
78.7402 setlinewidth
0 0 0 setrgbcolor
0 setlinewidth
81930 54180 689 cir1
78.7402 setlinewidth
0 0 0 setrgbcolor
0 setlinewidth
78930 54180 689 cir1
78.7402 setlinewidth
0 0 0 setrgbcolor
0 setlinewidth
81930 49180 689 cir1
78.7402 setlinewidth
0 0 0 setrgbcolor
0 setlinewidth
80430 49180 689 cir1
78.7402 setlinewidth
0 0 0 setrgbcolor
0 setlinewidth
78930 49180 689 cir1
78.7402 setlinewidth
0 0 0 setrgbcolor
0 setlinewidth
newpath
23215 44098.9 moveto
23845 44098.9 lineto
23845 44886.3 lineto
23215 44886.3 lineto
23215 44098.9 lineto
poly1
0 0 0 setrgbcolor
newpath
23215 45673.7 moveto
23845 45673.7 lineto
23845 46461.1 lineto
23215 46461.1 lineto
23215 45673.7 lineto
poly1
0 0 0 setrgbcolor
28980 48780 157.48 cir1
78.7402 setlinewidth
0 0 0 setrgbcolor
0 setlinewidth
28980 44280 157.48 cir1
78.7402 setlinewidth
0 0 0 setrgbcolor
0 setlinewidth
78930 54180 157.48 cir1
78.7402 setlinewidth
0 0 0 setrgbcolor
0 setlinewidth
81930 54180 157.48 cir1
78.7402 setlinewidth
0 0 0 setrgbcolor
0 setlinewidth
80430 54180 157.48 cir1
78.7402 setlinewidth
0 0 0 setrgbcolor
0 setlinewidth
78930 49180 157.48 cir1
78.7402 setlinewidth
0 0 0 setrgbcolor
0 setlinewidth
81930 49180 157.48 cir1
78.7402 setlinewidth
0 0 0 setrgbcolor
0 setlinewidth
80430 49180 157.48 cir1
78.7402 setlinewidth
0 0 0 setrgbcolor
0 setlinewidth
70230 36880 157.48 cir1
78.7402 setlinewidth
0 0 0 setrgbcolor
0 setlinewidth
70230 35080 157.48 cir1
78.7402 setlinewidth
0 0 0 setrgbcolor
0 setlinewidth
61430 54180 157.48 cir1
78.7402 setlinewidth
0 0 0 setrgbcolor
0 setlinewidth
61430 39180 157.48 cir1
78.7402 setlinewidth
0 0 0 setrgbcolor
0 setlinewidth
62930 54180 157.48 cir1
78.7402 setlinewidth
0 0 0 setrgbcolor
0 setlinewidth
62930 45180 157.48 cir1
78.7402 setlinewidth
0 0 0 setrgbcolor
0 setlinewidth
59930 45180 157.48 cir1
78.7402 setlinewidth
0 0 0 setrgbcolor
0 setlinewidth
59930 54180 157.48 cir1
78.7402 setlinewidth
0 0 0 setrgbcolor
0 setlinewidth
44130 54180 157.48 cir1
78.7402 setlinewidth
0 0 0 setrgbcolor
0 setlinewidth
44130 44380 157.48 cir1
78.7402 setlinewidth
0 0 0 setrgbcolor
629.921 setlinewidth
newpath
77430 47743 moveto
77430 43080 lineto
stroke
0 0 0 setrgbcolor
newpath
72330 42180 moveto
72330 40180 lineto
stroke
0 0 0 setrgbcolor
newpath
72730 42580 moveto
72330 42180 lineto
stroke
0 0 0 setrgbcolor
newpath
76930 42580 moveto
72730 42580 lineto
stroke
0 0 0 setrgbcolor
newpath
77430 43080 moveto
76930 42580 lineto
stroke
0 0 0 setrgbcolor
newpath
80314.3 46380 moveto
80314.3 47680 lineto
stroke
0 0 0 setrgbcolor
newpath
80130 47780 moveto
80130 47680 lineto
stroke
0 0 0 setrgbcolor
newpath
80214.3 47780 moveto
80130 47780 lineto
stroke
0 0 0 setrgbcolor
newpath
80314.3 47680 moveto
80214.3 47780 lineto
stroke
0 0 0 setrgbcolor
newpath
80317.4 44580 moveto
80317.4 46376.9 lineto
stroke
0 0 0 setrgbcolor
newpath
80317.4 46376.9 moveto
80314.3 46380 lineto
stroke
0 0 0 setrgbcolor
newpath
80080 42980 moveto
80080 44342.6 lineto
stroke
0 0 0 setrgbcolor
newpath
80080 44342.6 moveto
80317.4 44580 lineto
stroke
0 0 0 setrgbcolor
472.441 setlinewidth
newpath
27980 43780 moveto
28480 44280 lineto
stroke
0 0 0 setrgbcolor
newpath
28480 44280 moveto
28980 44280 lineto
stroke
0 0 0 setrgbcolor
629.921 setlinewidth
newpath
28480 44280 moveto
28980 44280 lineto
stroke
0 0 0 setrgbcolor
newpath
28680 49080 moveto
28530 49080 lineto
stroke
0 0 0 setrgbcolor
newpath
28980 48780 moveto
28680 49080 lineto
stroke
0 0 0 setrgbcolor
472.441 setlinewidth
newpath
19839 40720 moveto
19839 42139 lineto
stroke
0 0 0 setrgbcolor
newpath
20230 42530 moveto
19839 42139 lineto
stroke
0 0 0 setrgbcolor
newpath
26730 42530 moveto
20230 42530 lineto
stroke
0 0 0 setrgbcolor
newpath
27980 43780 moveto
26730 42530 lineto
stroke
0 0 0 setrgbcolor
newpath
21021 40346 moveto
19836 40346 lineto
stroke
0 0 0 setrgbcolor
newpath
19839 40349 moveto
19839 40720 lineto
stroke
0 0 0 setrgbcolor
newpath
19836 40346 moveto
19839 40349 lineto
stroke
0 0 0 setrgbcolor
newpath
22650 40160 moveto
21207 40160 lineto
stroke
0 0 0 setrgbcolor
newpath
21207 40160 moveto
21021 40346 lineto
stroke
0 0 0 setrgbcolor
newpath
22650 40160 moveto
26365.7 40160 lineto
stroke
0 0 0 setrgbcolor
newpath
26365.7 40160 moveto
26550 39975.7 lineto
stroke
0 0 0 setrgbcolor
newpath
22650 40160 moveto
24950 40160 lineto
stroke
0 0 0 setrgbcolor
newpath
25070 40040 moveto
25070 39392.6 lineto
stroke
0 0 0 setrgbcolor
newpath
24950 40160 moveto
25070 40040 lineto
stroke
0 0 0 setrgbcolor
629.921 setlinewidth
newpath
61930 47280 moveto
61930 44180 lineto
stroke
0 0 0 setrgbcolor
newpath
61930 47280 moveto
61930 47743 lineto
stroke
0 0 0 setrgbcolor
newpath
61930 44180 moveto
62629 43481 lineto
stroke
0 0 0 setrgbcolor
newpath
62629 43481 moveto
62629 42180.2 lineto
stroke
0 0 0 setrgbcolor
472.441 setlinewidth
newpath
55630 41092.6 moveto
56717.4 41092.6 lineto
stroke
0 0 0 setrgbcolor
newpath
56830 40980 moveto
62617.4 40980 lineto
stroke
0 0 0 setrgbcolor
newpath
56717.4 41092.6 moveto
56830 40980 lineto
stroke
0 0 0 setrgbcolor
newpath
62617.4 40980 moveto
62630 40967.4 lineto
stroke
0 0 0 setrgbcolor
551.181 setlinewidth
newpath
85964.3 39480 moveto
85964.3 40045.7 lineto
stroke
0 0 0 setrgbcolor
newpath
81330 38980 moveto
80630 38280 lineto
stroke
0 0 0 setrgbcolor
newpath
82930 38980 moveto
81330 38980 lineto
stroke
0 0 0 setrgbcolor
newpath
84330 40380 moveto
82930 38980 lineto
stroke
0 0 0 setrgbcolor
newpath
85630 40380 moveto
84330 40380 lineto
stroke
0 0 0 setrgbcolor
newpath
85964.3 40045.7 moveto
85630 40380 lineto
stroke
0 0 0 setrgbcolor
newpath
80630 38280 moveto
80630 37580 lineto
stroke
0 0 0 setrgbcolor
629.921 setlinewidth
newpath
43830 39480 moveto
46342.6 39480 lineto
stroke
0 0 0 setrgbcolor
newpath
46342.6 39480 moveto
46342.6 39767.4 lineto
stroke
0 0 0 setrgbcolor
newpath
49830 40980 moveto
49830 39767.4 lineto
stroke
0 0 0 setrgbcolor
newpath
49730 39780 moveto
49730 39767.4 lineto
stroke
0 0 0 setrgbcolor
newpath
49817.4 39780 moveto
49730 39780 lineto
stroke
0 0 0 setrgbcolor
newpath
49830 39767.4 moveto
49817.4 39780 lineto
stroke
0 0 0 setrgbcolor
newpath
46342.6 39767.4 moveto
46342.6 38476.9 lineto
stroke
0 0 0 setrgbcolor
newpath
46342.6 38476.9 moveto
46330 38464.3 lineto
stroke
0 0 0 setrgbcolor
newpath
54330 39767.4 moveto
49730 39767.4 lineto
stroke
0 0 0 setrgbcolor
newpath
49730 39767.4 moveto
46342.6 39767.4 lineto
stroke
0 0 0 setrgbcolor
newpath
46330 39780 moveto
46330 40495.7 lineto
stroke
0 0 0 setrgbcolor
newpath
46342.6 39767.4 moveto
46330 39780 lineto
stroke
0 0 0 setrgbcolor
newpath
54330 41092.6 moveto
54330 39767.4 lineto
stroke
0 0 0 setrgbcolor
newpath
55630 41092.6 moveto
54330 41092.6 lineto
stroke
0 0 0 setrgbcolor
551.181 setlinewidth
newpath
94930 36980 moveto
94930 36280 lineto
stroke
0 0 0 setrgbcolor
newpath
94580 35930 moveto
86717.4 35930 lineto
stroke
0 0 0 setrgbcolor
newpath
94930 36280 moveto
94580 35930 lineto
stroke
0 0 0 setrgbcolor
newpath
93617.4 36980 moveto
94930 36980 lineto
stroke
0 0 0 setrgbcolor
newpath
94930 38392.6 moveto
94930 36980 lineto
stroke
0 0 0 setrgbcolor
629.921 setlinewidth
newpath
46342.6 38476.9 moveto
46330 38464.3 lineto
stroke
0 0 0 setrgbcolor
newpath
69130 40767.4 moveto
64642.6 40767.4 lineto
stroke
0 0 0 setrgbcolor
newpath
64630 40780 moveto
64630 41830 lineto
stroke
0 0 0 setrgbcolor
newpath
64642.6 40767.4 moveto
64630 40780 lineto
stroke
0 0 0 setrgbcolor
newpath
62629 42180.2 moveto
62629 40968.4 lineto
stroke
0 0 0 setrgbcolor
newpath
62629 40968.4 moveto
62630 40967.4 lineto
stroke
0 0 0 setrgbcolor
newpath
62629 42180.2 moveto
64279.8 42180.2 lineto
stroke
0 0 0 setrgbcolor
newpath
64279.8 42180.2 moveto
64630 41830 lineto
stroke
0 0 0 setrgbcolor
551.181 setlinewidth
newpath
75930 47743 moveto
75717 47530 lineto
stroke
0 0 0 setrgbcolor
newpath
75717 47530 moveto
75680 47530 lineto
stroke
0 0 0 setrgbcolor
newpath
75680 47530 moveto
75930 47530 lineto
stroke
0 0 0 setrgbcolor
newpath
91298.5 45080 moveto
91298.5 46048.9 lineto
stroke
0 0 0 setrgbcolor
newpath
91298.5 46048.9 moveto
91017.4 46330 lineto
stroke
0 0 0 setrgbcolor
newpath
86680 37380 moveto
86680 35967.4 lineto
stroke
0 0 0 setrgbcolor
newpath
86680 35967.4 moveto
86717.4 35930 lineto
stroke
0 0 0 setrgbcolor
newpath
87042.6 38680 moveto
86730 38680 lineto
stroke
0 0 0 setrgbcolor
newpath
86730 38680 moveto
86680 38630 lineto
stroke
0 0 0 setrgbcolor
newpath
86680 38630 moveto
86680 37380 lineto
stroke
0 0 0 setrgbcolor
newpath
87545.7 40530 moveto
87545.7 42195.7 lineto
stroke
0 0 0 setrgbcolor
newpath
91298.5 43248.5 moveto
91298.5 45080 lineto
stroke
0 0 0 setrgbcolor
newpath
91130 43080 moveto
91298.5 43248.5 lineto
stroke
0 0 0 setrgbcolor
newpath
88430 43080 moveto
91130 43080 lineto
stroke
0 0 0 setrgbcolor
newpath
87545.7 42195.7 moveto
88430 43080 lineto
stroke
0 0 0 setrgbcolor
newpath
85964.3 39480 moveto
87545.7 39480 lineto
stroke
0 0 0 setrgbcolor
newpath
87545.7 39480 moveto
87430 39480 lineto
stroke
0 0 0 setrgbcolor
newpath
87430 39480 moveto
87545.7 39480 lineto
stroke
0 0 0 setrgbcolor
newpath
87545.7 40530 moveto
87545.7 39480 lineto
stroke
0 0 0 setrgbcolor
newpath
87545.7 39480 moveto
87545.7 39183.1 lineto
stroke
0 0 0 setrgbcolor
newpath
87545.7 39183.1 moveto
87042.6 38680 lineto
stroke
0 0 0 setrgbcolor
708.661 setlinewidth
newpath
85430 49930 moveto
90480 49930 lineto
stroke
0 0 0 setrgbcolor
newpath
90480 49930 moveto
91298.5 49111.5 lineto
stroke
0 0 0 setrgbcolor
newpath
91298.5 49111.5 moveto
91298.5 45080 lineto
stroke
0 0 0 setrgbcolor
newpath
75930 47743 moveto
75930 47530 lineto
stroke
0 0 0 setrgbcolor
newpath
75930 47530 moveto
75930 47680 lineto
stroke
0 0 0 setrgbcolor
newpath
75930 47680 moveto
75930 47743 lineto
stroke
0 0 0 setrgbcolor
newpath
23930 54967.4 moveto
26717.4 54967.4 lineto
stroke
0 0 0 setrgbcolor
newpath
26717.4 54967.4 moveto
26930 55180 lineto
stroke
0 0 0 setrgbcolor
newpath
71430 59680 moveto
66930 59680 lineto
stroke
0 0 0 setrgbcolor
newpath
65430 63180 moveto
63930 63180 lineto
stroke
0 0 0 setrgbcolor
newpath
65930 62680 moveto
65430 63180 lineto
stroke
0 0 0 setrgbcolor
newpath
65930 60680 moveto
65930 62680 lineto
stroke
0 0 0 setrgbcolor
newpath
66930 59680 moveto
65930 60680 lineto
stroke
0 0 0 setrgbcolor
1968.5 setlinewidth
newpath
67430 47743 moveto
70930 47743 lineto
stroke
0 0 0 setrgbcolor
787.402 setlinewidth
newpath
71217.4 61680 moveto
71217.4 62967.4 lineto
stroke
0 0 0 setrgbcolor
newpath
71217.4 62967.4 moveto
71430 63180 lineto
stroke
0 0 0 setrgbcolor
newpath
76930 63180 moveto
76930 61892.6 lineto
stroke
0 0 0 setrgbcolor
newpath
76930 61892.6 moveto
76717.4 61680 lineto
stroke
0 0 0 setrgbcolor
1377.95 setlinewidth
newpath
76930 59430 moveto
76930 55930 lineto
stroke
0 0 0 setrgbcolor
newpath
76930 55930 moveto
77680 55180 lineto
stroke
0 0 0 setrgbcolor
newpath
76930 63180 moveto
76930 59430 lineto
stroke
0 0 0 setrgbcolor
newpath
76930 59430 moveto
76930 58680 lineto
stroke
0 0 0 setrgbcolor
newpath
71430 58680 moveto
71430 59680 lineto
stroke
0 0 0 setrgbcolor
newpath
71430 59680 moveto
71430 60180 lineto
stroke
0 0 0 setrgbcolor
newpath
71430 60180 moveto
71430 63180 lineto
stroke
0 0 0 setrgbcolor
newpath
75180 58680 moveto
71430 58680 lineto
stroke
0 0 0 setrgbcolor
newpath
76930 58680 moveto
75180 58680 lineto
stroke
0 0 0 setrgbcolor
1574.8 setlinewidth
newpath
26930 55180 moveto
26930 50680 lineto
stroke
0 0 0 setrgbcolor
newpath
26930 50680 moveto
28530 49080 lineto
stroke
0 0 0 setrgbcolor
newpath
29867 47743 moveto
36430 47743 lineto
stroke
0 0 0 setrgbcolor
newpath
28530 49080 moveto
29867 47743 lineto
stroke
0 0 0 setrgbcolor
newpath
20430 55211.5 moveto
26898.5 55211.5 lineto
stroke
0 0 0 setrgbcolor
newpath
26898.5 55211.5 moveto
26930 55180 lineto
stroke
0 0 0 setrgbcolor
1968.5 setlinewidth
newpath
70930 47743 moveto
75930 47743 lineto
stroke
0 0 0 setrgbcolor
newpath
75930 47743 moveto
77430 47743 lineto
stroke
0 0 0 setrgbcolor
newpath
77430 47743 moveto
77530 47743 lineto
stroke
0 0 0 setrgbcolor
newpath
77530 47743 moveto
77743 47743 lineto
stroke
0 0 0 setrgbcolor
1102.36 setlinewidth
newpath
78430 47743 moveto
70930 47743 lineto
stroke
0 0 0 setrgbcolor
1968.5 setlinewidth
newpath
51930 47743 moveto
36430 47743 lineto
stroke
0 0 0 setrgbcolor
newpath
67430 47743 moveto
61930 47743 lineto
stroke
0 0 0 setrgbcolor
newpath
61930 47743 moveto
56430 47743 lineto
stroke
0 0 0 setrgbcolor
newpath
56430 47743 moveto
51930 47743 lineto
stroke
0 0 0 setrgbcolor
1102.36 setlinewidth
newpath
78430 47680 moveto
78430 47743 lineto
stroke
0 0 0 setrgbcolor
newpath
79430 47680 moveto
78430 47680 lineto
stroke
0 0 0 setrgbcolor
newpath
80130 47680 moveto
79430 47680 lineto
stroke
0 0 0 setrgbcolor
newpath
80530 47680 moveto
80130 47680 lineto
stroke
0 0 0 setrgbcolor
newpath
81930 47930 moveto
81680 47680 lineto
stroke
0 0 0 setrgbcolor
newpath
81930 48430 moveto
81930 47930 lineto
stroke
0 0 0 setrgbcolor
newpath
81680 47680 moveto
80930 47680 lineto
stroke
0 0 0 setrgbcolor
newpath
80930 47680 moveto
80530 47680 lineto
stroke
0 0 0 setrgbcolor
newpath
81930 55180 moveto
77680 55180 lineto
stroke
0 0 0 setrgbcolor
newpath
81930 54180 moveto
81930 55180 lineto
stroke
0 0 0 setrgbcolor
newpath
77680 55180 moveto
77930 55180 lineto
stroke
0 0 0 setrgbcolor
newpath
77930 55180 moveto
77680 55180 lineto
stroke
0 0 0 setrgbcolor
newpath
77680 55180 moveto
77680 54180 lineto
stroke
0 0 0 setrgbcolor
newpath
77680 54180 moveto
78930 54180 lineto
stroke
0 0 0 setrgbcolor
newpath
78930 54180 moveto
81930 54180 lineto
stroke
0 0 0 setrgbcolor
newpath
80430 54180 moveto
81930 54180 lineto
stroke
0 0 0 setrgbcolor
newpath
80430 54180 moveto
78430 54180 lineto
stroke
0 0 0 setrgbcolor
708.661 setlinewidth
newpath
84430 45180 moveto
84430 45930 lineto
stroke
0 0 0 setrgbcolor
newpath
85430 49930 moveto
84430 49930 lineto
stroke
0 0 0 setrgbcolor
newpath
85430 46930 moveto
85430 49930 lineto
stroke
0 0 0 setrgbcolor
newpath
84430 45930 moveto
85430 46930 lineto
stroke
0 0 0 setrgbcolor
1102.36 setlinewidth
newpath
78993 47743 moveto
78430 47743 lineto
stroke
0 0 0 setrgbcolor
newpath
55430 48892.6 moveto
55430 47743 lineto
stroke
0 0 0 setrgbcolor
newpath
55430 47743 moveto
55430 47680 lineto
stroke
0 0 0 setrgbcolor
newpath
55430 47680 moveto
55430 47743 lineto
stroke
0 0 0 setrgbcolor
newpath
57930 48892.6 moveto
57930 47743 lineto
stroke
0 0 0 setrgbcolor
newpath
57930 47743 moveto
57930 47680 lineto
stroke
0 0 0 setrgbcolor
newpath
57930 47680 moveto
57930 47743 lineto
stroke
0 0 0 setrgbcolor
newpath
67430 47743 moveto
57930 47743 lineto
stroke
0 0 0 setrgbcolor
newpath
57930 47743 moveto
55430 47743 lineto
stroke
0 0 0 setrgbcolor
newpath
55430 47743 moveto
51930 47743 lineto
stroke
0 0 0 setrgbcolor
708.661 setlinewidth
newpath
84430 49930 moveto
82680 49930 lineto
stroke
0 0 0 setrgbcolor
1102.36 setlinewidth
newpath
78930 49180 moveto
78430 48680 lineto
stroke
0 0 0 setrgbcolor
newpath
78430 48430 moveto
78430 48680 lineto
stroke
0 0 0 setrgbcolor
1968.5 setlinewidth
newpath
77743 47743 moveto
78430 48430 lineto
stroke
0 0 0 setrgbcolor
1102.36 setlinewidth
newpath
81130 48430 moveto
78430 48430 lineto
stroke
0 0 0 setrgbcolor
newpath
78430 48430 moveto
78680 48430 lineto
stroke
0 0 0 setrgbcolor
newpath
78680 48430 moveto
78430 48430 lineto
stroke
0 0 0 setrgbcolor
newpath
78430 47680 moveto
78430 48430 lineto
stroke
0 0 0 setrgbcolor
newpath
78430 48430 moveto
78430 49180 lineto
stroke
0 0 0 setrgbcolor
newpath
78430 49180 moveto
80430 49180 lineto
stroke
0 0 0 setrgbcolor
newpath
81930 49180 moveto
81930 48430 lineto
stroke
0 0 0 setrgbcolor
708.661 setlinewidth
newpath
82680 49930 moveto
81930 49180 lineto
stroke
0 0 0 setrgbcolor
1102.36 setlinewidth
newpath
81930 49180 moveto
80430 49180 lineto
stroke
0 0 0 setrgbcolor
newpath
80430 49180 moveto
78993 47743 lineto
stroke
0 0 0 setrgbcolor
newpath
81930 48430 moveto
81130 48430 lineto
stroke
0 0 0 setrgbcolor
551.181 setlinewidth
newpath
94430 50148.5 moveto
93498.5 50148.5 lineto
stroke
0 0 0 setrgbcolor
newpath
92830 39132 moveto
90678 36980 lineto
stroke
0 0 0 setrgbcolor
newpath
92830 49480 moveto
92830 39132 lineto
stroke
0 0 0 setrgbcolor
newpath
93498.5 50148.5 moveto
92830 49480 lineto
stroke
0 0 0 setrgbcolor
newpath
92042.6 36980 moveto
90678 36980 lineto
stroke
0 0 0 setrgbcolor
newpath
90630 38392.6 moveto
90630 37028 lineto
stroke
0 0 0 setrgbcolor
newpath
90630 37028 moveto
90678 36980 lineto
stroke
0 0 0 setrgbcolor
629.921 setlinewidth
newpath
94430 50148.5 moveto
94761.5 50148.5 lineto
stroke
0 0 0 setrgbcolor
551.181 setlinewidth
newpath
94930 41232 moveto
93665.4 41232 lineto
stroke
0 0 0 setrgbcolor
newpath
93665.4 41232 moveto
93617.4 41280 lineto
stroke
0 0 0 setrgbcolor
newpath
94930 41232 moveto
94930 39967.4 lineto
stroke
0 0 0 setrgbcolor
newpath
94430 48180 moveto
94430 44380 lineto
stroke
0 0 0 setrgbcolor
newpath
94930 43880 moveto
94930 41232 lineto
stroke
0 0 0 setrgbcolor
newpath
94430 44380 moveto
94930 43880 lineto
stroke
0 0 0 setrgbcolor
newpath
88530 40530 moveto
88530 41080 lineto
stroke
0 0 0 setrgbcolor
newpath
88682 41232 moveto
90678 41232 lineto
stroke
0 0 0 setrgbcolor
newpath
88530 41080 moveto
88682 41232 lineto
stroke
0 0 0 setrgbcolor
newpath
90630 39967.4 moveto
90630 41183.9 lineto
stroke
0 0 0 setrgbcolor
newpath
90630 41183.9 moveto
90678 41232 lineto
stroke
0 0 0 setrgbcolor
newpath
92042.6 41280 moveto
90726.1 41280 lineto
stroke
0 0 0 setrgbcolor
newpath
90726.1 41280 moveto
90678 41232 lineto
stroke
0 0 0 setrgbcolor
newpath
88617.4 38680 moveto
88617.4 37517.4 lineto
stroke
0 0 0 setrgbcolor
newpath
88480 37380 moveto
87680 37380 lineto
stroke
0 0 0 setrgbcolor
newpath
88617.4 37517.4 moveto
88480 37380 lineto
stroke
0 0 0 setrgbcolor
newpath
88530 40530 moveto
88530 38767.4 lineto
stroke
0 0 0 setrgbcolor
newpath
88530 38767.4 moveto
88617.4 38680 lineto
stroke
0 0 0 setrgbcolor
787.402 setlinewidth
newpath
82217.4 61680 moveto
82430 61680 lineto
stroke
0 0 0 setrgbcolor
newpath
82430 61680 moveto
82430 63180 lineto
stroke
0 0 0 setrgbcolor
newpath
75142.6 61680 moveto
74930 61680 lineto
stroke
0 0 0 setrgbcolor
newpath
74930 61680 moveto
74930 63180 lineto
stroke
0 0 0 setrgbcolor
1377.95 setlinewidth
newpath
80430 66180 moveto
83180 66180 lineto
stroke
0 0 0 setrgbcolor
newpath
95430 58617 moveto
94430 57617 lineto
stroke
0 0 0 setrgbcolor
newpath
95430 64680 moveto
95430 58617 lineto
stroke
0 0 0 setrgbcolor
newpath
92930 67180 moveto
95430 64680 lineto
stroke
0 0 0 setrgbcolor
newpath
84180 67180 moveto
92930 67180 lineto
stroke
0 0 0 setrgbcolor
newpath
83180 66180 moveto
84180 67180 lineto
stroke
0 0 0 setrgbcolor
newpath
74930 63180 moveto
74930 66180 lineto
stroke
0 0 0 setrgbcolor
newpath
82430 66180 moveto
82430 63180 lineto
stroke
0 0 0 setrgbcolor
newpath
81930 66180 moveto
82430 66180 lineto
stroke
0 0 0 setrgbcolor
newpath
74930 66180 moveto
80430 66180 lineto
stroke
0 0 0 setrgbcolor
newpath
80430 66180 moveto
80680 66180 lineto
stroke
0 0 0 setrgbcolor
newpath
80680 66180 moveto
81930 66180 lineto
stroke
0 0 0 setrgbcolor
787.402 setlinewidth
newpath
69642.6 61680 moveto
69430 61680 lineto
stroke
0 0 0 setrgbcolor
newpath
69430 61680 moveto
69430 63180 lineto
stroke
0 0 0 setrgbcolor
newpath
93217.4 61680 moveto
93217.4 62967.4 lineto
stroke
0 0 0 setrgbcolor
newpath
93217.4 62967.4 moveto
93430 63180 lineto
stroke
0 0 0 setrgbcolor
1377.95 setlinewidth
newpath
69430 63180 moveto
69430 65680 lineto
stroke
0 0 0 setrgbcolor
newpath
96398.5 55648.5 moveto
94430 55648.5 lineto
stroke
0 0 0 setrgbcolor
newpath
97430 56680 moveto
96398.5 55648.5 lineto
stroke
0 0 0 setrgbcolor
newpath
97430 65680 moveto
97430 56680 lineto
stroke
0 0 0 setrgbcolor
newpath
93930 69180 moveto
97430 65680 lineto
stroke
0 0 0 setrgbcolor
newpath
83430 69180 moveto
93930 69180 lineto
stroke
0 0 0 setrgbcolor
newpath
82430 68180 moveto
83430 69180 lineto
stroke
0 0 0 setrgbcolor
newpath
71930 68180 moveto
82430 68180 lineto
stroke
0 0 0 setrgbcolor
newpath
69430 65680 moveto
71930 68180 lineto
stroke
0 0 0 setrgbcolor
newpath
93430 63180 moveto
93430 60180 lineto
stroke
0 0 0 setrgbcolor
newpath
93430 60180 moveto
92430 59180 lineto
stroke
0 0 0 setrgbcolor
newpath
92430 56180 moveto
92961.5 55648.5 lineto
stroke
0 0 0 setrgbcolor
newpath
92430 59180 moveto
92430 56180 lineto
stroke
0 0 0 setrgbcolor
newpath
94430 55648.5 moveto
92961.5 55648.5 lineto
stroke
0 0 0 setrgbcolor
551.181 setlinewidth
newpath
82598.5 37580 moveto
82598.5 36348.5 lineto
stroke
0 0 0 setrgbcolor
newpath
69630 37480 moveto
67630 37480 lineto
stroke
0 0 0 setrgbcolor
newpath
70230 36880 moveto
69630 37480 lineto
stroke
0 0 0 setrgbcolor
newpath
81330 35080 moveto
70230 35080 lineto
stroke
0 0 0 setrgbcolor
newpath
82598.5 36348.5 moveto
81330 35080 lineto
stroke
0 0 0 setrgbcolor
newpath
82598.5 37580 moveto
84980 37580 lineto
stroke
0 0 0 setrgbcolor
newpath
84980 37580 moveto
84980 37530 lineto
stroke
0 0 0 setrgbcolor
629.921 setlinewidth
newpath
62680 35930 moveto
61430 37180 lineto
stroke
0 0 0 setrgbcolor
newpath
67630 37480 moveto
67630 35930 lineto
stroke
0 0 0 setrgbcolor
newpath
61430 39180 moveto
61430 37180 lineto
stroke
0 0 0 setrgbcolor
708.661 setlinewidth
newpath
61430 59180 moveto
61430 54180 lineto
stroke
0 0 0 setrgbcolor
newpath
61430 59180 moveto
61430 62680 lineto
stroke
0 0 0 setrgbcolor
629.921 setlinewidth
newpath
67630 35930 moveto
62680 35930 lineto
stroke
0 0 0 setrgbcolor
708.661 setlinewidth
newpath
61430 62680 moveto
61430 60680 lineto
stroke
0 0 0 setrgbcolor
newpath
61430 60680 moveto
61642.6 60680 lineto
stroke
0 0 0 setrgbcolor
newpath
61930 63180 moveto
61430 62680 lineto
stroke
0 0 0 setrgbcolor
newpath
61430 62680 moveto
61930 63180 lineto
stroke
0 0 0 setrgbcolor
629.921 setlinewidth
newpath
67630 38830 moveto
68767.4 38830 lineto
stroke
0 0 0 setrgbcolor
newpath
68767.4 38830 moveto
69130 39192.6 lineto
stroke
0 0 0 setrgbcolor
newpath
67630 38830 moveto
67630 37480 lineto
stroke
0 0 0 setrgbcolor
551.181 setlinewidth
newpath
85142.6 35930 moveto
85030 35930 lineto
stroke
0 0 0 setrgbcolor
newpath
84980 37880 moveto
84980 36092.6 lineto
stroke
0 0 0 setrgbcolor
newpath
84980 36092.6 moveto
85142.6 35930 lineto
stroke
0 0 0 setrgbcolor
newpath
84980 39480 moveto
84980 37880 lineto
stroke
0 0 0 setrgbcolor
newpath
84980 37880 moveto
84980 37530 lineto
stroke
0 0 0 setrgbcolor
newpath
85130 37380 moveto
85680 37380 lineto
stroke
0 0 0 setrgbcolor
newpath
84980 37530 moveto
85130 37380 lineto
stroke
0 0 0 setrgbcolor
787.402 setlinewidth
newpath
91642.6 61680 moveto
91430 61680 lineto
stroke
0 0 0 setrgbcolor
newpath
91430 61680 moveto
91430 63180 lineto
stroke
0 0 0 setrgbcolor
newpath
80642.6 61680 moveto
80642.6 62967.4 lineto
stroke
0 0 0 setrgbcolor
newpath
80642.6 62967.4 moveto
80430 63180 lineto
stroke
0 0 0 setrgbcolor
1377.95 setlinewidth
newpath
83930 58680 moveto
80680 58680 lineto
stroke
0 0 0 setrgbcolor
newpath
80430 58930 moveto
80430 63180 lineto
stroke
0 0 0 setrgbcolor
newpath
80680 58680 moveto
80430 58930 lineto
stroke
0 0 0 setrgbcolor
newpath
86930 58680 moveto
83930 58680 lineto
stroke
0 0 0 setrgbcolor
newpath
91430 63180 moveto
91430 65430 lineto
stroke
0 0 0 setrgbcolor
newpath
84180 64680 moveto
84180 58930 lineto
stroke
0 0 0 setrgbcolor
newpath
84930 65430 moveto
84180 64680 lineto
stroke
0 0 0 setrgbcolor
newpath
91430 65430 moveto
84930 65430 lineto
stroke
0 0 0 setrgbcolor
newpath
84180 58930 moveto
83930 58680 lineto
stroke
0 0 0 setrgbcolor
629.921 setlinewidth
newpath
22650 39160 moveto
22650 37610 lineto
stroke
0 0 0 setrgbcolor
newpath
22730 37530 moveto
30730 37530 lineto
stroke
0 0 0 setrgbcolor
newpath
22650 37610 moveto
22730 37530 lineto
stroke
0 0 0 setrgbcolor
newpath
22650 39160 moveto
23737.4 39160 lineto
stroke
0 0 0 setrgbcolor
newpath
23737.4 39160 moveto
23970 39392.6 lineto
stroke
0 0 0 setrgbcolor
newpath
30690 39160 moveto
30690 37530 lineto
stroke
0 0 0 setrgbcolor
newpath
30690 37530 moveto
30730 37530 lineto
stroke
0 0 0 setrgbcolor
newpath
30690 39160 moveto
31757.4 39160 lineto
stroke
0 0 0 setrgbcolor
newpath
31757.4 39160 moveto
31990 39392.6 lineto
stroke
0 0 0 setrgbcolor
newpath
30730 37530 moveto
36830 37530 lineto
stroke
0 0 0 setrgbcolor
newpath
36830 37530 moveto
36730 37530 lineto
stroke
0 0 0 setrgbcolor
newpath
36730 37530 moveto
36830 37530 lineto
stroke
0 0 0 setrgbcolor
472.441 setlinewidth
newpath
36830 38120 moveto
36770 38120 lineto
stroke
0 0 0 setrgbcolor
newpath
36770 38120 moveto
36830 38120 lineto
stroke
0 0 0 setrgbcolor
629.921 setlinewidth
newpath
52830 37980 moveto
52830 34880 lineto
stroke
0 0 0 setrgbcolor
newpath
52930 34980 moveto
52930 34880 lineto
stroke
0 0 0 setrgbcolor
newpath
52830 34880 moveto
52930 34980 lineto
stroke
0 0 0 setrgbcolor
newpath
57530 34880 moveto
52930 34880 lineto
stroke
0 0 0 setrgbcolor
newpath
68130 34880 moveto
57530 34880 lineto
stroke
0 0 0 setrgbcolor
newpath
52930 34880 moveto
51730 34880 lineto
stroke
0 0 0 setrgbcolor
newpath
36830 35780 moveto
36830 37530 lineto
stroke
0 0 0 setrgbcolor
newpath
38130 34480 moveto
36830 35780 lineto
stroke
0 0 0 setrgbcolor
newpath
51330 34480 moveto
38130 34480 lineto
stroke
0 0 0 setrgbcolor
newpath
51730 34880 moveto
51330 34480 lineto
stroke
0 0 0 setrgbcolor
newpath
36830 37530 moveto
36830 38120 lineto
stroke
0 0 0 setrgbcolor
newpath
36830 38120 moveto
36830 38380 lineto
stroke
0 0 0 setrgbcolor
newpath
36830 38380 moveto
36830 39480 lineto
stroke
0 0 0 setrgbcolor
newpath
81130 41080 moveto
81130 40080 lineto
stroke
0 0 0 setrgbcolor
551.181 setlinewidth
newpath
52830 37980 moveto
54117.4 37980 lineto
stroke
0 0 0 setrgbcolor
newpath
54117.4 37980 moveto
54330 38192.6 lineto
stroke
0 0 0 setrgbcolor
newpath
89330 45080 moveto
88930 45080 lineto
stroke
0 0 0 setrgbcolor
newpath
88930 45080 moveto
85430 41580 lineto
stroke
0 0 0 setrgbcolor
newpath
85430 41580 moveto
84230 41580 lineto
stroke
0 0 0 setrgbcolor
newpath
84230 41580 moveto
82630 39980 lineto
stroke
0 0 0 setrgbcolor
newpath
81080 42980 moveto
81080 41130 lineto
stroke
0 0 0 setrgbcolor
newpath
81080 41130 moveto
81130 41080 lineto
stroke
0 0 0 setrgbcolor
newpath
89330 45080 moveto
89130 45080 lineto
stroke
0 0 0 setrgbcolor
newpath
89330 45080 moveto
89330 46217.4 lineto
stroke
0 0 0 setrgbcolor
newpath
89330 46217.4 moveto
89442.6 46330 lineto
stroke
0 0 0 setrgbcolor
708.661 setlinewidth
newpath
89129 48080.2 moveto
89129 45281 lineto
stroke
0 0 0 setrgbcolor
newpath
89129 45281 moveto
89330 45080 lineto
stroke
0 0 0 setrgbcolor
629.921 setlinewidth
newpath
79130 38080 moveto
79130 36380 lineto
stroke
0 0 0 setrgbcolor
newpath
79130 36380 moveto
78730 35980 lineto
stroke
0 0 0 setrgbcolor
newpath
78730 35980 moveto
69230 35980 lineto
stroke
0 0 0 setrgbcolor
newpath
69230 35980 moveto
68130 34880 lineto
stroke
0 0 0 setrgbcolor
newpath
81130 40080 moveto
79130 38080 lineto
stroke
0 0 0 setrgbcolor
551.181 setlinewidth
newpath
82630 39980 moveto
81130 39980 lineto
stroke
0 0 0 setrgbcolor
newpath
81130 39980 moveto
81130 40080 lineto
stroke
0 0 0 setrgbcolor
629.921 setlinewidth
newpath
23530 44492.6 moveto
23717.4 44492.6 lineto
stroke
0 0 0 setrgbcolor
newpath
23717.4 44492.6 moveto
23998.5 44211.5 lineto
stroke
0 0 0 setrgbcolor
472.441 setlinewidth
newpath
28319 40780 moveto
28319 41619 lineto
stroke
0 0 0 setrgbcolor
newpath
31730 42780 moveto
31730 45338 lineto
stroke
0 0 0 setrgbcolor
newpath
31230 42280 moveto
31730 42780 lineto
stroke
0 0 0 setrgbcolor
newpath
28980 42280 moveto
31230 42280 lineto
stroke
0 0 0 setrgbcolor
newpath
28319 41619 moveto
28980 42280 lineto
stroke
0 0 0 setrgbcolor
newpath
29501 40406 moveto
28693 40406 lineto
stroke
0 0 0 setrgbcolor
newpath
28693 40406 moveto
28319 40780 lineto
stroke
0 0 0 setrgbcolor
newpath
30690 40160 moveto
29747 40160 lineto
stroke
0 0 0 setrgbcolor
newpath
29747 40160 moveto
29501 40406 lineto
stroke
0 0 0 setrgbcolor
newpath
33210 39392.6 moveto
33210 40160 lineto
stroke
0 0 0 setrgbcolor
newpath
33210 40160 moveto
33210 40060 lineto
stroke
0 0 0 setrgbcolor
newpath
33210 40060 moveto
33210 40160 lineto
stroke
0 0 0 setrgbcolor
newpath
30690 40160 moveto
33210 40160 lineto
stroke
0 0 0 setrgbcolor
newpath
33210 40160 moveto
34540.7 40160 lineto
stroke
0 0 0 setrgbcolor
newpath
34540.7 40160 moveto
34730 39970.7 lineto
stroke
0 0 0 setrgbcolor
629.921 setlinewidth
newpath
50830 37980 moveto
50830 37180 lineto
stroke
0 0 0 setrgbcolor
newpath
40830 36980 moveto
40830 39480 lineto
stroke
0 0 0 setrgbcolor
newpath
41430 36380 moveto
40830 36980 lineto
stroke
0 0 0 setrgbcolor
newpath
50030 36380 moveto
41430 36380 lineto
stroke
0 0 0 setrgbcolor
newpath
50830 37180 moveto
50030 36380 lineto
stroke
0 0 0 setrgbcolor
newpath
40830 39480 moveto
40830 45338 lineto
stroke
0 0 0 setrgbcolor
newpath
40830 45338 moveto
40830 45280 lineto
stroke
0 0 0 setrgbcolor
newpath
40830 45280 moveto
40830 45338 lineto
stroke
0 0 0 setrgbcolor
newpath
26930 45338 moveto
28330 45338 lineto
stroke
0 0 0 setrgbcolor
newpath
29630 45338 moveto
31730 45338 lineto
stroke
0 0 0 setrgbcolor
newpath
28330 45338 moveto
29630 45338 lineto
stroke
0 0 0 setrgbcolor
newpath
31730 45338 moveto
40830 45338 lineto
stroke
0 0 0 setrgbcolor
newpath
40830 45338 moveto
51572 45338 lineto
stroke
0 0 0 setrgbcolor
newpath
51572 45338 moveto
51830 45080 lineto
stroke
0 0 0 setrgbcolor
newpath
51830 45080 moveto
51830 44367.4 lineto
stroke
0 0 0 setrgbcolor
newpath
34720.7 39980 moveto
34730 39970.7 lineto
stroke
0 0 0 setrgbcolor
551.181 setlinewidth
newpath
21930 44211.5 moveto
21930 44180 lineto
stroke
0 0 0 setrgbcolor
newpath
21930 44180 moveto
21930 44211.5 lineto
stroke
0 0 0 setrgbcolor
708.661 setlinewidth
newpath
23930 53392.6 moveto
20579.6 53392.6 lineto
stroke
0 0 0 setrgbcolor
newpath
20579.6 53392.6 moveto
20430 53243 lineto
stroke
0 0 0 setrgbcolor
newpath
22930 50467.4 moveto
24216.4 50467.4 lineto
stroke
0 0 0 setrgbcolor
newpath
24216.4 50467.4 moveto
24429 50680 lineto
stroke
0 0 0 setrgbcolor
newpath
21930 50467.4 moveto
22930 50467.4 lineto
stroke
0 0 0 setrgbcolor
newpath
19930 50164.3 moveto
21626.9 50164.3 lineto
stroke
0 0 0 setrgbcolor
newpath
21626.9 50164.3 moveto
21930 50467.4 lineto
stroke
0 0 0 setrgbcolor
1574.8 setlinewidth
newpath
20430 44211.5 moveto
21930 44211.5 lineto
stroke
0 0 0 setrgbcolor
newpath
21930 44211.5 moveto
23998.5 44211.5 lineto
stroke
0 0 0 setrgbcolor
newpath
23998.5 44211.5 moveto
25803.5 44211.5 lineto
stroke
0 0 0 setrgbcolor
newpath
25803.5 44211.5 moveto
26930 45338 lineto
stroke
0 0 0 setrgbcolor
newpath
24429 50680 moveto
24429 49681 lineto
stroke
0 0 0 setrgbcolor
newpath
26930 47180 moveto
26930 45338 lineto
stroke
0 0 0 setrgbcolor
newpath
24429 49681 moveto
26930 47180 lineto
stroke
0 0 0 setrgbcolor
newpath
20430 53243 moveto
23867 53243 lineto
stroke
0 0 0 setrgbcolor
newpath
24429 52681 moveto
24429 50680 lineto
stroke
0 0 0 setrgbcolor
newpath
23867 53243 moveto
24429 52681 lineto
stroke
0 0 0 setrgbcolor
629.921 setlinewidth
newpath
78742.6 44580 moveto
78742.6 45792.6 lineto
stroke
0 0 0 setrgbcolor
newpath
78742.6 45792.6 moveto
79330 46380 lineto
stroke
0 0 0 setrgbcolor
newpath
79080 42980 moveto
79080 44242.6 lineto
stroke
0 0 0 setrgbcolor
newpath
79080 44242.6 moveto
78742.6 44580 lineto
stroke
0 0 0 setrgbcolor
newpath
79080 42980 moveto
79080 41080 lineto
stroke
0 0 0 setrgbcolor
newpath
79130 41180 moveto
79130 41080 lineto
stroke
0 0 0 setrgbcolor
newpath
79130 41130 moveto
79130 41180 lineto
stroke
0 0 0 setrgbcolor
newpath
79080 41080 moveto
79130 41130 lineto
stroke
0 0 0 setrgbcolor
newpath
77498.5 37580 moveto
77498.5 41080 lineto
stroke
0 0 0 setrgbcolor
newpath
77530 40980 moveto
77530 41080 lineto
stroke
0 0 0 setrgbcolor
newpath
77530 41048.5 moveto
77530 40980 lineto
stroke
0 0 0 setrgbcolor
newpath
77498.5 41080 moveto
77530 41048.5 lineto
stroke
0 0 0 setrgbcolor
newpath
80130 41080 moveto
79130 41080 lineto
stroke
0 0 0 setrgbcolor
newpath
79130 41080 moveto
77530 41080 lineto
stroke
0 0 0 setrgbcolor
newpath
77530 41080 moveto
73830.8 41080 lineto
stroke
0 0 0 setrgbcolor
newpath
73830.8 41080 moveto
73631 41279.8 lineto
stroke
0 0 0 setrgbcolor
472.441 setlinewidth
newpath
62630 39392.6 moveto
62630 39580 lineto
stroke
0 0 0 setrgbcolor
newpath
62630 39580 moveto
62130 40080 lineto
stroke
0 0 0 setrgbcolor
newpath
62130 40080 moveto
58642.6 40080 lineto
stroke
0 0 0 setrgbcolor
newpath
58642.6 40080 moveto
58530 40192.6 lineto
stroke
0 0 0 setrgbcolor
629.921 setlinewidth
newpath
66630 38830 moveto
66630 37380 lineto
stroke
0 0 0 setrgbcolor
newpath
62629 37481 moveto
62629 38180.2 lineto
stroke
0 0 0 setrgbcolor
newpath
62930 37180 moveto
62629 37481 lineto
stroke
0 0 0 setrgbcolor
newpath
66430 37180 moveto
62930 37180 lineto
stroke
0 0 0 setrgbcolor
newpath
66630 37380 moveto
66430 37180 lineto
stroke
0 0 0 setrgbcolor
newpath
62630 39392.6 moveto
62630 38181.2 lineto
stroke
0 0 0 setrgbcolor
newpath
62630 38181.2 moveto
62629 38180.2 lineto
stroke
0 0 0 setrgbcolor
newpath
46330 37480 moveto
44117.4 37480 lineto
stroke
0 0 0 setrgbcolor
newpath
49830 37980 moveto
48130 37980 lineto
stroke
0 0 0 setrgbcolor
newpath
47630 37480 moveto
46330 37480 lineto
stroke
0 0 0 setrgbcolor
newpath
48130 37980 moveto
47630 37480 lineto
stroke
0 0 0 setrgbcolor
newpath
44117.4 41480 moveto
46330 41480 lineto
stroke
0 0 0 setrgbcolor
newpath
50830 40980 moveto
50830 41880 lineto
stroke
0 0 0 setrgbcolor
newpath
48030 41480 moveto
46330 41480 lineto
stroke
0 0 0 setrgbcolor
newpath
48430 41880 moveto
48030 41480 lineto
stroke
0 0 0 setrgbcolor
newpath
50830 41880 moveto
48430 41880 lineto
stroke
0 0 0 setrgbcolor
1574.8 setlinewidth
newpath
43930 63180 moveto
43930 65780 lineto
stroke
0 0 0 setrgbcolor
newpath
48830 51880 moveto
48630 51680 lineto
stroke
0 0 0 setrgbcolor
newpath
48830 65880 moveto
48830 51880 lineto
stroke
0 0 0 setrgbcolor
newpath
48530 66180 moveto
48830 65880 lineto
stroke
0 0 0 setrgbcolor
newpath
44330 66180 moveto
48530 66180 lineto
stroke
0 0 0 setrgbcolor
newpath
43930 65780 moveto
44330 66180 lineto
stroke
0 0 0 setrgbcolor
629.921 setlinewidth
newpath
57930 50467.4 moveto
57930 51680 lineto
stroke
0 0 0 setrgbcolor
newpath
57930 51680 moveto
58030 51680 lineto
stroke
0 0 0 setrgbcolor
newpath
55430 50467.4 moveto
55430 51180 lineto
stroke
0 0 0 setrgbcolor
newpath
55430 51180 moveto
56130 51880 lineto
stroke
0 0 0 setrgbcolor
newpath
57142.6 57180 moveto
56130 57180 lineto
stroke
0 0 0 setrgbcolor
newpath
56130 57180 moveto
56630 57180 lineto
stroke
0 0 0 setrgbcolor
newpath
56630 57180 moveto
56130 57180 lineto
stroke
0 0 0 setrgbcolor
1574.8 setlinewidth
newpath
56130 63180 moveto
56130 57180 lineto
stroke
0 0 0 setrgbcolor
newpath
56130 57180 moveto
56130 51880 lineto
stroke
0 0 0 setrgbcolor
newpath
56130 51880 moveto
56130 51680 lineto
stroke
0 0 0 setrgbcolor
newpath
55930 52180 moveto
55930 51680 lineto
stroke
0 0 0 setrgbcolor
newpath
55930 51880 moveto
55930 52180 lineto
stroke
0 0 0 setrgbcolor
newpath
56130 51680 moveto
55930 51880 lineto
stroke
0 0 0 setrgbcolor
2165.35 setlinewidth
newpath
85430 55680 moveto
85430 52780 lineto
stroke
0 0 0 setrgbcolor
newpath
84330 51680 moveto
70930 51680 lineto
stroke
0 0 0 setrgbcolor
newpath
85430 52780 moveto
84330 51680 lineto
stroke
0 0 0 setrgbcolor
newpath
70930 51680 moveto
58030 51680 lineto
stroke
0 0 0 setrgbcolor
newpath
58030 51680 moveto
55930 51680 lineto
stroke
0 0 0 setrgbcolor
newpath
55930 51680 moveto
51930 51680 lineto
stroke
0 0 0 setrgbcolor
newpath
51930 51680 moveto
48630 51680 lineto
stroke
0 0 0 setrgbcolor
newpath
48630 51680 moveto
36430 51680 lineto
stroke
0 0 0 setrgbcolor
1377.95 setlinewidth
newpath
88680 57680 moveto
88680 56430 lineto
stroke
0 0 0 setrgbcolor
newpath
88680 56430 moveto
86930 54680 lineto
stroke
0 0 0 setrgbcolor
newpath
88180 56680 moveto
86930 56680 lineto
stroke
0 0 0 setrgbcolor
newpath
88180 60430 moveto
85930 62680 lineto
stroke
0 0 0 setrgbcolor
newpath
88180 60430 moveto
88680 59930 lineto
stroke
0 0 0 setrgbcolor
newpath
88680 59930 moveto
88680 57680 lineto
stroke
0 0 0 setrgbcolor
newpath
88680 57680 moveto
88680 57180 lineto
stroke
0 0 0 setrgbcolor
newpath
88680 57180 moveto
88180 56680 lineto
stroke
0 0 0 setrgbcolor
newpath
85930 62680 moveto
85930 63180 lineto
stroke
0 0 0 setrgbcolor
newpath
86930 55680 moveto
85430 55680 lineto
stroke
0 0 0 setrgbcolor
newpath
85430 55680 moveto
84930 55680 lineto
stroke
0 0 0 setrgbcolor
newpath
84930 55680 moveto
83930 54680 lineto
stroke
0 0 0 setrgbcolor
newpath
83930 56680 moveto
83930 54680 lineto
stroke
0 0 0 setrgbcolor
newpath
86930 56680 moveto
86930 55680 lineto
stroke
0 0 0 setrgbcolor
newpath
86930 55680 moveto
86930 54680 lineto
stroke
0 0 0 setrgbcolor
newpath
86930 54680 moveto
85430 54680 lineto
stroke
0 0 0 setrgbcolor
newpath
85430 54680 moveto
83930 54680 lineto
stroke
0 0 0 setrgbcolor
newpath
86930 56680 moveto
83930 56680 lineto
stroke
0 0 0 setrgbcolor
1574.8 setlinewidth
newpath
43930 63180 moveto
43930 60180 lineto
stroke
0 0 0 setrgbcolor
newpath
33930 66180 moveto
33930 63180 lineto
stroke
0 0 0 setrgbcolor
newpath
34430 66180 moveto
33930 66180 lineto
stroke
0 0 0 setrgbcolor
newpath
38930 66180 moveto
34430 66180 lineto
stroke
0 0 0 setrgbcolor
newpath
38930 60180 moveto
38930 66180 lineto
stroke
0 0 0 setrgbcolor
newpath
43930 60180 moveto
38930 60180 lineto
stroke
0 0 0 setrgbcolor
708.661 setlinewidth
newpath
30142.6 59680 moveto
26088 59680 lineto
stroke
0 0 0 setrgbcolor
1574.8 setlinewidth
newpath
31730 63180 moveto
26430 63180 lineto
stroke
0 0 0 setrgbcolor
newpath
26088 62838 moveto
26088 59680 lineto
stroke
0 0 0 setrgbcolor
newpath
26430 63180 moveto
26088 62838 lineto
stroke
0 0 0 setrgbcolor
newpath
42930 68680 moveto
53930 68680 lineto
stroke
0 0 0 setrgbcolor
newpath
53930 68680 moveto
53930 63180 lineto
stroke
0 0 0 setrgbcolor
newpath
42930 68680 moveto
31930 68680 lineto
stroke
0 0 0 setrgbcolor
newpath
31730 68480 moveto
31730 63180 lineto
stroke
0 0 0 setrgbcolor
newpath
31930 68680 moveto
31730 68480 lineto
stroke
0 0 0 setrgbcolor
newpath
41730 68480 moveto
41730 63180 lineto
stroke
0 0 0 setrgbcolor
newpath
42930 68680 moveto
41930 68680 lineto
stroke
0 0 0 setrgbcolor
newpath
41930 68680 moveto
41730 68480 lineto
stroke
0 0 0 setrgbcolor
708.661 setlinewidth
newpath
91130 53680 moveto
89530 53680 lineto
stroke
0 0 0 setrgbcolor
newpath
89129 53279 moveto
89129 52080.2 lineto
stroke
0 0 0 setrgbcolor
newpath
89530 53680 moveto
89129 53279 lineto
stroke
0 0 0 setrgbcolor
1377.95 setlinewidth
newpath
90930 53680 moveto
91130 53680 lineto
stroke
0 0 0 setrgbcolor
newpath
91130 53680 moveto
94430 53680 lineto
stroke
0 0 0 setrgbcolor
newpath
90430 59680 moveto
90430 60680 lineto
stroke
0 0 0 setrgbcolor
newpath
90430 60680 moveto
87930 63180 lineto
stroke
0 0 0 setrgbcolor
newpath
90430.2 53680 moveto
90930 53680 lineto
stroke
0 0 0 setrgbcolor
newpath
90430 53680.2 moveto
90430.2 53680 lineto
stroke
0 0 0 setrgbcolor
newpath
90430 59680 moveto
90430 53680.2 lineto
stroke
0 0 0 setrgbcolor
708.661 setlinewidth
newpath
86430 45180 moveto
87180 45180 lineto
stroke
0 0 0 setrgbcolor
newpath
87430.2 45430.2 moveto
87430.2 46681 lineto
stroke
0 0 0 setrgbcolor
newpath
87180 45180 moveto
87430.2 45430.2 lineto
stroke
0 0 0 setrgbcolor
newpath
87430.2 46681 moveto
87430.2 48179.8 lineto
stroke
0 0 0 setrgbcolor
newpath
87430.2 48179.8 moveto
86930 48680 lineto
stroke
0 0 0 setrgbcolor
393.701 setlinewidth
newpath
27930 25680 moveto
27930 24880 lineto
stroke
0 0 0 setrgbcolor
newpath
28430 24380 moveto
30842.6 24380 lineto
stroke
0 0 0 setrgbcolor
newpath
27930 24880 moveto
28430 24380 lineto
stroke
0 0 0 setrgbcolor
629.921 setlinewidth
newpath
27930 25680 moveto
25030 25680 lineto
stroke
0 0 0 setrgbcolor
393.701 setlinewidth
newpath
32829.8 29379 moveto
29429 29379 lineto
stroke
0 0 0 setrgbcolor
newpath
27930 27880 moveto
27930 26680 lineto
stroke
0 0 0 setrgbcolor
newpath
29429 29379 moveto
27930 27880 lineto
stroke
0 0 0 setrgbcolor
newpath
36830 31280 moveto
36830 29379.2 lineto
stroke
0 0 0 setrgbcolor
newpath
36830 29379.2 moveto
36829.8 29379 lineto
stroke
0 0 0 setrgbcolor
629.921 setlinewidth
newpath
39830 31280 moveto
39830 32180 lineto
stroke
0 0 0 setrgbcolor
newpath
25030 28080 moveto
25030 26680 lineto
stroke
0 0 0 setrgbcolor
newpath
29230 32280 moveto
25030 28080 lineto
stroke
0 0 0 setrgbcolor
newpath
39730 32280 moveto
29230 32280 lineto
stroke
0 0 0 setrgbcolor
newpath
39830 32180 moveto
39730 32280 lineto
stroke
0 0 0 setrgbcolor
393.701 setlinewidth
newpath
25030 26780 moveto
25030 26680 lineto
stroke
0 0 0 setrgbcolor
629.921 setlinewidth
newpath
73631 37279.8 moveto
75229.8 37279.8 lineto
stroke
0 0 0 setrgbcolor
newpath
75229.8 37279.8 moveto
75530 37580 lineto
stroke
0 0 0 setrgbcolor
551.181 setlinewidth
newpath
72330 39180 moveto
73430 39180 lineto
stroke
0 0 0 setrgbcolor
newpath
73631 38979 moveto
73631 37279.8 lineto
stroke
0 0 0 setrgbcolor
newpath
73430 39180 moveto
73631 38979 lineto
stroke
0 0 0 setrgbcolor
629.921 setlinewidth
newpath
53130 44367.4 moveto
56642.6 44367.4 lineto
stroke
0 0 0 setrgbcolor
newpath
56830 44180 moveto
58430 44180 lineto
stroke
0 0 0 setrgbcolor
newpath
56642.6 44367.4 moveto
56830 44180 lineto
stroke
0 0 0 setrgbcolor
newpath
60429.8 44179 moveto
58431 44179 lineto
stroke
0 0 0 setrgbcolor
newpath
58431 44179 moveto
58430 44180 lineto
stroke
0 0 0 setrgbcolor
newpath
60429 42180.2 moveto
60429 44178.2 lineto
stroke
0 0 0 setrgbcolor
newpath
60429 44178.2 moveto
60429.8 44179 lineto
stroke
0 0 0 setrgbcolor
newpath
50630 35480 moveto
41030 35480 lineto
stroke
0 0 0 setrgbcolor
newpath
51830 36680 moveto
50630 35480 lineto
stroke
0 0 0 setrgbcolor
newpath
51830 37980 moveto
51830 36680 lineto
stroke
0 0 0 setrgbcolor
newpath
39830 36680 moveto
39830 39480 lineto
stroke
0 0 0 setrgbcolor
newpath
41030 35480 moveto
39830 36680 lineto
stroke
0 0 0 setrgbcolor
472.441 setlinewidth
newpath
51830 37980 moveto
51830 38780 lineto
stroke
0 0 0 setrgbcolor
newpath
59629.2 38980 moveto
60429 38180.2 lineto
stroke
0 0 0 setrgbcolor
newpath
52030 38980 moveto
59629.2 38980 lineto
stroke
0 0 0 setrgbcolor
newpath
51830 38780 moveto
52030 38980 lineto
stroke
0 0 0 setrgbcolor
551.181 setlinewidth
newpath
60429 38180.2 moveto
60429 38181 lineto
stroke
0 0 0 setrgbcolor
629.921 setlinewidth
newpath
65630 41830 moveto
65630 42978.8 lineto
stroke
0 0 0 setrgbcolor
newpath
65630 42978.8 moveto
64429.8 44179 lineto
stroke
0 0 0 setrgbcolor
472.441 setlinewidth
newpath
64630 38830 moveto
64630 39680 lineto
stroke
0 0 0 setrgbcolor
newpath
70230 39680 moveto
70230 39192.6 lineto
stroke
0 0 0 setrgbcolor
newpath
69930 39980 moveto
70230 39680 lineto
stroke
0 0 0 setrgbcolor
newpath
64930 39980 moveto
69930 39980 lineto
stroke
0 0 0 setrgbcolor
newpath
64630 39680 moveto
64930 39980 lineto
stroke
0 0 0 setrgbcolor
629.921 setlinewidth
newpath
38830 31280 moveto
38830 26942 lineto
stroke
0 0 0 setrgbcolor
newpath
38830 26942 moveto
39692 26080 lineto
stroke
0 0 0 setrgbcolor
newpath
41830 31280 moveto
41830 26249 lineto
stroke
0 0 0 setrgbcolor
newpath
41830 26249 moveto
41661 26080 lineto
stroke
0 0 0 setrgbcolor
393.701 setlinewidth
newpath
42830 31280 moveto
42830 27080 lineto
stroke
0 0 0 setrgbcolor
newpath
33561 25149 moveto
33561 26080 lineto
stroke
0 0 0 setrgbcolor
newpath
34530 24180 moveto
33561 25149 lineto
stroke
0 0 0 setrgbcolor
newpath
42430 24180 moveto
34530 24180 lineto
stroke
0 0 0 setrgbcolor
newpath
42630 24380 moveto
42430 24180 lineto
stroke
0 0 0 setrgbcolor
newpath
42630 26880 moveto
42630 24380 lineto
stroke
0 0 0 setrgbcolor
newpath
42830 27080 moveto
42630 26880 lineto
stroke
0 0 0 setrgbcolor
newpath
43630 26080 moveto
43630 23880 lineto
stroke
0 0 0 setrgbcolor
newpath
32417.4 23792.6 moveto
32417.4 24380 lineto
stroke
0 0 0 setrgbcolor
newpath
32730 23480 moveto
32417.4 23792.6 lineto
stroke
0 0 0 setrgbcolor
newpath
43230 23480 moveto
32730 23480 lineto
stroke
0 0 0 setrgbcolor
newpath
43630 23880 moveto
43230 23480 lineto
stroke
0 0 0 setrgbcolor
629.921 setlinewidth
newpath
43830 31280 moveto
43830 26280 lineto
stroke
0 0 0 setrgbcolor
newpath
43830 26280 moveto
43630 26080 lineto
stroke
0 0 0 setrgbcolor
newpath
32517.4 43280 moveto
38230 43280 lineto
stroke
0 0 0 setrgbcolor
newpath
38830 42680 moveto
38830 39480 lineto
stroke
0 0 0 setrgbcolor
newpath
38230 43280 moveto
38830 42680 lineto
stroke
0 0 0 setrgbcolor
newpath
85430 45180 moveto
85430 44080 lineto
stroke
0 0 0 setrgbcolor
newpath
85330 43980 moveto
83930 43980 lineto
stroke
0 0 0 setrgbcolor
newpath
85430 44080 moveto
85330 43980 lineto
stroke
0 0 0 setrgbcolor
551.181 setlinewidth
newpath
70230 40767.4 moveto
71042.6 40767.4 lineto
stroke
0 0 0 setrgbcolor
newpath
71230 38180 moveto
72330 38180 lineto
stroke
0 0 0 setrgbcolor
newpath
71130 38280 moveto
71230 38180 lineto
stroke
0 0 0 setrgbcolor
newpath
71130 40680 moveto
71130 38280 lineto
stroke
0 0 0 setrgbcolor
newpath
71042.6 40767.4 moveto
71130 40680 lineto
stroke
0 0 0 setrgbcolor
629.921 setlinewidth
newpath
58430 43180 moveto
55630 43180 lineto
stroke
0 0 0 setrgbcolor
newpath
55630 43180 moveto
55630 42667.4 lineto
stroke
0 0 0 setrgbcolor
1574.8 setlinewidth
newpath
51730 63180 moveto
51730 59380 lineto
stroke
0 0 0 setrgbcolor
newpath
51730 59380 moveto
51930 59180 lineto
stroke
0 0 0 setrgbcolor
newpath
51930 59180 moveto
52930 59180 lineto
stroke
0 0 0 setrgbcolor
472.441 setlinewidth
newpath
49330 42792.6 moveto
49330 43580 lineto
stroke
0 0 0 setrgbcolor
newpath
54330 43080 moveto
54330 42667.4 lineto
stroke
0 0 0 setrgbcolor
newpath
53830 43580 moveto
54330 43080 lineto
stroke
0 0 0 setrgbcolor
newpath
50430 43580 moveto
53830 43580 lineto
stroke
0 0 0 setrgbcolor
newpath
49330 43580 moveto
50430 43580 lineto
stroke
0 0 0 setrgbcolor
newpath
54330 42667.4 moveto
54330 42080 lineto
stroke
0 0 0 setrgbcolor
newpath
54530 41880 moveto
58417.4 41880 lineto
stroke
0 0 0 setrgbcolor
newpath
54330 42080 moveto
54530 41880 lineto
stroke
0 0 0 setrgbcolor
newpath
58417.4 41880 moveto
58530 41767.4 lineto
stroke
0 0 0 setrgbcolor
629.921 setlinewidth
newpath
53130 42792.6 moveto
53130 41280 lineto
stroke
0 0 0 setrgbcolor
newpath
53130 41280 moveto
52830 40980 lineto
stroke
0 0 0 setrgbcolor
newpath
50530 42792.6 moveto
51830 42792.6 lineto
stroke
0 0 0 setrgbcolor
newpath
51830 42792.6 moveto
51830 40980 lineto
stroke
0 0 0 setrgbcolor
551.181 setlinewidth
newpath
82130 41080 moveto
82430 41080 lineto
stroke
0 0 0 setrgbcolor
newpath
82430 41080 moveto
82830 41480 lineto
stroke
0 0 0 setrgbcolor
newpath
82830 41480 moveto
82830 46080.8 lineto
stroke
0 0 0 setrgbcolor
newpath
82830 46080.8 moveto
83430.2 46681 lineto
stroke
0 0 0 setrgbcolor
708.661 setlinewidth
newpath
83430.2 46681 moveto
83430.2 48180.2 lineto
stroke
0 0 0 setrgbcolor
newpath
83430.2 48180.2 moveto
83930 48680 lineto
stroke
0 0 0 setrgbcolor
629.921 setlinewidth
newpath
67630 41830 moveto
67630 43680 lineto
stroke
0 0 0 setrgbcolor
newpath
67930 43980 moveto
76130 43980 lineto
stroke
0 0 0 setrgbcolor
newpath
67630 43680 moveto
67930 43980 lineto
stroke
0 0 0 setrgbcolor
newpath
42830 39480 moveto
42830 40380 lineto
stroke
0 0 0 setrgbcolor
newpath
42542.6 40667.4 moveto
42542.6 41480 lineto
stroke
0 0 0 setrgbcolor
newpath
42830 40380 moveto
42542.6 40667.4 lineto
stroke
0 0 0 setrgbcolor
newpath
41830 39480 moveto
41830 37780 lineto
stroke
0 0 0 setrgbcolor
newpath
42130 37480 moveto
42542.6 37480 lineto
stroke
0 0 0 setrgbcolor
newpath
41830 37780 moveto
42130 37480 lineto
stroke
0 0 0 setrgbcolor
393.701 setlinewidth
newpath
40830 31280 moveto
40830 26980 lineto
stroke
0 0 0 setrgbcolor
newpath
36830 24780 moveto
35530 26080 lineto
stroke
0 0 0 setrgbcolor
newpath
40430 24780 moveto
36830 24780 lineto
stroke
0 0 0 setrgbcolor
newpath
40630 24980 moveto
40430 24780 lineto
stroke
0 0 0 setrgbcolor
newpath
40630 26780 moveto
40630 24980 lineto
stroke
0 0 0 setrgbcolor
newpath
40830 26980 moveto
40630 26780 lineto
stroke
0 0 0 setrgbcolor
629.921 setlinewidth
newpath
37830 31280 moveto
37830 28380 lineto
stroke
0 0 0 setrgbcolor
newpath
31592 27392 moveto
31592 26080 lineto
stroke
0 0 0 setrgbcolor
newpath
32230 28030 moveto
31592 27392 lineto
stroke
0 0 0 setrgbcolor
newpath
37480 28030 moveto
32230 28030 lineto
stroke
0 0 0 setrgbcolor
newpath
37830 28380 moveto
37480 28030 lineto
stroke
0 0 0 setrgbcolor
newpath
22650 41160 moveto
23777.4 41160 lineto
stroke
0 0 0 setrgbcolor
newpath
23777.4 41160 moveto
23970 40967.4 lineto
stroke
0 0 0 setrgbcolor
newpath
25070 40967.4 moveto
23970 40967.4 lineto
stroke
0 0 0 setrgbcolor
newpath
22650 41160 moveto
26350 41160 lineto
stroke
0 0 0 setrgbcolor
newpath
26350 41160 moveto
26550 40960 lineto
stroke
0 0 0 setrgbcolor
newpath
26550 40960 moveto
26550 41100 lineto
stroke
0 0 0 setrgbcolor
newpath
26550 41100 moveto
28730 43280 lineto
stroke
0 0 0 setrgbcolor
newpath
28730 43280 moveto
30942.6 43280 lineto
stroke
0 0 0 setrgbcolor
472.441 setlinewidth
newpath
22650 41160 moveto
21087 41160 lineto
stroke
0 0 0 setrgbcolor
newpath
21087 41160 moveto
21021 41094 lineto
stroke
0 0 0 setrgbcolor
629.921 setlinewidth
newpath
30690 41160 moveto
31797.4 41160 lineto
stroke
0 0 0 setrgbcolor
newpath
31797.4 41160 moveto
31990 40967.4 lineto
stroke
0 0 0 setrgbcolor
newpath
33210 40967.4 moveto
31990 40967.4 lineto
stroke
0 0 0 setrgbcolor
newpath
34730 40955 moveto
33222.4 40955 lineto
stroke
0 0 0 setrgbcolor
newpath
33222.4 40955 moveto
33210 40967.4 lineto
stroke
0 0 0 setrgbcolor
newpath
34717.6 40967.4 moveto
34730 40955 lineto
stroke
0 0 0 setrgbcolor
newpath
34730 40955 moveto
37555 40955 lineto
stroke
0 0 0 setrgbcolor
newpath
37830 40680 moveto
37830 39480 lineto
stroke
0 0 0 setrgbcolor
newpath
37555 40955 moveto
37830 40680 lineto
stroke
0 0 0 setrgbcolor
472.441 setlinewidth
newpath
29501 41154 moveto
30684 41154 lineto
stroke
0 0 0 setrgbcolor
newpath
30684 41154 moveto
30690 41160 lineto
stroke
0 0 0 setrgbcolor
newpath
34717.6 40967.4 moveto
34730 40955 lineto
stroke
0 0 0 setrgbcolor
629.921 setlinewidth
newpath
62930 45180 moveto
65830 45180 lineto
stroke
0 0 0 setrgbcolor
708.661 setlinewidth
newpath
62930 61880 moveto
62930 54180 lineto
stroke
0 0 0 setrgbcolor
629.921 setlinewidth
newpath
65830 45180 moveto
66630 44380 lineto
stroke
0 0 0 setrgbcolor
newpath
66630 44380 moveto
66630 41830 lineto
stroke
0 0 0 setrgbcolor
708.661 setlinewidth
newpath
62930 63180 moveto
62930 61880 lineto
stroke
0 0 0 setrgbcolor
newpath
62930 60680 moveto
63217.4 60680 lineto
stroke
0 0 0 setrgbcolor
newpath
62930 61680 moveto
62930 60680 lineto
stroke
0 0 0 setrgbcolor
newpath
62930 61880 moveto
62930 61680 lineto
stroke
0 0 0 setrgbcolor
629.921 setlinewidth
newpath
58717.4 57180 moveto
59930 57180 lineto
stroke
0 0 0 setrgbcolor
newpath
59930 45180 moveto
58430 45180 lineto
stroke
0 0 0 setrgbcolor
newpath
59930 57180 moveto
59930 54180 lineto
stroke
0 0 0 setrgbcolor
708.661 setlinewidth
newpath
58835.5 59180 moveto
58835.5 57298.1 lineto
stroke
0 0 0 setrgbcolor
newpath
58835.5 57298.1 moveto
58717.4 57180 lineto
stroke
0 0 0 setrgbcolor
629.921 setlinewidth
newpath
23530 46067.4 moveto
23530 46180 lineto
stroke
0 0 0 setrgbcolor
newpath
44130 54180 moveto
44130 57180 lineto
stroke
0 0 0 setrgbcolor
newpath
44142.6 44367.4 moveto
44130 44380 lineto
stroke
0 0 0 setrgbcolor
newpath
49330 44367.4 moveto
44142.6 44367.4 lineto
stroke
0 0 0 setrgbcolor
newpath
44130 57180 moveto
44130 56780 lineto
stroke
0 0 0 setrgbcolor
newpath
44130 56780 moveto
44130 57180 lineto
stroke
0 0 0 setrgbcolor
newpath
50530 44367.4 moveto
49330 44367.4 lineto
stroke
0 0 0 setrgbcolor
1574.8 setlinewidth
newpath
20430 46180 moveto
23929 46180 lineto
stroke
0 0 0 setrgbcolor
newpath
23929 46180 moveto
24429 46680 lineto
stroke
0 0 0 setrgbcolor
708.661 setlinewidth
newpath
19930 49180 moveto
17930 49180 lineto
stroke
0 0 0 setrgbcolor
newpath
21930 48892.6 moveto
22930 48892.6 lineto
stroke
0 0 0 setrgbcolor
newpath
19930 49180 moveto
21642.6 49180 lineto
stroke
0 0 0 setrgbcolor
newpath
21642.6 49180 moveto
21930 48892.6 lineto
stroke
0 0 0 setrgbcolor
1574.8 setlinewidth
newpath
20430 57180 moveto
17930 57180 lineto
stroke
0 0 0 setrgbcolor
newpath
17930 57180 moveto
17930 55680 lineto
stroke
0 0 0 setrgbcolor
newpath
17930 55680 moveto
17930 50180 lineto
stroke
0 0 0 setrgbcolor
newpath
17930 50180 moveto
17930 49180 lineto
stroke
0 0 0 setrgbcolor
newpath
19430 46180 moveto
20430 46180 lineto
stroke
0 0 0 setrgbcolor
newpath
17930 49180 moveto
17930 47680 lineto
stroke
0 0 0 setrgbcolor
newpath
17930 47680 moveto
19430 46180 lineto
stroke
0 0 0 setrgbcolor
708.661 setlinewidth
newpath
31717.4 59680 moveto
35930 59680 lineto
stroke
0 0 0 setrgbcolor
newpath
35930 59680 moveto
35930 62980 lineto
stroke
0 0 0 setrgbcolor
newpath
35930 62980 moveto
36130 63180 lineto
stroke
0 0 0 setrgbcolor
1574.8 setlinewidth
newpath
20430 57180 moveto
44130 57180 lineto
stroke
0 0 0 setrgbcolor
newpath
44130 57180 moveto
45430 57180 lineto
stroke
0 0 0 setrgbcolor
newpath
45430 57180 moveto
46130 57880 lineto
stroke
0 0 0 setrgbcolor
newpath
36130 57480 moveto
45730 57480 lineto
stroke
0 0 0 setrgbcolor
newpath
46130 63180 moveto
46130 57880 lineto
stroke
0 0 0 setrgbcolor
newpath
45730 57480 moveto
46130 57880 lineto
stroke
0 0 0 setrgbcolor
newpath
36130 57480 moveto
36130 63180 lineto
stroke
1 1 1 setrgbcolor
0 setlinewidth
28980 48780 68.8976 cir1
78.7402 setlinewidth
0 setlinewidth
28980 44280 68.8976 cir1
78.7402 setlinewidth
0 setlinewidth
78930 54180 68.8976 cir1
78.7402 setlinewidth
0 setlinewidth
81930 54180 68.8976 cir1
78.7402 setlinewidth
0 setlinewidth
80430 54180 68.8976 cir1
78.7402 setlinewidth
0 setlinewidth
78930 49180 68.8976 cir1
78.7402 setlinewidth
0 setlinewidth
81930 49180 68.8976 cir1
78.7402 setlinewidth
0 setlinewidth
80430 49180 68.8976 cir1
78.7402 setlinewidth
0 setlinewidth
70230 36880 68.8976 cir1
78.7402 setlinewidth
0 setlinewidth
70230 35080 68.8976 cir1
78.7402 setlinewidth
0 setlinewidth
61430 54180 68.8976 cir1
78.7402 setlinewidth
0 setlinewidth
61430 39180 68.8976 cir1
78.7402 setlinewidth
0 setlinewidth
62930 54180 68.8976 cir1
78.7402 setlinewidth
0 setlinewidth
62930 45180 68.8976 cir1
78.7402 setlinewidth
0 setlinewidth
59930 45180 68.8976 cir1
78.7402 setlinewidth
0 setlinewidth
59930 54180 68.8976 cir1
78.7402 setlinewidth
0 setlinewidth
44130 54180 68.8976 cir1
78.7402 setlinewidth
0 setlinewidth
44130 44380 68.8976 cir1
78.7402 setlinewidth
0 setlinewidth
26550 39975.7 68.8976 cir1
78.7402 setlinewidth
0 setlinewidth
26550 40960 68.8976 cir1
78.7402 setlinewidth
0 setlinewidth
58835.5 59180 68.8976 cir1
78.7402 setlinewidth
0 setlinewidth
52930 59180 68.8976 cir1
78.7402 setlinewidth
0 setlinewidth
73631 37279.8 68.8976 cir1
78.7402 setlinewidth
0 setlinewidth
73631 41279.8 68.8976 cir1
78.7402 setlinewidth
472.441 setlinewidth
newpath
36430 52428 moveto
36430 50932 lineto
stroke
newpath
36430 48491 moveto
36430 46995 lineto
stroke
0 setlinewidth
90678 36980 68.8976 cir1
78.7402 setlinewidth
0 setlinewidth
90678 41232 68.8976 cir1
78.7402 setlinewidth
0 setlinewidth
94930 41232 68.8976 cir1
78.7402 setlinewidth
0 setlinewidth
94930 36980 68.8976 cir1
78.7402 setlinewidth
0 setlinewidth
82598.5 37580 68.8976 cir1
78.7402 setlinewidth
0 setlinewidth
80630 37580 68.8976 cir1
78.7402 setlinewidth
0 setlinewidth
26930 45338 68.8976 cir1
78.7402 setlinewidth
0 setlinewidth
26930 55180 68.8976 cir1
78.7402 setlinewidth
0 setlinewidth
20430 53243 68.8976 cir1
78.7402 setlinewidth
0 setlinewidth
20430 55211.5 68.8976 cir1
78.7402 setlinewidth
0 setlinewidth
20430 57180 68.8976 cir1
78.7402 setlinewidth
0 setlinewidth
83930 48680 68.8976 cir1
78.7402 setlinewidth
0 setlinewidth
86930 48680 68.8976 cir1
78.7402 setlinewidth
0 setlinewidth
86930 54680 68.8976 cir1
78.7402 setlinewidth
0 setlinewidth
83930 54680 68.8976 cir1
78.7402 setlinewidth
0 setlinewidth
86930 56680 68.8976 cir1
78.7402 setlinewidth
0 setlinewidth
83930 56680 68.8976 cir1
78.7402 setlinewidth
0 setlinewidth
86930 58680 68.8976 cir1
78.7402 setlinewidth
0 setlinewidth
83930 58680 68.8976 cir1
78.7402 setlinewidth
0 setlinewidth
84980 39480 68.8976 cir1
78.7402 setlinewidth
0 setlinewidth
85964.3 39480 68.8976 cir1
78.7402 setlinewidth
0 setlinewidth
91298.5 45080 68.8976 cir1
78.7402 setlinewidth
0 setlinewidth
89330 45080 68.8976 cir1
78.7402 setlinewidth
0 setlinewidth
34730 40955 68.8976 cir1
78.7402 setlinewidth
0 setlinewidth
34730 39970.7 68.8976 cir1
78.7402 setlinewidth
0 setlinewidth
79330 46380 68.8976 cir1
78.7402 setlinewidth
0 setlinewidth
80314.3 46380 68.8976 cir1
78.7402 setlinewidth
0 setlinewidth
46330 37480 68.8976 cir1
78.7402 setlinewidth
0 setlinewidth
46330 38464.3 68.8976 cir1
78.7402 setlinewidth
0 setlinewidth
46330 40495.7 68.8976 cir1
78.7402 setlinewidth
0 setlinewidth
46330 41480 68.8976 cir1
78.7402 setlinewidth
0 setlinewidth
19930 50164.3 68.8976 cir1
78.7402 setlinewidth
0 setlinewidth
19930 49180 68.8976 cir1
78.7402 setlinewidth
0 setlinewidth
74930 63180 68.8976 cir1
78.7402 setlinewidth
0 setlinewidth
76930 63180 68.8976 cir1
78.7402 setlinewidth
0 setlinewidth
69430 63180 68.8976 cir1
78.7402 setlinewidth
0 setlinewidth
71430 63180 68.8976 cir1
78.7402 setlinewidth
0 setlinewidth
82430 63180 68.8976 cir1
78.7402 setlinewidth
0 setlinewidth
80430 63180 68.8976 cir1
78.7402 setlinewidth
0 setlinewidth
93430 63180 68.8976 cir1
78.7402 setlinewidth
0 setlinewidth
91430 63180 68.8976 cir1
78.7402 setlinewidth
0 setlinewidth
89129 48080.2 68.8976 cir1
78.7402 setlinewidth
0 setlinewidth
89129 52080.2 68.8976 cir1
78.7402 setlinewidth
0 setlinewidth
87930 63180 68.8976 cir1
78.7402 setlinewidth
0 setlinewidth
85930 63180 68.8976 cir1
78.7402 setlinewidth
0 setlinewidth
87430.2 46681 68.8976 cir1
78.7402 setlinewidth
0 setlinewidth
83430.2 46681 68.8976 cir1
78.7402 setlinewidth
0 setlinewidth
27930 25680 68.8976 cir1
78.7402 setlinewidth
0 setlinewidth
27930 26680 68.8976 cir1
78.7402 setlinewidth
0 setlinewidth
36829.8 29379 68.8976 cir1
78.7402 setlinewidth
0 setlinewidth
32829.8 29379 68.8976 cir1
78.7402 setlinewidth
0 setlinewidth
25030 26680 68.8976 cir1
78.7402 setlinewidth
0 setlinewidth
25030 25680 68.8976 cir1
78.7402 setlinewidth
0 setlinewidth
62629 38180.2 68.8976 cir1
78.7402 setlinewidth
0 setlinewidth
62629 42180.2 68.8976 cir1
78.7402 setlinewidth
0 setlinewidth
60429 42180.2 68.8976 cir1
78.7402 setlinewidth
0 setlinewidth
60429 38180.2 68.8976 cir1
78.7402 setlinewidth
0 setlinewidth
64429.8 44179 68.8976 cir1
78.7402 setlinewidth
0 setlinewidth
60429.8 44179 68.8976 cir1
78.7402 setlinewidth
0 setlinewidth
24429 46680 68.8976 cir1
78.7402 setlinewidth
0 setlinewidth
24429 50680 68.8976 cir1
78.7402 setlinewidth
0 setlinewidth
67630 41830 68.8976 cir1
78.7402 setlinewidth
0 setlinewidth
66630 41830 68.8976 cir1
78.7402 setlinewidth
0 setlinewidth
65630 41830 68.8976 cir1
78.7402 setlinewidth
0 setlinewidth
64630 41830 68.8976 cir1
78.7402 setlinewidth
0 setlinewidth
64630 38830 68.8976 cir1
78.7402 setlinewidth
0 setlinewidth
65630 38830 68.8976 cir1
78.7402 setlinewidth
0 setlinewidth
66630 38830 68.8976 cir1
78.7402 setlinewidth
0 setlinewidth
67630 38830 68.8976 cir1
78.7402 setlinewidth
0 setlinewidth
77498.5 37580 68.8976 cir1
78.7402 setlinewidth
0 setlinewidth
75530 37580 68.8976 cir1
78.7402 setlinewidth
0 setlinewidth
86430 45180 68.8976 cir1
78.7402 setlinewidth
0 setlinewidth
84430 45180 68.8976 cir1
78.7402 setlinewidth
0 setlinewidth
85430 45180 68.8976 cir1
78.7402 setlinewidth
0 setlinewidth
72330 40180 68.8976 cir1
78.7402 setlinewidth
0 setlinewidth
72330 38180 68.8976 cir1
78.7402 setlinewidth
0 setlinewidth
72330 39180 68.8976 cir1
78.7402 setlinewidth
0 setlinewidth
58430 44180 68.8976 cir1
78.7402 setlinewidth
0 setlinewidth
58430 43180 68.8976 cir1
78.7402 setlinewidth
0 setlinewidth
58430 45180 68.8976 cir1
78.7402 setlinewidth
0 setlinewidth
35930 59680 68.8976 cir1
78.7402 setlinewidth
0 setlinewidth
26088 59680 68.8976 cir1
78.7402 setlinewidth
0 setlinewidth
43630 26080 68.8976 cir1
78.7402 setlinewidth
0 setlinewidth
39692 26080 68.8976 cir1
78.7402 setlinewidth
0 setlinewidth
41661 26080 68.8976 cir1
78.7402 setlinewidth
0 setlinewidth
33561 26080 68.8976 cir1
78.7402 setlinewidth
0 setlinewidth
31592 26080 68.8976 cir1
78.7402 setlinewidth
0 setlinewidth
35530 26080 68.8976 cir1
78.7402 setlinewidth
0 setlinewidth
63930 63180 68.8976 cir1
78.7402 setlinewidth
0 setlinewidth
61930 63180 68.8976 cir1
78.7402 setlinewidth
0 setlinewidth
62930 63180 68.8976 cir1
78.7402 setlinewidth
0 setlinewidth
52830 37980 68.8976 cir1
78.7402 setlinewidth
0 setlinewidth
51830 37980 68.8976 cir1
78.7402 setlinewidth
0 setlinewidth
50830 37980 68.8976 cir1
78.7402 setlinewidth
0 setlinewidth
49830 37980 68.8976 cir1
78.7402 setlinewidth
0 setlinewidth
49830 40980 68.8976 cir1
78.7402 setlinewidth
0 setlinewidth
50830 40980 68.8976 cir1
78.7402 setlinewidth
0 setlinewidth
51830 40980 68.8976 cir1
78.7402 setlinewidth
0 setlinewidth
52830 40980 68.8976 cir1
78.7402 setlinewidth
0 setlinewidth
94430 53680 68.8976 cir1
78.7402 setlinewidth
0 setlinewidth
94430 55648.5 68.8976 cir1
78.7402 setlinewidth
0 setlinewidth
94430 57617 68.8976 cir1
78.7402 setlinewidth
0 setlinewidth
94430 48180 68.8976 cir1
78.7402 setlinewidth
0 setlinewidth
94430 50148.5 68.8976 cir1
78.7402 setlinewidth
0 setlinewidth
20430 44211.5 68.8976 cir1
78.7402 setlinewidth
0 setlinewidth
20430 46180 68.8976 cir1
78.7402 setlinewidth
0 setlinewidth
56130 63180 68.8976 cir1
78.7402 setlinewidth
0 setlinewidth
51730 63180 68.8976 cir1
78.7402 setlinewidth
0 setlinewidth
53930 63180 68.8976 cir1
78.7402 setlinewidth
0 setlinewidth
43930 63180 68.8976 cir1
78.7402 setlinewidth
0 setlinewidth
41730 63180 68.8976 cir1
78.7402 setlinewidth
0 setlinewidth
46130 63180 68.8976 cir1
78.7402 setlinewidth
0 setlinewidth
86680 37380 68.8976 cir1
78.7402 setlinewidth
0 setlinewidth
85680 37380 68.8976 cir1
78.7402 setlinewidth
0 setlinewidth
87680 37380 68.8976 cir1
78.7402 setlinewidth
0 setlinewidth
22650 39160 68.8976 cir1
78.7402 setlinewidth
0 setlinewidth
22650 41160 68.8976 cir1
78.7402 setlinewidth
0 setlinewidth
22650 40160 68.8976 cir1
78.7402 setlinewidth
0 setlinewidth
30690 40160 68.8976 cir1
78.7402 setlinewidth
0 setlinewidth
30690 41160 68.8976 cir1
78.7402 setlinewidth
0 setlinewidth
30690 39160 68.8976 cir1
78.7402 setlinewidth
0 setlinewidth
81080 42980 68.8976 cir1
78.7402 setlinewidth
0 setlinewidth
79080 42980 68.8976 cir1
78.7402 setlinewidth
0 setlinewidth
80080 42980 68.8976 cir1
78.7402 setlinewidth
0 setlinewidth
36130 63180 68.8976 cir1
78.7402 setlinewidth
0 setlinewidth
31730 63180 68.8976 cir1
78.7402 setlinewidth
0 setlinewidth
33930 63180 68.8976 cir1
78.7402 setlinewidth
0 setlinewidth
87545.7 40530 68.8976 cir1
78.7402 setlinewidth
0 setlinewidth
88530 40530 68.8976 cir1
78.7402 setlinewidth
0 setlinewidth
82130 41080 68.8976 cir1
78.7402 setlinewidth
0 setlinewidth
81130 41080 68.8976 cir1
78.7402 setlinewidth
0 setlinewidth
80130 41080 68.8976 cir1
78.7402 setlinewidth
0 setlinewidth
43830 39480 68.8976 cir1
78.7402 setlinewidth
0 setlinewidth
42830 39480 68.8976 cir1
78.7402 setlinewidth
0 setlinewidth
41830 39480 68.8976 cir1
78.7402 setlinewidth
0 setlinewidth
40830 39480 68.8976 cir1
78.7402 setlinewidth
0 setlinewidth
39830 39480 68.8976 cir1
78.7402 setlinewidth
0 setlinewidth
38830 39480 68.8976 cir1
78.7402 setlinewidth
0 setlinewidth
37830 39480 68.8976 cir1
78.7402 setlinewidth
0 setlinewidth
36830 39480 68.8976 cir1
78.7402 setlinewidth
472.441 setlinewidth
newpath
70930 52428 moveto
70930 50932 lineto
stroke
newpath
70930 48491 moveto
70930 46995 lineto
stroke
newpath
51930 52428 moveto
51930 50932 lineto
stroke
newpath
51930 48491 moveto
51930 46995 lineto
stroke
0 setlinewidth
36830 31280 68.8976 cir1
78.7402 setlinewidth
0 setlinewidth
37830 31280 68.8976 cir1
78.7402 setlinewidth
0 setlinewidth
38830 31280 68.8976 cir1
78.7402 setlinewidth
0 setlinewidth
39830 31280 68.8976 cir1
78.7402 setlinewidth
0 setlinewidth
40830 31280 68.8976 cir1
78.7402 setlinewidth
0 setlinewidth
41830 31280 68.8976 cir1
78.7402 setlinewidth
0 setlinewidth
42830 31280 68.8976 cir1
78.7402 setlinewidth
0 setlinewidth
43830 31280 68.8976 cir1
78.7402 setlinewidth
0 setlinewidth
62930 54180 68.8976 cir1
78.7402 setlinewidth
0 setlinewidth
62930 45180 68.8976 cir1
78.7402 setlinewidth
0 setlinewidth
76130 43980 68.8976 cir1
78.7402 setlinewidth
0 setlinewidth
83930 43980 68.8976 cir1
78.7402 setlinewidth
0 setlinewidth
61430 39180 68.8976 cir1
78.7402 setlinewidth
0 setlinewidth
61430 54180 68.8976 cir1
78.7402 setlinewidth
0 setlinewidth
59930 45180 68.8976 cir1
78.7402 setlinewidth
0 setlinewidth
59930 54180 68.8976 cir1
78.7402 setlinewidth
0 setlinewidth
28930 48780 68.8976 cir1
78.7402 setlinewidth
0 setlinewidth
28930 44280 68.8976 cir1
78.7402 setlinewidth
0 setlinewidth
44130 54180 68.8976 cir1
78.7402 setlinewidth
0 setlinewidth
44130 44380 68.8976 cir1
78.7402 setlinewidth
0 setlinewidth
80430 54180 68.8976 cir1
78.7402 setlinewidth
0 setlinewidth
81930 54180 68.8976 cir1
78.7402 setlinewidth
0 setlinewidth
78930 54180 68.8976 cir1
78.7402 setlinewidth
0 setlinewidth
81930 49180 68.8976 cir1
78.7402 setlinewidth
0 setlinewidth
80430 49180 68.8976 cir1
78.7402 setlinewidth
0 setlinewidth
78930 49180 68.8976 cir1
78.7402 setlinewidth
0 0 0 setrgbcolor
showpage
grestore
%%EOF
